<svg width="16" height="23" viewBox="0 0 16 23" fill="none" xmlns="http://www.w3.org/2000/svg">
<path fill-rule="evenodd" clip-rule="evenodd" d="M9.20005 19.6201V22.2H6.20005V19.8H0.800049V3.00001H6.20005V0.600006H9.20005V3.17979C13.023 3.90485 15.2 6.7943 15.2 11.3243C15.2 15.9588 13.045 18.8893 9.20005 19.6201ZM9.20005 16.7558C11.0709 15.9564 12.0958 14.1071 12.0958 11.3709C12.0958 8.70396 11.0534 6.86204 9.20005 6.05559V16.7558ZM6.20005 5.59626H3.84529V17.2037H6.20005V5.59626Z" fill="#4090FF"/>
</svg>
