<svg width="24" height="24" viewBox="0 0 24 24" fill="none" xmlns="http://www.w3.org/2000/svg">
<path d="M4.48047 11.98H19.4705" stroke="#4090FF" stroke-width="1.5" stroke-linecap="round" stroke-linejoin="round"/>
<path d="M13.4824 5.98798L19.5194 12L13.4824 18.012" stroke="#4090FF" stroke-width="1.5" stroke-linecap="round" stroke-linejoin="round"/>
</svg>
