<svg width="24" height="24" viewBox="0 0 24 24" fill="none" xmlns="http://www.w3.org/2000/svg">
<path d="M8 10L12 14L16 10" stroke="#76787A" stroke-width="1.5" stroke-linecap="round" stroke-linejoin="round"/>
</svg>
