<svg width="48" height="48" viewBox="0 0 48 48" fill="none" xmlns="http://www.w3.org/2000/svg">
<ellipse cx="17.9972" cy="19.9983" rx="12.005" ry="5.00208" stroke="#4BB34B" stroke-width="1.5" stroke-linecap="round" stroke-linejoin="round"/>
<path d="M30.0022 27.0012C30.0022 29.7638 24.6274 32.0033 17.9972 32.0033C11.367 32.0033 5.99219 29.7638 5.99219 27.0012" stroke="#4BB34B" stroke-width="1.5" stroke-linecap="round" stroke-linejoin="round"/>
<path d="M42.007 19.9983C42.007 22.7609 36.6321 25.0004 30.002 25.0004" stroke="#4BB34B" stroke-width="1.5" stroke-linecap="round" stroke-linejoin="round"/>
<path d="M30.0022 19.9983V35.0045C30.0022 37.7671 24.6274 40.0066 17.9972 40.0066C11.367 40.0066 5.99219 37.7671 5.99219 35.0045V19.9983" stroke="#4BB34B" stroke-width="1.5" stroke-linecap="round" stroke-linejoin="round"/>
<path d="M42.007 12.9954V28.0016C42.007 30.7642 36.6321 33.0037 30.002 33.0037" stroke="#4BB34B" stroke-width="1.5" stroke-linecap="round" stroke-linejoin="round"/>
<path d="M18.9985 15.0162C18.4045 14.5063 18.0434 13.7769 17.998 12.9954C17.998 10.2342 23.3803 7.99329 30.003 7.99329C36.6258 7.99329 42.008 10.2342 42.008 12.9954C42.008 15.7565 36.6258 17.9975 30.003 17.9975C29.6629 17.9975 29.3228 17.9975 29.0026 17.9774" stroke="#4BB34B" stroke-width="1.5" stroke-linecap="round" stroke-linejoin="round"/>
</svg>
