<svg width="20" height="20" viewBox="0 0 20 20" fill="none" xmlns="http://www.w3.org/2000/svg">
<path d="M12.5 14.1667H15.8333C16.7538 14.1667 17.5 13.4205 17.5 12.5V6.21176C17.5 5.54872 17.2366 4.91283 16.7678 4.44399L15.556 3.23223C15.0872 2.76339 14.4513 2.5 13.7882 2.5H9.13084C8.21036 2.5 7.46417 3.24619 7.46417 4.16667V5.83333" stroke="#6D7885" stroke-width="1.5" stroke-linecap="round" stroke-linejoin="round"/>
<path fill-rule="evenodd" clip-rule="evenodd" d="M11.7678 7.77734L10.556 6.56558C10.0872 6.09674 9.45128 5.83334 8.78824 5.83334H4.16667C3.24619 5.83334 2.5 6.57954 2.5 7.50001V15.8333C2.5 16.7538 3.24619 17.5 4.16667 17.5H10.8333C11.7538 17.5 12.5 16.7538 12.5 15.8333V9.5451C12.5 8.88206 12.2366 8.24618 11.7678 7.77734Z" stroke="#6D7885" stroke-width="1.5" stroke-linecap="round" stroke-linejoin="round"/>
</svg>
