<svg width="20" height="20" viewBox="0 0 20 20" fill="none" xmlns="http://www.w3.org/2000/svg">
<path d="M1.74167 10.9083C6.3025 5.03583 13.6967 5.03583 18.2575 10.9083" stroke="#6D7885" stroke-width="1.5" stroke-linecap="round" stroke-linejoin="round"/>
<path d="M12.8592 7.76501C14.3236 9.22947 14.3236 11.6038 12.8592 13.0683C11.3947 14.5328 9.02034 14.5328 7.55587 13.0683C6.0914 11.6038 6.0914 9.22947 7.55587 7.76501C9.02034 6.30054 11.3947 6.30054 12.8592 7.76501" stroke="#6D7885" stroke-width="1.5" stroke-linecap="round" stroke-linejoin="round"/>
</svg>
