<svg width="24" height="24" viewBox="0 0 24 24" fill="none" xmlns="http://www.w3.org/2000/svg">
<path fill-rule="evenodd" clip-rule="evenodd" d="M15 17L16 15L13.052 13.019L11.109 12.895L10 14L12 17H15Z" stroke="#4090FF" stroke-width="1.5" stroke-linecap="round" stroke-linejoin="round"/>
<path fill-rule="evenodd" clip-rule="evenodd" d="M12.8129 3.03498C7.18892 2.54598 2.54592 7.18898 3.03492 12.813C3.40692 17.092 6.90692 20.592 11.1859 20.964C16.8099 21.453 21.4529 16.811 20.9639 11.186C20.5919 6.90798 17.0919 3.40798 12.8129 3.03498Z" stroke="#4090FF" stroke-width="1.5" stroke-linecap="round" stroke-linejoin="round"/>
<path d="M3.95093 7.96101L7.99993 11L9.00493 9.00501L12.9999 8.00001L14.1819 3.27301" stroke="#4090FF" stroke-width="1.5" stroke-linecap="round" stroke-linejoin="round"/>
</svg>
