<svg width="24" height="24" viewBox="0 0 24 24" fill="none" xmlns="http://www.w3.org/2000/svg">
<path d="M14.001 21.0037H19.0031C20.1081 21.0037 21.0039 20.1079 21.0039 19.0029V15.0012" stroke="#4090FF" stroke-width="1.5" stroke-linecap="round" stroke-linejoin="round"/>
<path d="M9.99925 2.99622H4.99717C3.89214 2.99622 2.99634 3.89202 2.99634 4.99705V9.99913" stroke="#4090FF" stroke-width="1.5" stroke-linecap="round" stroke-linejoin="round"/>
<circle cx="17.0021" cy="6.99793" r="5.00208" stroke="#4090FF" stroke-width="1.5" stroke-linecap="round" stroke-linejoin="round"/>
<path fill-rule="evenodd" clip-rule="evenodd" d="M6.99793 22.0042V22.0042C4.23536 22.0042 1.99585 19.7647 1.99585 17.0021V17.0021C1.99585 14.2395 4.23536 12 6.99793 12V12C8.32457 12 9.59687 12.527 10.5349 13.4651C11.473 14.4031 12 15.6754 12 17.0021V17.0021C12 18.3287 11.473 19.601 10.5349 20.5391C9.59687 21.4772 8.32457 22.0042 6.99793 22.0042Z" stroke="#4090FF" stroke-width="1.5" stroke-linecap="round" stroke-linejoin="round"/>
<path d="M5.46143 17.8324H8.54471" stroke="#4090FF" stroke-width="1.5" stroke-linecap="round" stroke-linejoin="round"/>
<path d="M8.79877 18.5527L7.50223 14.9512H6.49381L5.19727 18.5527" stroke="#4090FF" stroke-width="1.5" stroke-linecap="round" stroke-linejoin="round"/>
<path d="M18.5028 6.12252H17.0022" stroke="#4090FF" stroke-width="1.5" stroke-linecap="round" stroke-linejoin="round"/>
<path d="M17.0022 4.95508V6.12256" stroke="#4090FF" stroke-width="1.5" stroke-linecap="round" stroke-linejoin="round"/>
<path d="M15.5015 6.12252H17.0021" stroke="#4090FF" stroke-width="1.5" stroke-linecap="round" stroke-linejoin="round"/>
<path d="M18.3588 8.6236C17.5134 8.07238 17.0032 7.13179 17.0022 6.12256" stroke="#4090FF" stroke-width="1.5" stroke-linecap="round" stroke-linejoin="round"/>
<path d="M17.0023 6.12256C17.0013 7.13179 16.4911 8.07238 15.6458 8.6236" stroke="#4090FF" stroke-width="1.5" stroke-linecap="round" stroke-linejoin="round"/>
</svg>
