<svg width="25" height="24" viewBox="0 0 25 24" fill="none" xmlns="http://www.w3.org/2000/svg">
<path d="M12.5 20.0033C15.4314 20.0036 18.1284 18.4012 19.5299 15.8266" stroke="white" stroke-width="1.5" stroke-linecap="round" stroke-linejoin="round"/>
<path d="M20.5033 12C20.5033 7.57987 16.9201 3.99666 12.5 3.99666" stroke="white" stroke-width="1.5" stroke-linecap="round" stroke-linejoin="round"/>
<path d="M12.4997 3.99666C9.56827 3.99641 6.8713 5.59878 5.46973 8.1734" stroke="white" stroke-width="1.5" stroke-linecap="round" stroke-linejoin="round"/>
<path d="M4.49707 12C4.49707 16.4201 8.08028 20.0033 12.5004 20.0033" stroke="white" stroke-width="1.5" stroke-linecap="round" stroke-linejoin="round"/>
<path d="M5.46973 8.17341C7.2192 4.95839 10.9268 3.33988 14.4739 4.24276C18.021 5.14564 20.5035 8.33981 20.503 12" stroke="white" stroke-width="1.5" stroke-linecap="round" stroke-linejoin="round"/>
<path d="M4.49707 12C4.49651 15.6602 6.97909 18.8544 10.5262 19.7572C14.0733 20.6601 17.7809 19.0416 19.5303 15.8266" stroke="white" stroke-width="1.5" stroke-linecap="round" stroke-linejoin="round"/>
<path d="M8.54526 8.1734H5.00879V4.63593" stroke="white" stroke-width="1.5" stroke-linecap="round" stroke-linejoin="round"/>
<path d="M16.4551 15.8266H19.9916V19.3641" stroke="white" stroke-width="1.5" stroke-linecap="round" stroke-linejoin="round"/>
</svg>
