<svg width="40" height="40" viewBox="0 0 40 40" fill="none" xmlns="http://www.w3.org/2000/svg">
<path fill-rule="evenodd" clip-rule="evenodd" d="M9.79199 14.3751H5.83366C4.91366 14.3751 4.16699 15.1217 4.16699 16.0417V23.9584C4.16699 24.8784 4.91366 25.6251 5.83366 25.6251H9.79199L16.4237 31.2434C17.507 32.1617 19.167 31.3917 19.167 29.9717V10.0284C19.167 8.60838 17.5053 7.83838 16.4237 8.75672L9.79199 14.3751Z" stroke="white" stroke-width="2" stroke-linecap="round" stroke-linejoin="round"/>
<path d="M25.8945 26.63C27.8312 25.4267 29.1662 22.9233 29.1662 20.0083C29.1662 17.0933 27.8312 14.5883 25.8945 13.37" stroke="white" stroke-width="2" stroke-linecap="round" stroke-linejoin="round"/>
<path d="M30.8413 31.775C33.8547 29.1834 35.833 24.8834 35.833 20.005C35.833 15.12 33.8513 10.8167 30.833 8.22668" stroke="white" stroke-width="2" stroke-linecap="round" stroke-linejoin="round"/>
</svg>
