<svg width="20" height="20" viewBox="0 0 20 20" fill="none" xmlns="http://www.w3.org/2000/svg">
<path fill-rule="evenodd" clip-rule="evenodd" d="M14.1667 15H5.83333C5.37333 15 5 14.6267 5 14.1667V10C5 9.54001 5.37333 9.16667 5.83333 9.16667H14.1667C14.6267 9.16667 15 9.54001 15 10V14.1667C15 14.6267 14.6267 15 14.1667 15Z" stroke="#6D7885" stroke-width="1.5" stroke-linecap="round" stroke-linejoin="round"/>
<path fill-rule="evenodd" clip-rule="evenodd" d="M4.16667 17.5H15.8333C16.7542 17.5 17.5 16.7542 17.5 15.8333V4.16667C17.5 3.24583 16.7542 2.5 15.8333 2.5H4.16667C3.24583 2.5 2.5 3.24583 2.5 4.16667V15.8333C2.5 16.7542 3.24583 17.5 4.16667 17.5Z" stroke="#6D7885" stroke-width="1.5" stroke-linecap="round" stroke-linejoin="round"/>
<path d="M17.5 6.66667H2.5" stroke="#6D7885" stroke-width="1.5" stroke-linecap="round" stroke-linejoin="round"/>
</svg>
