<svg width="30" height="30" viewBox="0 0 30 30" fill="none" xmlns="http://www.w3.org/2000/svg">
<path fill-rule="evenodd" clip-rule="evenodd" d="M16.2585 18.2787C15.2127 19.8767 14.8794 21.8049 15.2571 23.6125C15.319 23.9108 15.5919 24.1108 15.8951 24.0822C17.5677 23.9187 19.1166 23.3014 20.41 22.3477C20.6544 22.1667 20.7242 21.8351 20.5702 21.5716C19.6419 19.9751 18.1041 18.7659 16.2569 18.2787H16.2585ZM30 15C30 6.71604 23.284 0 15 0C6.71604 0 0 6.71604 0 15C0 23.284 6.71604 30 15 30C23.284 30 30 23.284 30 15ZM19.5863 1.10612C19.5705 1.10135 19.553 1.09501 19.5371 1.09025C19.553 1.09501 19.5705 1.10135 19.5863 1.10612ZM13.1179 23.103C13.0036 22.008 13.0877 20.8956 13.3702 19.8228C13.4718 19.4387 13.5971 19.0595 13.7495 18.6881C13.8193 18.5151 13.8098 18.339 13.7193 18.1755C13.6289 18.0121 13.4844 17.9089 13.3004 17.8788C13.0258 17.8311 12.756 17.7756 12.4894 17.7121C12.199 17.6439 11.9086 17.7962 11.7991 18.0724C11.7689 18.1501 11.7388 18.2279 11.7102 18.3057C11.4341 19.0595 11.2421 19.8355 11.1342 20.6226C11.031 21.3717 11.004 22.1286 11.0532 22.8809C11.0675 23.1094 11.2008 23.2982 11.4119 23.3887C11.7182 23.5188 12.0324 23.6347 12.3545 23.7315C12.5497 23.7902 12.7465 23.7505 12.9052 23.6204C13.0639 23.4903 13.1385 23.3046 13.1179 23.1015V23.103ZM9.39642 18.896C9.52497 18.3882 9.68525 17.8867 9.8741 17.3931C9.9836 17.1075 9.86141 16.7885 9.58845 16.6504C9.11712 16.4124 8.66325 16.1458 8.22842 15.8538C7.75074 15.5348 7.29528 15.1841 6.86521 14.808C6.6843 14.6493 6.43991 14.6144 6.22091 14.7175C6.0019 14.8207 5.87336 15.0302 5.8813 15.2714C5.94319 17.4011 6.74143 19.3642 8.04115 20.8972C8.19668 21.0813 8.43314 21.1511 8.66483 21.0813C8.89653 21.0114 9.05523 20.8226 9.08379 20.5829C9.15044 20.0148 9.25518 19.4514 9.39642 18.8944V18.896ZM8.36331 13.4067C8.96953 13.9193 9.63288 14.3668 10.3407 14.7429C10.4137 14.7826 10.4883 14.8207 10.5628 14.8572C10.8295 14.9905 11.1484 14.9095 11.3167 14.6636C11.4722 14.4382 11.6372 14.2145 11.8086 13.997C11.9245 13.851 11.9625 13.6781 11.9213 13.4956C11.8784 13.3146 11.7689 13.175 11.6007 13.0941C11.2389 12.9195 10.8913 12.7227 10.5597 12.5053C9.63288 11.8975 8.8267 11.1262 8.17763 10.2359C8.05702 10.0709 7.8777 9.9836 7.67298 9.99154C7.46826 10.0011 7.29687 10.1026 7.19054 10.2772C7.01756 10.5628 6.86045 10.858 6.71921 11.1627C6.62241 11.3706 6.64939 11.5991 6.79221 11.78C7.25878 12.372 7.78565 12.9163 8.36331 13.4051V13.4067ZM14.2779 14.2795C14.0605 14.4985 13.8526 14.7255 13.6558 14.9572C13.513 15.127 13.4749 15.346 13.5543 15.5523C13.6336 15.7602 13.8082 15.8982 14.0288 15.9284C14.3303 15.9696 14.635 15.9998 14.9445 16.0157C15.0048 16.0188 15.0651 16.0236 15.1238 16.0268C15.3063 16.041 15.4697 15.9776 15.5967 15.8459C15.638 15.803 15.6808 15.7602 15.7221 15.7173C15.9411 15.4983 16.1474 15.2714 16.3442 15.0397C16.487 14.8699 16.5251 14.6509 16.4441 14.443C16.3648 14.2351 16.1902 14.0986 15.9696 14.0669C15.6681 14.0256 15.3634 13.997 15.054 13.9796C14.9937 13.9764 14.9333 13.9716 14.873 13.9685C14.6905 13.9542 14.5271 14.0177 14.4001 14.1494C14.3589 14.1922 14.316 14.2351 14.2748 14.2779L14.2779 14.2795ZM18.6833 15.3333C18.5278 15.5586 18.3628 15.7824 18.1914 15.9998C18.0755 16.1458 18.0375 16.3188 18.0787 16.5013C18.1216 16.6822 18.2311 16.8218 18.3993 16.9028C18.7611 17.0773 19.1087 17.2741 19.4403 17.4915C20.3671 18.0993 21.1733 18.8706 21.8224 19.7609C21.943 19.9259 22.1223 20.0132 22.327 20.0053C22.5317 19.9974 22.7031 19.8942 22.8095 19.7196C22.9824 19.434 23.1395 19.1388 23.2808 18.8341C23.3776 18.6262 23.3506 18.3977 23.2078 18.2168C22.7412 17.6248 22.2143 17.0789 21.6367 16.5917C21.0305 16.0791 20.3671 15.6316 19.6593 15.2555C19.5863 15.2174 19.5117 15.1793 19.4372 15.1412C19.1705 15.0079 18.8516 15.0905 18.6833 15.3349V15.3333ZM20.4116 13.3464C20.8829 13.5844 21.3368 13.851 21.7716 14.143C22.2493 14.462 22.7047 14.8127 23.1348 15.1888C23.3173 15.3475 23.5601 15.3825 23.7791 15.2793C23.9965 15.1762 24.1266 14.9667 24.1187 14.7255C24.0568 12.5957 23.2586 10.6327 21.9588 9.09966C21.8033 8.91557 21.5653 8.84575 21.3352 8.91557C21.1035 8.9854 20.9448 9.17425 20.9162 9.41388C20.848 9.98201 20.7448 10.547 20.6036 11.1024C20.475 11.6102 20.3147 12.1117 20.1259 12.6037C20.0164 12.8893 20.1386 13.2083 20.4116 13.3464ZM18.2914 11.6896C18.5675 10.9358 18.7595 10.1598 18.8674 9.37262C18.9706 8.62357 18.9976 7.86659 18.9484 7.11437C18.9341 6.88584 18.8008 6.697 18.5897 6.60654C18.2834 6.47641 17.9692 6.36056 17.6455 6.26375C17.4503 6.20504 17.2535 6.24471 17.0948 6.37484C16.9377 6.50497 16.8615 6.69065 16.8821 6.89378C16.9964 7.98879 16.9123 9.10125 16.6314 10.174C16.5298 10.5581 16.4045 10.9374 16.2521 11.3087C16.1823 11.4817 16.1918 11.6579 16.2823 11.8213C16.3727 11.9848 16.5171 12.0879 16.7012 12.1197C16.9742 12.1673 17.2456 12.2228 17.5122 12.2863C17.8026 12.3545 18.093 12.2022 18.2025 11.926C18.2326 11.8483 18.2628 11.7705 18.2914 11.6928V11.6896ZM13.9907 11.3103C14.8397 9.79793 15.0905 8.04274 14.7429 6.38595C14.681 6.0876 14.4065 5.88764 14.105 5.91621C12.4323 6.07967 10.8834 6.697 9.59003 7.65076C9.34564 7.83168 9.27582 8.16335 9.42975 8.42679C10.2804 9.88838 11.642 11.0262 13.2829 11.5817C13.5559 11.6737 13.8495 11.561 13.9907 11.3103ZM15.6094 3.93409C21.7192 4.27052 26.4008 9.4964 26.0643 15.6062C25.7279 21.716 20.502 26.3976 14.3922 26.0612C8.28237 25.7247 3.60083 20.4988 3.93726 14.389C4.2737 8.2792 9.49958 3.59765 15.6094 3.93409Z" fill="#F6A632"/>
</svg>
