<svg width="20" height="20" viewBox="0 0 20 20" fill="none" xmlns="http://www.w3.org/2000/svg">
<path d="M15.2011 6.74076H16.0656C16.7663 6.74076 17.3334 7.30787 17.3334 8.00861V16.0663C17.3334 16.7662 16.7663 17.3334 16.0656 17.3334H7.19387C6.49313 17.3334 5.92602 16.7662 5.92602 16.0655V14.8889M7.05047 2.66669V4.29632M11.9394 2.66669V4.29632M6.89565 7.55558H11.7845M6.89565 10.8148H11.7845M3.48239 14.8889H12.6996C13.2447 14.8889 13.7531 14.6168 14.0554 14.1629L14.6535 13.265C15.0104 12.7296 15.2011 12.1006 15.2011 11.4569V5.11113C15.2011 4.21076 14.4718 3.4815 13.5714 3.4815H5.42328C4.52291 3.4815 3.79365 4.21076 3.79365 5.11113V10.8605C3.79365 11.3665 3.6755 11.8651 3.4498 12.3182L2.75395 13.7099C2.48262 14.2517 2.87699 14.8889 3.48239 14.8889Z" stroke="#819299" stroke-linecap="round" stroke-linejoin="round"/>
</svg>
