<svg width="30" height="30" viewBox="0 0 30 30" fill="none" xmlns="http://www.w3.org/2000/svg">
<path d="M11.6428 25.321C12.0361 25.269 12.4334 25.3757 12.7467 25.617L14.1907 26.725C14.668 27.0917 15.332 27.0917 15.808 26.725L17.3066 25.5744C17.5866 25.3597 17.9399 25.265 18.2892 25.3117L20.1639 25.5584C20.7598 25.637 21.3345 25.305 21.5651 24.7491L22.2865 23.0051C22.4211 22.6785 22.6798 22.4198 23.0064 22.2851L24.7504 21.5638C25.3064 21.3345 25.6384 20.7585 25.5597 20.1625L25.3224 18.3559C25.2704 17.9626 25.377 17.5653 25.6184 17.2519L26.7263 15.808C27.093 15.3307 27.093 14.6667 26.7263 14.1907L25.5757 12.6921C25.361 12.4121 25.2664 12.0587 25.313 11.7094L25.5597 9.83481C25.6384 9.23883 25.3064 8.66418 24.7504 8.43352L23.0064 7.7122C22.6798 7.57754 22.4211 7.31888 22.2865 6.99222L21.5651 5.24827C21.3358 4.69229 20.7598 4.3603 20.1639 4.43896L18.2892 4.68562C17.9399 4.73362 17.5866 4.63895 17.3079 4.42563L15.8093 3.27499C15.332 2.90834 14.668 2.90834 14.192 3.27499L12.6934 4.42563C12.4134 4.63895 12.0601 4.73362 11.7108 4.68829L9.83614 4.44163C9.24016 4.36296 8.66551 4.69495 8.43485 5.25094L7.71487 6.99489C7.57887 7.32021 7.32021 7.57887 6.99489 7.71487L5.25094 8.43485C4.69495 8.66551 4.36296 9.24016 4.44163 9.83614L4.68829 11.7108C4.73362 12.0601 4.63895 12.4134 4.42563 12.6921L3.27499 14.1907C2.90834 14.668 2.90834 15.332 3.27499 15.808L4.42563 17.3066C4.64029 17.5866 4.73495 17.9399 4.68829 18.2892L4.44163 20.1639C4.36296 20.7598 4.69495 21.3345 5.25094 21.5651L6.99489 22.2865C7.32155 22.4211 7.58021 22.6798 7.71487 23.0064L8.43618 24.7504C8.66551 25.3064 9.24149 25.6384 9.83748 25.5597L11.6428 25.321Z" fill="black"/>
<path d="M19.9999 12.1347L14.064 18.8026L10.2654 15.0027" fill="black"/>
<path d="M19.9999 12.1347L14.064 18.8026L10.2654 15.0027M11.6428 25.321C12.0361 25.269 12.4334 25.3757 12.7467 25.617L14.1907 26.725C14.668 27.0917 15.332 27.0917 15.808 26.725L17.3066 25.5744C17.5866 25.3597 17.9399 25.265 18.2892 25.3117L20.1639 25.5584C20.7598 25.637 21.3345 25.305 21.5651 24.7491L22.2865 23.0051C22.4211 22.6785 22.6798 22.4198 23.0064 22.2851L24.7504 21.5638C25.3064 21.3345 25.6384 20.7585 25.5597 20.1625L25.3224 18.3559C25.2704 17.9626 25.377 17.5653 25.6184 17.2519L26.7263 15.808C27.093 15.3307 27.093 14.6667 26.7263 14.1907L25.5757 12.6921C25.361 12.4121 25.2664 12.0587 25.313 11.7094L25.5597 9.83481C25.6384 9.23883 25.3064 8.66418 24.7504 8.43352L23.0064 7.7122C22.6798 7.57754 22.4211 7.31888 22.2865 6.99222L21.5651 5.24827C21.3358 4.69229 20.7598 4.3603 20.1639 4.43896L18.2892 4.68562C17.9399 4.73362 17.5866 4.63895 17.3079 4.42563L15.8093 3.27499C15.332 2.90834 14.668 2.90834 14.192 3.27499L12.6934 4.42563C12.4134 4.63895 12.0601 4.73362 11.7108 4.68829L9.83614 4.44163C9.24016 4.36296 8.66551 4.69495 8.43485 5.25094L7.71487 6.99489C7.57887 7.32021 7.32021 7.57887 6.99489 7.71487L5.25094 8.43485C4.69495 8.66551 4.36296 9.24016 4.44163 9.83614L4.68829 11.7108C4.73362 12.0601 4.63895 12.4134 4.42563 12.6921L3.27499 14.1907C2.90834 14.668 2.90834 15.332 3.27499 15.808L4.42563 17.3066C4.64029 17.5866 4.73495 17.9399 4.68829 18.2892L4.44163 20.1639C4.36296 20.7598 4.69495 21.3345 5.25094 21.5651L6.99489 22.2865C7.32155 22.4211 7.58021 22.6798 7.71487 23.0064L8.43618 24.7504C8.66551 25.3064 9.24149 25.6384 9.83748 25.5597L11.6428 25.321Z" stroke="white" stroke-linecap="round" stroke-linejoin="round"/>
</svg>
