<svg width="20" height="20" viewBox="0 0 20 20" fill="none" xmlns="http://www.w3.org/2000/svg">
<path d="M2.66663 9.55555L7.99996 15.3333L17.3333 4.66666" stroke="white" stroke-linecap="round" stroke-linejoin="round"/>
</svg>
