<svg width="24" height="24" viewBox="0 0 24 24" fill="none" xmlns="http://www.w3.org/2000/svg">
<rect width="24" height="24" rx="12" fill="#F5F5F5"/>
<path d="M7.33331 16.6667L16.6666 7.33333M7.33331 7.33333L16.6666 16.6667" stroke="#222222"/>
</svg>
