<svg width="12" height="19" viewBox="0 0 12 19" fill="none" xmlns="http://www.w3.org/2000/svg">
<path fill-rule="evenodd" clip-rule="evenodd" d="M7 16.1834V18.3333H4.5V16.3333H0V2.33333H4.5V0.333328H7V2.48314C10.1858 3.08736 12 5.49524 12 9.27026C12 13.1323 10.2041 15.5744 7 16.1834ZM7 13.7965C8.55902 13.1303 9.41311 11.5892 9.41311 9.30907C9.41311 7.08662 8.54444 5.55169 7 4.87965V13.7965ZM4.5 4.49688H2.5377V14.1698H4.5V4.49688Z" fill="black" fill-opacity="0.35"/>
</svg>
