<svg width="22" height="22" viewBox="0 0 22 22" fill="none" xmlns="http://www.w3.org/2000/svg">
<path d="M4.72595 5.62222V2.93333M4.72595 19.0667V9.20741M11 12.7926V2.93333M11 19.0667V16.3778M17.2741 5.62222V2.93333M17.2741 19.0667V9.20741M5.9935 6.14727C6.69355 6.84732 6.69355 7.98232 5.9935 8.68238C5.29345 9.38243 4.15844 9.38243 3.45839 8.68238C2.75834 7.98232 2.75834 6.84732 3.45839 6.14727C4.15844 5.44721 5.29345 5.44721 5.9935 6.14727ZM12.2676 13.3176C12.9676 14.0177 12.9676 15.1527 12.2676 15.8528C11.5675 16.5528 10.4325 16.5528 9.73245 15.8528C9.0324 15.1527 9.0324 14.0177 9.73245 13.3176C10.4325 12.6176 11.5675 12.6176 12.2676 13.3176ZM18.5416 6.14727C19.2417 6.84732 19.2417 7.98232 18.5416 8.68238C17.8416 9.38243 16.7066 9.38243 16.0065 8.68238C15.3065 7.98232 15.3065 6.84732 16.0065 6.14727C16.7066 5.44721 17.8416 5.44721 18.5416 6.14727Z" stroke="black" stroke-linecap="round" stroke-linejoin="round"/>
</svg>
