<svg width="30" height="30" viewBox="0 0 30 30" fill="none" xmlns="http://www.w3.org/2000/svg">
<path d="M15 21.1111V15H13.7778M15 26C8.92433 26 4 21.0757 4 15C4 8.92433 8.92433 4 15 4C21.0757 4 26 8.92433 26 15C26 21.0757 21.0757 26 15 26ZM14.6932 10.1111C14.5246 10.1111 14.3877 10.248 14.3889 10.4167C14.3889 10.5853 14.5258 10.7222 14.6944 10.7222C14.8631 10.7222 15 10.5853 15 10.4167C15 10.248 14.8631 10.1111 14.6932 10.1111Z" stroke="#162F71" stroke-linecap="round" stroke-linejoin="round"/>
</svg>
