<svg width="60" height="60" viewBox="0 0 60 60" fill="none" xmlns="http://www.w3.org/2000/svg">
<path d="M4 50C4 43.373 9.373 38 16 38H28C34.627 38 40 43.373 40 50M41 11.953C45.143 11.953 48.5 15.31 48.5 19.453C48.5 23.596 45.143 26.953 41 26.953M44 35C50.627 35 56 40.373 56 47M29.2147 12.9884C33.1992 16.9729 33.1992 23.4331 29.2147 27.4176C25.2302 31.4021 18.77 31.4021 14.7855 27.4176C10.801 23.4331 10.801 16.9729 14.7855 12.9884C18.77 9.00387 25.2302 9.00387 29.2147 12.9884Z" stroke="#4090FF" stroke-linecap="round" stroke-linejoin="round"/>
</svg>
