<svg width="30" height="30" viewBox="0 0 30 30" fill="none" xmlns="http://www.w3.org/2000/svg">
<path d="M21.5038 13.3359L9.1094 5.07293C7.78029 4.18686 6 5.13964 6 6.73703V23.263C6 24.8604 7.78029 25.8131 9.1094 24.9271L21.5038 16.6641C22.6913 15.8725 22.6913 14.1275 21.5038 13.3359Z" fill="black"/>
</svg>
