<svg width="30" height="30" viewBox="0 0 30 30" fill="none" xmlns="http://www.w3.org/2000/svg">
<rect width="30" height="30" rx="15" fill="#EFEFEF"/>
<path d="M20.1998 15L11.7998 9.40002V20.6L20.1998 15Z" fill="#4090FF"/>
</svg>
