<svg width="60" height="40" viewBox="0 0 60 40" fill="none" xmlns="http://www.w3.org/2000/svg">
<rect width="60" height="40" rx="20" fill="#4090FF"/>
<path d="M23.333 13.3334L16.6663 20L23.333 26.6667" stroke="white"/>
<path d="M36.667 13.3334L43.3337 20L36.667 26.6667" stroke="white"/>
</svg>
