<svg width="46" height="85" viewBox="0 0 46 85" fill="none" xmlns="http://www.w3.org/2000/svg">
<path d="M43.4546 10.398C43.4546 16.1404 38.6739 20.7959 32.7771 20.7959C26.8796 20.7959 22.0996 16.1404 22.0996 10.398C22.0996 4.65555 26.8796 0 32.7771 0C38.6739 0 43.4546 4.65555 43.4546 10.398Z" fill="#3C3B41"/>
<path d="M45.332 74.002V83.7373C45.332 84.4337 44.75 84.9999 44.0348 84.9999H4.00914C3.29394 84.9999 2.71191 84.4337 2.71191 83.7373V74.002C2.71191 69.0689 6.04023 64.7208 10.8968 63.3129L13.199 62.6456C14.3657 62.3084 15.3306 61.571 15.9486 60.6145C16.2143 60.2073 16.4147 59.7605 16.5426 59.2883C16.6518 58.8947 16.7077 58.4823 16.7077 58.0614V53.5232L30.1975 51.3145V57.7313C30.1975 58.9511 30.6736 60.0892 31.4767 60.9478C32.0654 61.5775 32.8299 62.0587 33.7082 62.3155L37.1491 63.3129C42.0057 64.7214 45.332 69.0689 45.332 74.002Z" fill="#FFDBA9"/>
<path d="M37.1503 63.3129L33.7095 62.3155C32.8311 62.0587 32.0666 61.5775 31.478 60.9478C30.6748 60.0892 30.1987 58.9511 30.1987 57.7313V51.3145L16.709 53.5232V56.1217L25.2042 54.7307V61.1476C25.2042 62.3674 25.6804 63.5055 26.4835 64.3641C27.0722 64.9938 27.8367 65.475 28.715 65.7318L32.1552 66.7292C37.0125 68.1377 40.3388 72.4852 40.3388 77.4183V84.9999H44.0367C44.7519 84.9999 45.3333 84.4337 45.3333 83.7373V74.002C45.3333 69.0689 42.007 64.7214 37.1503 63.3129Z" fill="#FFC473"/>
<path d="M30.1978 51.3145V57.3357C27.8278 58.9291 24.9543 59.8597 21.8584 59.8597H20.6691C19.2367 59.8597 17.8522 59.6612 16.543 59.2883C16.6522 58.8947 16.7081 58.4823 16.7081 58.0614V53.5232L30.1978 51.3145Z" fill="#FFC473"/>
<path d="M36.5738 15.6108V41.0818C36.5738 48.9954 29.9864 55.4109 21.8594 55.4109H20.6701C12.5451 55.4109 5.95703 48.996 5.95703 41.0818V15.6108H36.5738Z" fill="#FFDBA9"/>
<path d="M37.118 38.2556H36.5732V28.7441H37.118C39.815 28.7441 42.0012 30.8738 42.0012 33.4996C42.0012 36.126 39.815 38.2556 37.118 38.2556Z" fill="#FFC473"/>
<path d="M13.7565 31.5734C13.7565 32.3918 13.0753 33.0552 12.2348 33.0552C11.3944 33.0552 10.7139 32.3918 10.7139 31.5734C10.7139 30.755 11.3944 30.0916 12.2348 30.0916C13.0753 30.0916 13.7565 30.755 13.7565 31.5734Z" fill="#57555C"/>
<path d="M25.9281 31.5734C25.9281 32.3918 25.2468 33.0552 24.4064 33.0552C23.566 33.0552 22.8848 32.3918 22.8848 31.5734C22.8848 30.755 23.566 30.0916 24.4064 30.0916C25.2468 30.0916 25.9281 30.755 25.9281 31.5734Z" fill="#57555C"/>
<path d="M17.9578 47.5026C16.5773 47.5026 15.4772 47.1278 14.9444 46.9047C14.2758 46.6246 13.9675 45.8691 14.2552 45.2186C14.5429 44.5669 15.3187 44.2673 15.9873 44.5474C16.5233 44.7718 17.9424 45.2329 19.5367 44.6648C20.7553 44.2297 21.4818 43.3957 21.8068 42.9379C22.2197 42.3542 23.0408 42.2076 23.6401 42.6104C24.2388 43.0131 24.3893 43.812 23.9758 44.3957C23.4736 45.1045 22.3469 46.395 20.443 47.0746C19.562 47.3891 18.7176 47.5026 17.9578 47.5026Z" fill="#C06100"/>
<path d="M15.1626 36.7944H6.14591C5.07642 36.7944 4.20605 35.9468 4.20605 34.9046V28.7582C4.20605 27.7161 5.07642 26.8691 6.14591 26.8691H15.1626C16.2321 26.8691 17.1024 27.7161 17.1024 28.7582V34.9046C17.1024 35.9468 16.2321 36.7944 15.1626 36.7944ZM6.8418 34.2276H14.4667V29.4359H6.8418V34.2276Z" fill="#7047F0"/>
<path d="M30.8228 36.7948H21.2048C20.1353 36.7948 19.2656 35.9473 19.2656 34.9051V28.7587C19.2656 27.7166 20.1353 26.8696 21.2048 26.8696H30.8228C31.8923 26.8696 32.7627 27.7166 32.7627 28.7587V34.9051C32.7627 35.9473 31.8923 36.7948 30.8228 36.7948ZM21.9007 34.2281H30.1269V29.4364H21.9007V34.2281Z" fill="#7047F0"/>
<path d="M20.585 31.5946H15.7837C15.0558 31.5946 14.4658 31.02 14.4658 30.3112C14.4658 29.6018 15.0558 29.0278 15.7837 29.0278H20.585C21.3129 29.0278 21.9029 29.6018 21.9029 30.3112C21.9029 31.02 21.3129 31.5946 20.585 31.5946Z" fill="#7047F0"/>
<path d="M36.5723 26.8689V29.4356H30.7827C30.0535 29.4356 29.4648 28.8611 29.4648 28.1523C29.4648 27.4441 30.0535 26.8689 30.7827 26.8689H36.5723Z" fill="#7047F0"/>
<path d="M38.0545 21.3193C38.0825 23.2207 37.7808 25.0494 37.2008 26.7537C36.8232 27.8646 35.1417 27.6162 35.1151 26.4457C35.1151 26.3912 35.1131 26.3367 35.1118 26.2816C34.9007 20.6948 30.2598 16.1398 24.5248 15.8966C19.4937 15.6826 15.1605 18.737 13.5796 23.0631C13.5583 23.1156 13.541 23.1688 13.5217 23.222C12.369 26.3841 9.84509 28.9151 6.6473 30.1369C5.30346 30.6518 3.83575 30.9326 2.30345 30.9326C1.51499 30.9326 0.745175 30.8587 0 30.7154C1.93652 29.1084 3.3969 26.9165 3.99224 24.4146C4.10812 23.9289 4.19069 23.4289 4.23864 22.9204C4.20001 22.4743 4.1807 22.0203 4.1807 21.5618C4.1807 21.2434 4.18936 20.9257 4.21 20.6124V20.6073C4.25795 19.8135 4.36117 19.0347 4.51766 18.2746C5.19092 15.0289 6.84442 12.1269 9.16518 9.87662C12.307 6.82869 16.6702 4.97594 21.4742 5.07192C30.5468 5.25349 37.9247 12.4829 38.0545 21.3193Z" fill="#57555C"/>
<path d="M14.4493 14.9314C13.2579 15.0955 9.19509 15.8951 6.93027 19.3464C6.6266 19.8101 6.35224 20.4307 6.06056 21.0882C5.5458 22.2568 4.9731 23.5538 3.99219 24.4144C4.10806 23.9286 4.1913 23.4287 4.23858 22.9209C4.19996 22.4741 4.18065 22.0208 4.18065 21.5623C4.18065 21.2439 4.1893 20.9255 4.21061 20.6122V20.6071C4.25789 19.8133 4.36111 19.0345 4.51761 18.2751C4.57954 18.1687 4.6428 18.0643 4.70939 17.9631C7.58088 13.5877 12.61 12.5923 14.0823 12.39C14.8022 12.2908 15.4688 12.7804 15.5707 13.482C15.6719 14.1857 15.1698 14.8341 14.4493 14.9314Z" fill="#3C3B41"/>
<path d="M37.1494 63.3131L33.9609 62.3877V84.9994H44.0358C44.751 84.9994 45.3323 84.4333 45.3323 83.7368V74.0022C45.3323 69.0691 42.0047 64.7216 37.1494 63.3131Z" fill="#007AFF"/>
<path d="M37.1494 63.3132L34.9851 62.6848L33.9609 62.3884V67.4201C37.8167 69.2748 40.3372 73.1243 40.3372 77.4179V84.9995H44.0358C44.2142 84.9995 44.3847 84.9638 44.5399 84.9003C45.0047 84.7083 45.3317 84.2589 45.3317 83.7369V74.0017C45.3317 72.9492 45.1792 71.9232 44.8935 70.9466C43.8407 67.3475 40.9685 64.4208 37.1494 63.3132Z" fill="#0070EB"/>
<path d="M12.559 62.8313L10.8962 63.3138C6.04089 64.7223 2.71191 69.0698 2.71191 74.0029V83.7375C2.71191 84.434 3.29327 84.9994 4.00981 84.9994H12.5597V62.8313H12.559Z" fill="#007DFF"/>
<path d="M12.5586 71.5732H33.9602V84.9997H12.5586V71.5732Z" fill="#F2F2F2"/>
</svg>
