<svg width="80" height="85" viewBox="0 0 80 85" fill="none" xmlns="http://www.w3.org/2000/svg">
<path d="M69.5018 59.4532L57.0982 57.1246C57.0182 57.1103 56.9367 57.1025 56.8554 57.1025H22.4777C22.3964 57.1025 22.3151 57.1103 22.2349 57.1246L9.71914 59.4805C3.33794 61.2761 0 67.5914 0 72.9025V80.1818C0 82.8387 2.37206 85.0001 5.28888 85.0001H74.0443C76.9611 85.0001 79.3332 82.8387 79.3332 80.1818V72.9025C79.3332 67.5914 75.9954 61.2761 69.5018 59.4532Z" fill="#007AFF"/>
<path d="M46.0764 84.9998L43.6162 70.1689C43.5103 69.5281 42.9589 69.0583 42.312 69.0583H37.0231C36.3763 69.0583 35.8249 69.528 35.7189 70.1689L33.2588 84.9998H46.0764Z" fill="#B097FF"/>
<path d="M37.0227 69.0583C36.6849 69.0583 36.3776 69.191 36.1416 69.4047L44.9585 78.2641L44.2106 73.7554L39.5361 69.0583H37.0227Z" fill="#7047F0"/>
<path d="M44.9459 62.4418C44.9446 61.7088 44.3533 61.116 43.6237 61.116H37.0126C36.5117 61.116 36.0545 61.4001 35.8299 61.8503L34.5077 64.5072C34.4146 64.6927 34.3669 64.8978 34.3682 65.1065L34.3773 67.7322C34.3773 69.9286 36.1567 71.7162 38.3439 71.7162H40.9884C43.1757 71.7162 44.955 69.9284 44.955 67.7282L44.9459 62.4418Z" fill="#7047F0"/>
<path d="M40.3032 57.2983L28.4123 50.6288C27.8351 50.3031 27.1094 50.4614 26.7131 50.9881L21.7225 57.6304C21.3816 58.0844 21.3649 58.7059 21.6825 59.1755L29.7436 71.1303C30.1879 71.7881 30.8941 72.2083 31.6805 72.2836C31.7658 72.2914 31.8509 72.2952 31.9348 72.2952C32.6321 72.2952 33.301 72.0202 33.8007 71.5194C33.8342 71.4857 33.8664 71.4493 33.8962 71.4118L39.3748 64.5775C39.4341 64.5048 39.4859 64.4244 39.5272 64.3401L40.8403 61.7104C40.9334 61.5262 40.9811 61.3212 40.9811 61.1149V58.458C40.9811 57.9768 40.7215 57.5331 40.3032 57.2983Z" fill="#F2F2F2"/>
<path d="M39.0137 57.2983L50.9046 50.6288C51.4818 50.3031 52.2075 50.4614 52.6038 50.9881L57.5944 57.6304C57.9354 58.0844 57.952 58.7059 57.6344 59.1755L49.5733 71.1303C49.129 71.7881 48.4228 72.2083 47.6364 72.2836C47.5511 72.2914 47.466 72.2952 47.3821 72.2952C46.6848 72.2952 46.0159 72.0202 45.5162 71.5194C45.4827 71.4857 45.4505 71.4493 45.4207 71.4118L39.9423 64.5775C39.8829 64.5048 39.8312 64.4244 39.7899 64.3401L38.4768 61.7104C38.3837 61.5262 38.3359 61.3212 38.3359 61.1149V58.458C38.3359 57.9768 38.5954 57.5331 39.0137 57.2983Z" fill="#F2F2F2"/>
<path d="M58.1696 25.2467L55.5613 22.5898C55.5613 22.5898 46.6001 20.1542 27.7585 22.5898L19.8252 25.2467C19.8252 27.0733 19.8252 28.161 19.8252 34.5459C19.8252 47.7522 28.7049 58.4581 39.6585 58.4581C50.6121 58.4581 59.4918 47.7522 59.4918 34.5459C59.4918 32.4028 59.4918 28.3188 59.4918 25.2467C59.1495 25.631 58.1696 25.2467 58.1696 25.2467Z" fill="#FFDCAD"/>
<path d="M37.6094 51.9471C36.1995 51.463 35.2102 50.6823 34.7461 50.2604C34.1636 49.7307 34.1195 48.8265 34.6465 48.242C35.1739 47.6561 36.0736 47.6125 36.6561 48.1421C37.1231 48.5666 38.4073 49.5501 40.2391 49.5105C41.6397 49.4793 42.6806 48.8553 43.1766 48.4868C43.8075 48.0166 44.6986 48.1501 45.1664 48.7846C45.6335 49.4189 45.5009 50.3136 44.8693 50.7836C44.1025 51.3544 42.4892 52.3191 40.3011 52.3676C39.2885 52.3901 38.3854 52.2136 37.6094 51.9471Z" fill="#C06100"/>
<path d="M31.6961 39.8596C34.6171 39.8596 36.985 37.4805 36.985 34.5458C36.985 31.611 34.6171 29.2319 31.6961 29.2319C28.7751 29.2319 26.4072 31.611 26.4072 34.5458C26.4072 37.4805 28.7751 39.8596 31.6961 39.8596Z" fill="#AEEFFF"/>
<path d="M47.5623 39.8596C50.4833 39.8596 52.8512 37.4805 52.8512 34.5458C52.8512 31.611 50.4833 29.2319 47.5623 29.2319C44.6413 29.2319 42.2734 31.611 42.2734 34.5458C42.2734 37.4805 44.6413 39.8596 47.5623 39.8596Z" fill="#AEEFFF"/>
<path d="M42.3377 35.8746C41.6068 35.8746 41.0155 35.2805 41.0155 34.5462C41.0155 33.8132 40.4228 33.2177 39.6932 33.2177C38.9637 33.2177 38.371 33.8132 38.371 34.5462C38.371 35.2805 37.7796 35.8746 37.0488 35.8746C36.3179 35.8746 35.7266 35.2805 35.7266 34.5462C35.7266 32.3486 37.5059 30.5608 39.6932 30.5608C41.8805 30.5608 43.6599 32.3486 43.6599 34.5462C43.6599 35.2805 43.0684 35.8746 42.3377 35.8746Z" fill="#7047F0"/>
<path d="M26.4695 34.5466H19.8222C19.0914 34.5466 18.5 33.9524 18.5 33.2181C18.5 32.4838 19.0914 31.8896 19.8222 31.8896H26.4695C27.2004 31.8896 27.7917 32.4838 27.7917 33.2181C27.7917 33.9524 27.2002 34.5466 26.4695 34.5466Z" fill="#7047F0"/>
<path d="M59.4918 34.5466H52.9169C52.1861 34.5466 51.5947 33.9524 51.5947 33.2181C51.5947 32.4838 52.1861 31.8896 52.9169 31.8896H59.4918C60.2227 31.8896 60.8141 32.4838 60.8141 33.2181C60.8141 33.9524 60.2227 34.5466 59.4918 34.5466Z" fill="#7047F0"/>
<path d="M31.7625 41.1884C28.1173 41.1884 25.1514 38.2085 25.1514 34.5461C25.1514 30.8837 28.1173 27.9038 31.7625 27.9038C35.4077 27.9038 38.3736 30.8837 38.3736 34.5461C38.3736 38.2085 35.4075 41.1884 31.7625 41.1884ZM31.7625 30.5607C29.5752 30.5607 27.7958 32.3485 27.7958 34.5461C27.7958 36.7437 29.5752 38.5315 31.7625 38.5315C33.9497 38.5315 35.7291 36.7437 35.7291 34.5461C35.7291 32.3485 33.9497 30.5607 31.7625 30.5607Z" fill="#7047F0"/>
<path d="M47.6277 41.1884C43.9825 41.1884 41.0166 38.2085 41.0166 34.5461C41.0166 30.8837 43.9825 27.9038 47.6277 27.9038C51.2729 27.9038 54.2388 30.8837 54.2388 34.5461C54.2388 38.2085 51.2727 41.1884 47.6277 41.1884ZM47.6277 30.5607C45.4404 30.5607 43.661 32.3485 43.661 34.5461C43.661 36.7437 45.4404 38.5315 47.6277 38.5315C49.815 38.5315 51.5944 36.7437 51.5944 34.5461C51.5942 32.3485 49.815 30.5607 47.6277 30.5607Z" fill="#7047F0"/>
<path d="M66.1123 34.5184C65.3814 34.5184 64.79 33.9242 64.79 33.1899V17.3509C64.79 16.6166 65.3814 16.0225 66.1123 16.0225C66.8431 16.0225 67.4345 16.6166 67.4345 17.3509V33.1899C67.4345 33.9242 66.8431 34.5184 66.1123 34.5184Z" fill="#3E435E"/>
<path d="M70.4097 10.0173L43.5147 0.75311C40.6031 -0.251037 37.3917 -0.251037 34.4774 0.75311L7.58244 10.0173C6.17626 10.5025 5.26855 11.779 5.26855 13.2723C5.26855 14.7657 6.17626 16.0421 7.58244 16.5274L20.7336 21.0576C20.8717 21.1042 21.0164 21.129 21.1623 21.129C21.1674 21.129 21.1739 21.129 21.1792 21.129L58.1962 20.6645C58.3357 20.6632 58.4752 20.6386 58.608 20.5931L70.4098 16.5274C71.816 16.0421 72.7237 14.7657 72.7237 13.2723C72.7237 11.779 71.8159 10.5025 70.4097 10.0173Z" fill="#3E435E"/>
<path d="M35.1352 23.4466C36.5372 23.3443 38.0402 23.2812 39.6702 23.2812C41.3002 23.2812 42.8032 23.3441 44.2052 23.4466C49.5895 23.7591 55.9869 24.6533 59.5035 26.5751V15.9475C59.5035 11.3835 49.2227 9.30518 39.6702 9.30518C30.1177 9.30518 19.8369 11.3835 19.8369 15.9475V26.5751C23.3535 24.6532 29.7507 23.7591 35.1352 23.4466Z" fill="#454B69"/>
<path d="M39.6673 16.6665C33.9295 16.6665 24.4239 17.4247 19.834 19.9332V23.3088C19.834 22.1515 26.7847 19.3234 39.6673 19.3234C52.5498 19.3234 59.5006 22.1515 59.5006 23.3088V19.9332C54.9108 17.4249 45.4052 16.6665 39.6673 16.6665Z" fill="#646E9F"/>
<path d="M39.6562 16.6667V19.3236C39.6594 19.3236 39.6622 19.3234 39.6653 19.3234C52.5479 19.3234 59.4986 22.1515 59.4986 23.3088V19.9332C54.9087 17.4249 45.4031 16.6665 39.6653 16.6665C39.6624 16.6665 39.6591 16.6667 39.6562 16.6667Z" fill="#4B506C"/>
<path d="M67.4237 42.5175H64.7793C64.0491 42.5175 63.457 41.9226 63.457 41.189V35.8752C63.457 34.4077 64.6409 33.2183 66.1015 33.2183C67.562 33.2183 68.7459 34.4077 68.7459 35.8752V41.189C68.7459 41.9226 68.1539 42.5175 67.4237 42.5175Z" fill="#FFDC64"/>
<path d="M13.2224 76.1178C13.2224 73.2991 12.1079 70.5961 10.1242 68.6029L4.25259 62.7034C1.45147 65.4935 0 69.4111 0 72.9024V80.1817C0 82.8386 2.37206 85 5.28888 85H13.2225V76.1178H13.2224Z" fill="#F2F2F2"/>
<path d="M75.0679 62.7158L69.2086 68.6029C67.2248 70.5959 66.1104 73.2991 66.1104 76.1178V85H74.0433C76.9602 85 79.3322 82.8386 79.3322 80.1817V72.9024C79.3321 69.4194 77.8872 65.5122 75.0679 62.7158Z" fill="#F2F2F2"/>
<path d="M35.2424 73.0454L34.708 76.2658L43.4001 84.9997H46.0768L45.8644 83.7186L35.2424 73.0454Z" fill="#7047F0"/>
<path d="M33.5273 83.3825L35.1368 84.9997H38.8762L34.0615 80.1621L33.5273 83.3825Z" fill="#7047F0"/>
</svg>
