<svg width="30" height="30" viewBox="0 0 30 30" fill="none" xmlns="http://www.w3.org/2000/svg">
<path d="M13.6698 20.9459H8.06193M13.6698 16.9819H8.06193M16.3299 9.05401H21.9377M12.3349 10.3811L10.701 12.0191L9.72034 11.036M16.3299 13.018H21.9377M19.789 18.145L18.1551 19.7829M19.789 19.7829L18.1551 18.145M11.0276 7.66663C12.8837 7.66663 14.3887 9.17531 14.3887 11.036C14.3887 12.8967 12.8837 14.4054 11.0276 14.4054C9.17149 14.4054 7.6665 12.8967 7.6665 11.036C7.6665 9.17531 9.17149 7.66663 11.0276 7.66663ZM18.9721 15.5946C20.8282 15.5946 22.3332 17.1032 22.3332 18.9639C22.3332 20.8246 20.8282 22.3333 18.9721 22.3333C17.1159 22.3333 15.6109 20.8246 15.6109 18.9639C15.6109 17.1032 17.1159 15.5946 18.9721 15.5946Z" stroke="#8368CF" stroke-linecap="round" stroke-linejoin="round"/>
<rect x="0.5" y="0.5" width="29" height="29" rx="14.5" stroke="#8368CF"/>
</svg>
