<svg width="20" height="20" viewBox="0 0 20 20" fill="none" xmlns="http://www.w3.org/2000/svg">
<path d="M6.72013 4.96319C7.07702 3.5503 8.3465 2.5 9.87021 2.5C11.6701 2.5 13.1295 3.95933 13.1295 5.75926V8.2037M13.9443 17.1667H5.79613C4.89576 17.1667 4.1665 16.4374 4.1665 15.537V9.83333C4.1665 8.93296 4.89576 8.2037 5.79613 8.2037H13.9443C14.8447 8.2037 15.5739 8.93296 15.5739 9.83333V15.537C15.5739 16.4374 14.8447 17.1667 13.9443 17.1667Z" stroke="#2DD179" stroke-linecap="round" stroke-linejoin="round"/>
</svg>
