<svg width="270" height="270" viewBox="0 0 270 270" fill="none" xmlns="http://www.w3.org/2000/svg">
<path d="M135 269.521C168.896 269.521 196.374 266.267 196.374 262.252C196.374 258.237 168.896 254.983 135 254.983C101.104 254.983 73.6261 258.237 73.6261 262.252C73.6261 266.267 101.104 269.521 135 269.521Z" fill="#ADB6C4"/>
<path d="M136.639 265.346C156.281 265.346 172.204 263.741 172.204 261.761C172.204 259.781 156.281 258.175 136.639 258.175C116.997 258.175 101.074 259.781 101.074 261.761C101.074 263.741 116.997 265.346 136.639 265.346Z" fill="#353437"/>
<path d="M199.44 167.867C199.358 167.867 199.276 167.851 199.194 167.818C199.047 167.752 198.948 167.654 198.899 167.572C198.801 167.408 198.702 167.261 198.604 167.097C198.456 166.852 198.341 166.606 198.227 166.344C198.21 166.295 198.227 166.262 198.26 166.23C198.309 166.213 198.341 166.23 198.374 166.262C198.489 166.508 198.62 166.754 198.751 166.999C198.833 167.163 198.932 167.31 199.047 167.474C199.079 167.539 199.161 167.621 199.26 167.654C199.489 167.752 199.719 167.621 199.752 167.605C199.784 167.589 199.834 167.589 199.866 167.638C199.883 167.67 199.883 167.72 199.834 167.752C199.801 167.769 199.637 167.867 199.44 167.867Z" fill="#F38484"/>
<path d="M156.414 53.5896C158.044 53.5896 159.366 52.2702 159.366 50.6426C159.366 49.015 158.044 47.6956 156.414 47.6956C154.784 47.6956 153.463 49.015 153.463 50.6426C153.463 52.2702 154.784 53.5896 156.414 53.5896Z" fill="#A2E9FC"/>
<path d="M229.873 83.1903C230.634 83.1903 231.251 82.5745 231.251 81.815C231.251 81.0555 230.634 80.4398 229.873 80.4398C229.113 80.4398 228.496 81.0555 228.496 81.815C228.496 82.5745 229.113 83.1903 229.873 83.1903Z" fill="#A2E9FC"/>
<path d="M240.826 94.307C243.054 94.307 244.86 92.5038 244.86 90.2794C244.86 88.0551 243.054 86.2519 240.826 86.2519C238.598 86.2519 236.792 88.0551 236.792 90.2794C236.792 92.5038 238.598 94.307 240.826 94.307Z" fill="#A2E9FC"/>
<path d="M41.7176 60.957C43.5831 60.957 45.0954 59.4471 45.0954 57.5844C45.0954 55.7217 43.5831 54.2117 41.7176 54.2117C39.8521 54.2117 38.3398 55.7217 38.3398 57.5844C38.3398 59.4471 39.8521 60.957 41.7176 60.957Z" fill="#A2E9FC"/>
<path d="M26.5833 56.4055C27.3802 56.4055 28.0262 55.7605 28.0262 54.9648C28.0262 54.1691 27.3802 53.524 26.5833 53.524C25.7864 53.524 25.1404 54.1691 25.1404 54.9648C25.1404 55.7605 25.7864 56.4055 26.5833 56.4055Z" fill="#A2E9FC"/>
<path d="M56.5569 228.329C59.4548 228.329 61.8039 225.983 61.8039 223.09C61.8039 220.196 59.4548 217.851 56.5569 217.851C53.6591 217.851 51.3099 220.196 51.3099 223.09C51.3099 225.983 53.6591 228.329 56.5569 228.329Z" fill="#A2E9FC"/>
<path d="M211.787 224.023C212.874 224.023 213.755 223.143 213.755 222.058C213.755 220.973 212.874 220.094 211.787 220.094C210.7 220.094 209.819 220.973 209.819 222.058C209.819 223.143 210.7 224.023 211.787 224.023Z" fill="#A2E9FC"/>
<path d="M222.921 224.989C224.189 224.989 225.216 223.963 225.216 222.697C225.216 221.431 224.189 220.405 222.921 220.405C221.653 220.405 220.625 221.431 220.625 222.697C220.625 223.963 221.653 224.989 222.921 224.989Z" fill="#A2E9FC"/>
<path d="M74.1015 111.743C78.8196 111.743 82.6443 107.924 82.6443 103.213C82.6443 98.5024 78.8196 94.6834 74.1015 94.6834C69.3834 94.6834 65.5587 98.5024 65.5587 103.213C65.5587 107.924 69.3834 111.743 74.1015 111.743Z" fill="#A2E9FC"/>
<path d="M30.3707 160.041C31.6385 160.041 32.6663 159.015 32.6663 157.749C32.6663 156.483 31.6385 155.457 30.3707 155.457C29.1029 155.457 28.0751 156.483 28.0751 157.749C28.0751 159.015 29.1029 160.041 30.3707 160.041Z" fill="#A2E9FC"/>
<path d="M114.454 222.861C114.454 222.861 134.278 224.481 150.938 223.352C148.97 218.948 143.051 216.394 134.409 215.182C118.881 215.837 114.454 222.861 114.454 222.861Z" fill="#828282" fill-opacity="0.3"/>
<path d="M156.07 207.356H112.454C108.847 207.356 106.158 204.049 106.896 200.529L109.978 185.794C110.601 182.847 113.192 180.735 116.209 180.735H152.315C155.332 180.735 157.939 182.847 158.546 185.794L161.629 200.529C162.35 204.049 159.661 207.356 156.07 207.356Z" fill="#828282" fill-opacity="0.3"/>
<path d="M194.947 187.808C195.078 189.003 195.16 190.771 194.734 192.818C194.094 195.798 192.652 198.155 189.257 201.97C186.207 205.392 182.863 209.108 177.189 213.07C174.844 214.707 171.188 217.245 165.777 219.39C162.76 220.585 158.907 222.124 154.151 222.435C146.412 222.959 136.246 220.274 135.508 216.77C134.655 212.726 145.871 204.753 194.947 187.808Z" fill="#828282" fill-opacity="0.3"/>
<path d="M71.232 184.026C71.8059 182.929 73.38 181.521 74.6426 180.833C76.2167 179.982 77.7744 179.753 79.4469 179.737C84.4152 179.687 88.9243 181.472 89.4818 181.701C92.7776 183.044 97.9755 185.581 103.665 190.411C93.122 187.955 81.7753 186.498 71.232 184.026Z" fill="#828282" fill-opacity="0.3"/>
<path d="M69.2315 191.262C69.2971 193.374 69.953 196.092 70.9368 198.27C72.806 202.412 75.7247 204.819 77.9219 206.538C86.0384 212.923 95.2043 218.637 98.205 220.47C99.1396 219.553 100.222 218.587 101.484 217.638C103.501 216.099 105.469 214.986 107.158 214.151C94.5812 207.045 81.8244 198.368 69.2315 191.262Z" fill="#828282" fill-opacity="0.3"/>
<path d="M109.552 113.25C108.749 113.724 107.306 114.903 106.174 116.049C103.715 118.554 102.665 121.419 101.813 124.759C101.419 126.314 100.386 130.604 99.7468 139.789C99.3697 145.273 99.5009 147.156 98.6482 151.004C97.976 154.065 97.1069 156.488 96.4674 158.076C96.2051 158.6 95.8771 159.452 95.9263 160.467C96.0739 163.561 99.5173 165.264 99.96 165.477C102.01 166.492 104.961 166.819 107.158 165.477C109.159 164.249 109.7 162.12 110.749 156.439C112.7 145.928 113.684 140.525 113.488 134.124C113.422 132.274 113.34 129.785 112.832 126.495C111.979 121.043 110.798 116.278 109.552 113.25Z" fill="#35489E"/>
<path d="M99.9597 165.477C102.009 166.492 104.961 166.819 107.158 165.477C109.158 164.249 109.699 162.12 110.749 156.439C112.7 145.928 113.684 140.525 113.487 134.124C113.422 132.274 113.34 129.785 112.831 126.495C112.52 124.53 112.175 122.663 111.798 120.928C109.552 134.992 108.683 154.163 99.9597 165.477Z" fill="#213B8E"/>
<path d="M84.1366 170.486C84.9073 169.717 85.9895 168.636 87.3012 167.326C90.6298 164.019 91.3841 163.299 92.2039 162.529C93.1058 161.711 94.4339 160.516 96.1228 159.157C96.7951 158.878 97.7953 158.535 99.0743 158.387C100.238 158.256 104.354 157.814 106.486 160.565C107.945 162.448 107.666 164.756 107.584 165.362C107.42 166.426 106.945 167.703 104.534 170.257C103.124 171.747 100.763 174.186 96.6803 176.462C94.7783 177.526 91.958 178.836 88.2851 179.736C88.6458 179.605 89.7936 179.131 90.5806 177.886C90.7774 177.575 91.4497 176.413 91.2365 174.939C90.8922 172.582 88.5146 171.452 87.8587 171.125C86.3666 170.437 84.9729 170.421 84.1366 170.486Z" fill="#35489E"/>
<path d="M104.026 158.551C104.945 158.895 105.83 159.452 106.502 160.336C107.962 162.235 107.683 164.576 107.601 165.182C107.437 166.246 106.961 167.556 104.551 170.143C103.141 171.649 100.78 174.121 96.697 176.429C94.7949 177.494 91.9746 178.836 88.3017 179.737C88.6625 179.606 89.8102 179.131 90.5973 177.87C90.7941 177.559 91.4663 176.38 91.2532 174.89C95.8115 171.665 100.829 167.114 104.026 158.551Z" fill="#213B8E"/>
<g style="mix-blend-mode:lighten">
<path d="M84.9726 169.733C84.6611 170.028 84.3331 170.306 83.956 170.601C83.0706 171.305 82.1851 171.813 81.4145 172.206C80.9553 172.32 80.1027 172.631 79.2993 173.368C78.9877 173.646 78.0039 174.579 77.8399 176.053C77.676 177.625 78.5122 179.033 79.5124 179.835C80.6274 180.719 81.8408 180.719 83.7264 180.703C86.0876 180.686 87.8093 180.015 88.5963 179.688C89.3834 179.36 90.0721 179.082 90.8427 178.46C91.433 177.985 92.5316 177.101 92.9579 175.627C93.4171 174.023 92.9252 172.271 92.0069 171.125C90.5476 169.242 87.6617 168.62 84.9726 169.733Z" fill="white" fill-opacity="0.3"/>
</g>
<path d="M77.7417 169.733C79.1355 169.962 79.9717 170.503 80.4636 170.961C80.7424 171.223 81.2835 171.862 82.3493 173.139C82.7756 173.663 82.8904 173.794 83.1527 174.006C83.9234 174.645 84.3333 174.53 85.1204 175.021C85.3991 175.202 86.2518 175.775 86.7273 176.839C86.8913 177.215 87.2192 177.919 87.0224 178.803C86.8257 179.704 86.219 180.228 86.0058 180.408C85.2516 180.719 84.153 181.079 82.8084 181.21C81.1851 181.374 79.8406 181.145 78.9551 180.915C78.66 181.046 78.0041 181.292 77.1351 181.21C76.266 181.128 75.6593 180.752 75.397 180.555C75.1838 180.653 74.4788 180.915 73.6589 180.703C72.4619 180.392 71.9864 179.327 71.9208 179.18C71.6913 179.262 71.2485 179.36 70.7566 179.245C69.5761 178.984 69.1169 177.756 69.0841 177.641C68.5103 176.037 67.92 174.448 67.3461 172.844C68.3463 170.503 69.1661 168.718 70.1663 166.377C70.9534 164.609 71.5765 163.888 72.7243 164.576C73.1014 164.805 73.249 165.165 73.2982 165.296C73.8557 163.79 75.1182 164.183 75.233 164.249C75.5937 164.429 76.3972 164.953 75.7577 166.459C75.4954 167.163 75.1674 167.834 74.9051 168.522C75.1018 168.587 75.3478 168.702 75.5446 168.784C75.6593 168.587 76.1184 167.72 76.3644 167.343C76.512 167.114 77.0531 166.623 77.7581 167.016C77.8729 167.097 78.0041 167.212 78.1189 167.376C78.4632 167.9 78.2992 168.505 78.2665 168.604C78.0861 168.98 77.9221 169.357 77.7417 169.733Z" fill="#F7B2B2"/>
<path d="M70.9534 176.855C70.9206 176.855 70.8878 176.839 70.8714 176.806L69.6744 173.892C69.5433 173.581 69.5433 173.237 69.6744 172.91L71.806 167.703C72.052 167.294 72.2815 166.868 72.4947 166.475C72.7079 166.066 72.9374 165.657 73.1834 165.247C73.1998 165.215 73.249 165.198 73.2982 165.215C73.3309 165.231 73.3473 165.28 73.3309 165.329C73.085 165.739 72.8554 166.148 72.6423 166.557C72.4291 166.966 72.1996 167.376 71.9536 167.785L69.822 172.975C69.7072 173.253 69.7072 173.548 69.822 173.826L71.019 176.741C71.0354 176.79 71.019 176.822 70.9698 176.855H70.9534Z" fill="#F38484"/>
<path d="M79.5288 179.819C80.6438 180.703 81.8572 180.703 83.7429 180.686C86.104 180.67 87.8257 179.999 88.6128 179.671C89.3998 179.344 90.0885 179.065 90.8591 178.443C91.4494 177.968 92.548 177.084 92.9744 175.611C93.1711 174.923 93.2039 174.219 93.0891 173.532C89.449 176.544 84.202 174.514 84.202 174.514C83.2509 174.76 77.7088 176.429 79.5288 179.819Z" fill="#F7B2B2"/>
<path d="M73.6259 175.202C73.5931 175.202 73.5603 175.185 73.5439 175.152C73.4456 174.923 73.3308 174.645 73.216 174.367C73.1504 174.236 73.1012 174.088 73.0356 173.957C72.9209 173.695 72.9209 173.401 73.0192 173.122L74.8393 168.456C74.8557 168.407 74.9049 168.391 74.9377 168.407C74.9869 168.424 75.0033 168.473 74.9869 168.505L73.1668 173.171C73.0684 173.401 73.0848 173.663 73.1832 173.892C73.2324 174.023 73.298 174.154 73.3636 174.301C73.4784 174.579 73.6095 174.858 73.6915 175.087C73.7079 175.136 73.6915 175.169 73.6423 175.202H73.6259Z" fill="#F38484"/>
<path d="M74.1835 177.608C74.1507 177.608 74.1179 177.592 74.1015 177.559L73.5768 176.053C73.4784 175.791 73.4784 175.513 73.5276 175.234C73.6752 174.612 73.8883 173.745 74.1015 172.91C74.3639 171.878 74.6262 170.814 74.7574 170.192V170.175C75.2493 169.144 75.4461 168.718 75.4461 168.718C75.4625 168.686 75.5117 168.653 75.5609 168.686C75.5936 168.702 75.6264 168.751 75.5936 168.8C75.5936 168.8 75.3969 169.226 74.905 170.257C74.7738 170.879 74.495 171.944 74.2491 172.975C74.0359 173.81 73.8228 174.678 73.6752 175.3C73.626 175.545 73.626 175.791 73.708 176.02L74.2327 177.526C74.2491 177.576 74.2327 177.608 74.1835 177.625C74.1999 177.608 74.1999 177.608 74.1835 177.608Z" fill="#F38484"/>
<path d="M77.8728 176.806C77.8564 176.806 77.8236 176.79 77.8072 176.773C77.6761 176.61 77.5121 176.413 77.3645 176.233L77.1513 175.971C76.9874 175.775 76.9054 175.529 76.9054 175.284L77.0038 171.42C77.0038 171.272 77.0366 171.125 77.1022 170.978L77.7088 169.619C77.7252 169.57 77.7744 169.553 77.8236 169.57C77.8728 169.586 77.8892 169.635 77.8728 169.684L77.2661 171.043C77.2169 171.158 77.1841 171.289 77.1841 171.42L77.0858 175.284C77.0858 175.496 77.1513 175.709 77.2825 175.873L77.4957 176.135C77.6597 176.331 77.8072 176.511 77.9384 176.675C77.9712 176.708 77.9548 176.757 77.922 176.79C77.9056 176.806 77.8892 176.806 77.8728 176.806Z" fill="#F38484"/>
<path d="M79.5126 178.951C79.2994 178.951 79.0371 178.902 78.7911 178.771C78.3484 178.525 77.7745 178.05 77.8073 176.675C77.8237 175.988 77.8401 175.103 77.8401 174.416C77.8565 173.515 77.8729 172.615 77.8729 171.731C77.9221 171.076 78.414 170.814 78.8239 170.781C79.2339 170.748 79.6274 170.994 79.8405 171.403C80.0865 171.976 80.1521 173.139 80.1849 173.974C80.1849 174.121 80.2013 174.252 80.2013 174.383L80.8244 176.724C80.8408 176.773 80.808 176.806 80.7588 176.823C80.7096 176.839 80.6768 176.806 80.6604 176.757L80.0373 174.399C80.0209 174.268 80.0209 174.121 80.0209 173.974C79.9717 173.139 79.9225 172.009 79.693 171.469C79.5126 171.125 79.1683 170.929 78.8403 170.945C78.4796 170.961 78.0861 171.191 78.0369 171.731C78.0205 172.615 78.0205 173.515 78.0041 174.416C77.9877 175.103 77.9713 175.988 77.9713 176.675C77.9385 177.952 78.4796 178.394 78.8731 178.623C79.283 178.853 79.7094 178.787 79.9389 178.722C79.9881 178.705 80.0209 178.738 80.0373 178.787C80.0537 178.836 80.0209 178.869 79.9717 178.885C79.8733 178.918 79.7094 178.951 79.5126 178.951Z" fill="#F38484"/>
<path d="M71.2155 166.655C71.0024 166.655 70.7892 166.557 70.6908 166.492C70.658 166.475 70.6416 166.426 70.658 166.377C70.6744 166.328 70.7236 166.328 70.7728 166.344C70.904 166.41 71.15 166.524 71.3795 166.459C71.5599 166.41 71.6583 166.279 71.8058 166.066C72.0518 165.706 72.265 165.329 72.4781 164.953C72.4945 164.92 72.5437 164.904 72.5929 164.92C72.6257 164.936 72.6421 164.985 72.6257 165.034C72.4125 165.427 72.1994 165.82 71.9534 166.164C71.8058 166.393 71.6747 166.557 71.4451 166.623C71.3467 166.655 71.2811 166.655 71.2155 166.655Z" fill="#F38484"/>
<path d="M74.1673 166.966C74.1345 166.966 74.0853 166.966 74.0525 166.966C73.9541 166.95 73.4786 166.852 73.331 166.541C73.167 166.262 73.331 165.935 73.3474 165.919C73.3474 165.919 73.6426 165.346 73.9705 164.822C74.0853 164.707 74.2001 164.609 74.3476 164.576C74.6428 164.478 74.8887 164.576 74.9871 164.609C75.0363 164.625 75.0527 164.674 75.0199 164.723C75.0035 164.773 74.9543 164.789 74.9051 164.756C74.8231 164.723 74.61 164.642 74.3804 164.723C74.2329 164.773 74.1509 164.854 74.0853 164.92C73.7737 165.411 73.4786 165.984 73.4786 165.984C73.4786 165.984 73.3474 166.246 73.4622 166.442C73.5442 166.623 73.8393 166.737 74.0525 166.77C74.2984 166.803 74.446 166.721 74.61 166.459C74.7576 166.213 75.1675 165.329 75.2167 165.149C75.2331 165.1 75.2659 165.084 75.3151 165.084C75.3642 165.1 75.3806 165.133 75.3806 165.182C75.3315 165.378 74.9215 166.279 74.7576 166.541C74.5936 166.835 74.4296 166.966 74.1673 166.966Z" fill="#F38484"/>
<path d="M76.8072 169.259C76.6104 169.259 76.3808 169.16 76.1841 168.997C76.0037 168.817 76.0365 168.555 76.1185 168.391C76.1185 168.375 76.5612 167.474 76.676 167.343C76.7088 167.31 76.758 167.31 76.7908 167.343C76.8236 167.376 76.8236 167.425 76.7908 167.458C76.7088 167.54 76.3317 168.309 76.2661 168.456C76.2497 168.489 76.1513 168.735 76.2989 168.866C76.4792 169.013 76.7088 169.095 76.8728 169.079C77.0203 169.062 77.1351 168.997 77.2335 168.866C77.3811 168.669 77.791 168.014 77.7418 167.687C77.7254 167.621 77.6926 167.572 77.6434 167.54C77.6106 167.523 77.5942 167.458 77.6106 167.425C77.627 167.392 77.6926 167.376 77.7254 167.392C77.8238 167.441 77.873 167.54 77.8894 167.654C77.9713 168.08 77.4794 168.817 77.3647 168.964C77.2335 169.128 77.0859 169.226 76.8891 169.242C76.8564 169.259 76.8236 169.259 76.8072 169.259Z" fill="#F38484"/>
<path d="M78.857 173.237C78.8078 173.237 78.7586 173.237 78.7094 173.221C78.611 173.204 78.4471 173.139 78.3323 172.975C78.2503 172.844 78.2503 172.713 78.2339 172.615C78.2339 172.386 78.2175 172.14 78.2011 171.845C78.2011 171.796 78.2339 171.764 78.2831 171.764C78.3323 171.764 78.3651 171.796 78.3651 171.845C78.3815 172.124 78.3979 172.386 78.3979 172.615C78.3979 172.713 78.3979 172.811 78.4635 172.893C78.5454 173.008 78.6766 173.057 78.7422 173.073C78.8898 173.106 79.0865 173.073 79.2013 172.942C79.2341 172.91 79.2997 172.844 79.3161 172.517C79.3325 172.238 79.2997 171.96 79.2177 171.665C79.1849 171.616 79.1029 171.534 78.9882 171.485C78.775 171.403 78.5782 171.534 78.5618 171.551C78.529 171.583 78.4799 171.567 78.4471 171.534C78.4143 171.502 78.4307 171.453 78.4635 171.42C78.5127 171.387 78.7586 171.24 79.0374 171.338C79.2013 171.403 79.2997 171.518 79.3489 171.583L79.3653 171.6C79.4473 171.911 79.4801 172.206 79.4637 172.5C79.4473 172.844 79.3817 172.959 79.3161 173.041C79.2013 173.155 79.0374 173.237 78.857 173.237Z" fill="#F38484"/>
<path d="M81.7099 181.341C80.7916 181.341 79.857 181.227 78.9552 180.997C78.5452 181.177 77.9058 181.358 77.1187 181.276C76.3316 181.194 75.7414 180.883 75.3642 180.637C75.0199 180.785 74.364 180.965 73.6097 180.768C72.5111 180.473 71.9864 179.573 71.8389 179.262C71.4617 179.377 71.0682 179.393 70.7075 179.311C69.4941 179.033 69.0186 177.805 68.9694 177.657L67.4445 173.466C67.2969 173.057 67.3133 172.615 67.4773 172.206C67.8872 171.272 68.2643 170.421 68.6579 169.586C69.117 168.587 69.5925 167.556 70.0844 166.377C70.5763 165.264 71.0354 164.494 71.6257 164.298C71.9537 164.183 72.298 164.249 72.7243 164.494C73.0031 164.658 73.1834 164.887 73.2654 165.084C73.7245 164.2 74.3476 164.036 74.7903 164.052C75.4462 164.085 75.8069 164.642 75.8725 164.74C76.2005 165.28 76.0857 165.82 75.8069 166.492C75.6758 166.836 75.5282 167.196 75.3806 167.523C75.2494 167.834 75.1183 168.145 74.9871 168.473C75.0691 168.505 75.1511 168.538 75.233 168.571C75.315 168.604 75.397 168.636 75.479 168.669C75.5282 168.587 75.5938 168.473 75.6594 168.325C75.8725 167.932 76.1513 167.409 76.2989 167.228C76.7252 166.574 77.3974 166.655 77.7418 166.852C78.3157 167.196 78.578 168.014 78.3157 168.62L77.8566 169.652C78.9552 169.848 79.8406 170.274 80.5129 170.879C80.7916 171.141 81.3327 171.78 82.3985 173.057L82.5133 173.188C82.8576 173.597 82.9724 173.728 83.202 173.925C83.6283 174.285 83.9398 174.399 84.2678 174.514C84.5301 174.612 84.8089 174.711 85.1532 174.94C85.5631 175.202 86.3338 175.791 86.7765 176.79C86.9569 177.183 87.2684 177.903 87.0717 178.804C86.8913 179.655 86.3338 180.195 86.0223 180.441L86.0059 180.457C84.9729 180.883 83.8907 181.161 82.7757 181.259C82.4313 181.325 82.0706 181.341 81.7099 181.341ZM78.9388 180.834H78.9552C80.2177 181.145 81.4967 181.243 82.7757 181.128C83.8579 181.03 84.9237 180.752 85.9403 180.343C86.2354 180.097 86.7437 179.589 86.9241 178.804C87.1045 177.952 86.8093 177.265 86.6453 176.888C86.219 175.922 85.4812 175.365 85.0712 175.103C84.7433 174.891 84.4645 174.792 84.2186 174.694C83.8743 174.563 83.5463 174.449 83.1036 174.072C82.874 173.876 82.7429 173.728 82.3985 173.319L82.2837 173.188C81.2179 171.911 80.6768 171.272 80.3981 171.01C79.7258 170.388 78.824 169.979 77.709 169.799C77.6762 169.799 77.6598 169.783 77.6434 169.75C77.627 169.733 77.627 169.701 77.6434 169.684L78.1517 168.555C78.3813 168.031 78.1353 167.294 77.6434 166.999C77.3974 166.852 76.8236 166.721 76.4136 167.327C76.2825 167.507 76.0037 168.031 75.7905 168.407C75.6922 168.604 75.6102 168.751 75.561 168.817C75.5446 168.849 75.4954 168.866 75.4626 168.849C75.3642 168.817 75.2494 168.767 75.1511 168.718C75.0363 168.669 74.9379 168.62 74.8395 168.587C74.8231 168.587 74.8067 168.571 74.7903 168.538C74.7739 168.505 74.7739 168.489 74.7903 168.473C74.9215 168.113 75.0691 167.769 75.2167 167.441C75.3642 167.114 75.5118 166.77 75.643 166.41C75.9545 165.657 75.9873 165.231 75.725 164.805C75.6922 164.74 75.3478 164.232 74.7739 164.183C74.3476 164.151 73.7573 164.331 73.331 165.28C73.3146 165.313 73.2818 165.329 73.249 165.329C73.2162 165.329 73.1834 165.313 73.167 165.28C73.1014 165.116 72.9539 164.822 72.6259 164.609C72.2324 164.396 71.9373 164.331 71.6585 164.429C71.1994 164.576 70.7895 165.149 70.2156 166.426C69.7237 167.605 69.2481 168.636 68.789 169.635C68.4119 170.47 68.0184 171.321 67.6248 172.255C67.4609 172.615 67.4609 173.024 67.5921 173.384L69.117 177.576C69.1662 177.707 69.5925 178.869 70.7239 179.115C71.0846 179.196 71.4617 179.164 71.8389 179.049C71.8717 179.033 71.9209 179.049 71.9373 179.098C72.0192 179.295 72.5111 180.277 73.6261 180.572C74.364 180.768 75.0035 180.572 75.315 180.424C75.3478 180.408 75.3642 180.408 75.397 180.424C75.7414 180.67 76.3316 180.981 77.1023 181.063C77.873 181.145 78.496 180.948 78.8732 180.785C78.9224 180.834 78.9388 180.834 78.9388 180.834Z" fill="#F38484"/>
<path d="M88.3998 179.835C88.367 179.835 88.3342 179.802 88.3178 179.77C88.3014 179.72 88.3342 179.688 88.3834 179.671C89.2524 179.458 90.8921 178.853 92.0399 177.314C92.3351 176.904 92.9745 176.069 93.1221 174.809C93.3517 172.861 92.2531 171.42 91.9087 171.027C90.8757 169.832 89.6132 169.488 89.1868 169.39C87.6127 168.964 86.2682 169.324 85.7599 169.504C85.2516 169.684 84.7925 169.963 84.3989 170.356C84.3661 170.388 84.3169 170.388 84.2841 170.356C84.2514 170.323 84.2514 170.274 84.2841 170.241C84.6941 169.832 85.1696 169.537 85.7107 169.357C86.2354 169.177 87.6127 168.817 89.236 169.242C89.6624 169.357 90.9741 169.701 92.0399 170.945C92.4007 171.354 93.532 172.844 93.3025 174.858C93.1549 176.168 92.499 177.019 92.2039 177.445C91.0233 179.033 89.3508 179.639 88.449 179.868C88.4162 179.835 88.3998 179.835 88.3998 179.835Z" fill="#828282" fill-opacity="0.3"/>
<path d="M120.833 112.775C117.685 122.516 115.569 131.226 114.126 138.413C111.126 153.361 110.208 165.673 109.88 173.204C109.617 179.164 109.634 184.239 109.716 188.07C143.133 188.037 158.333 188.037 158.792 188.07H158.808C159.497 188.021 159.579 181.865 159.612 180.228C159.71 172.795 156.873 164.429 155.037 157.683C151.758 145.666 150.921 135.925 150.462 130.571C149.872 123.678 149.872 117.965 149.97 114.068C140.247 113.659 130.54 113.217 120.833 112.775Z" fill="#262F69"/>
<path fill-rule="evenodd" clip-rule="evenodd" d="M128.097 108.993C126.031 109.648 121.604 112.807 114.897 112.693C110.978 132.781 116.963 158.911 115.34 166.328C113.946 170.535 112.175 177.002 110.978 181.783C110.323 184.386 109.749 186.924 109.24 189.412C113.799 190.624 118.98 191.655 124.719 192.245C138.837 193.702 150.889 191.95 159.612 189.855C157.939 182.733 155.234 174.596 153.561 167.474C152.086 162.415 159.071 136.531 154.808 112.693C148.429 112.742 143.313 109.729 142.018 109.058C139.394 107.699 135.131 107.126 128.097 108.993Z" fill="#FFF9B0"/>
<path d="M150.168 191.606C153.677 191.099 156.874 190.444 159.727 189.756C158.055 182.634 155.349 174.497 153.677 167.376C152.201 162.317 159.186 136.432 154.923 112.594C151.299 112.627 149.086 122.467 149.905 135.859C150.676 144.078 149.249 146.747 147.938 149.137C147.183 159.058 147.675 181.144 150.168 191.606Z" fill="#F9C973"/>
<path d="M122.407 111.334C120.341 112.071 117.816 112.66 114.848 112.611C110.93 132.7 116.914 158.829 115.291 166.246C113.897 170.454 112.126 176.921 110.93 181.701C110.274 184.304 109.7 186.842 109.191 189.331C112.077 190.084 115.193 190.788 118.554 191.344C122.85 171.567 120.997 153.328 120.292 144.291C115.275 137.447 120.358 125.07 122.407 111.334Z" fill="#F9C973"/>
<path d="M149.659 143.636C149.266 145.846 147.445 147.418 145.166 147.958C144.314 148.122 142.871 148.498 139.345 147.205C135.541 145.519 131.54 146.55 130.343 147.041C129.491 147.336 127.474 147.909 125.031 147.303C123.473 146.91 122.342 146.174 121.686 145.666C121.686 145.666 121.686 145.682 121.702 145.682C120.948 145.126 120.423 144.586 120.243 144.242C117.996 140.46 113.258 143.096 117.16 147.352C119.751 149.923 124.096 150.889 127.802 149.481C127.982 149.415 128.163 149.35 128.343 149.284C129.114 148.99 129.77 148.646 130.311 148.302C131.016 147.909 132.77 147.058 135.115 147.172C137.148 147.271 138.64 148.056 139.329 148.482C140.444 149.088 142.33 149.89 144.789 150.005C145.117 150.021 145.445 150.021 145.74 150.005C148.462 150.037 151.151 149.022 152.971 147.221C156.857 142.997 151.02 139.903 149.659 143.636Z" fill="#F9C973"/>
<path d="M135.525 192.9C134.377 192.9 133.213 192.883 132.065 192.834C127.441 192.67 122.719 192.179 118.423 191.41C116.914 191.131 115.39 190.82 113.897 190.477C113.848 190.46 113.832 190.427 113.832 190.378C113.848 190.329 113.881 190.313 113.93 190.313C115.422 190.657 116.947 190.968 118.456 191.23C122.752 191.999 127.458 192.49 132.082 192.638C137.247 192.818 142.379 192.589 147.331 191.983C149.462 191.721 151.217 191.393 152.644 191.131L152.955 191.082C153.004 191.066 153.037 191.099 153.053 191.148C153.07 191.197 153.037 191.23 152.988 191.246L152.676 191.295C151.25 191.557 149.495 191.885 147.364 192.146C143.494 192.67 139.526 192.9 135.525 192.9Z" fill="#F9C973"/>
<path fill-rule="evenodd" clip-rule="evenodd" d="M169.745 217.491C169.073 218.015 168.221 218.768 167.352 219.816C166.319 221.06 165.745 222.14 165.236 223.09C163.908 225.628 163.285 227.903 162.99 229.328C162.76 230.425 162.547 231.734 162.482 233.241C163.006 233.421 163.728 233.617 164.597 233.748C165.22 233.846 165.909 233.945 166.778 233.896C168.368 233.797 169.516 233.224 169.762 233.093C170.992 232.471 171.697 231.653 172.09 231.211C173.435 229.655 173.861 228.034 174.058 227.298C174.517 225.513 174.353 224.089 174.271 223.385C174.14 222.19 173.992 221.044 173.172 219.897C172.566 219.063 171.844 218.555 171.566 218.375C170.877 217.9 170.221 217.638 169.745 217.491Z" fill="#FC6C85"/>
<path d="M158.267 112.889C158.267 112.889 163.137 113.675 165.613 120.486C167.647 125.594 168.073 132.912 168.122 133.993C168.729 145.699 168.811 148.695 169.762 153.345C170.319 156.079 170.942 158.273 171.401 159.73C171.615 160.237 171.877 161.023 171.943 162.006C172.074 163.921 171.385 165.493 170.844 166.328C168.827 169.504 163.531 170.846 160.924 168.915C159.874 168.145 159.448 166.557 158.628 163.397C157.694 159.795 157.415 156.947 157.316 156.046C156.857 151.396 156.874 147.762 156.874 145.994C156.89 143.767 156.923 141.688 156.989 139.821C157.398 115.934 158.267 112.889 158.267 112.889Z" fill="#35489E"/>
<path d="M168.844 167.408C166.646 169.946 162.432 170.028 160.924 168.915C157.645 167.326 156.874 147.762 156.89 145.994C156.349 130.915 157.005 123.073 157.694 118.767C162.711 119.487 160.104 159.173 168.844 167.408Z" fill="#213B8E"/>
<path d="M160.268 168.424C161.055 169.701 162.055 171.043 163.318 172.336C168.86 178.034 175.96 179.36 179.239 179.737C178.337 178.345 178.321 177.183 178.37 176.691C178.567 174.17 180.912 171.878 184.503 171.272C183.765 170.912 182.847 170.29 181.535 169.504C178.944 167.949 176.255 166.295 173.795 163.414C173.107 162.595 172.123 161.334 171.172 159.599C170.647 159.042 169.745 158.24 168.45 157.864C165.417 156.979 161.776 158.813 160.268 161.776C158.727 164.838 160.055 167.949 160.268 168.424Z" fill="#35489E"/>
<path d="M160.268 168.423C161.055 169.7 162.055 171.043 163.318 172.336C168.86 178.034 175.96 179.36 179.239 179.736C178.337 178.345 178.321 177.182 178.37 176.691C178.469 175.431 178.419 175.545 177.173 174.186C171.123 169.668 167.958 168.964 164.4 158.109C162.678 158.78 161.121 160.09 160.284 161.776C158.727 164.838 160.055 167.949 160.268 168.423Z" fill="#213B8E"/>
<path d="M147.511 111.367C146.478 128.033 148.118 140.214 152.971 153.508C154.594 158.715 158.054 181.439 152.873 191.623C158.972 187.202 163.039 184.992 164.957 183.944C164.711 182.782 164.318 180.964 163.76 178.754C162.547 173.957 161.465 170.552 161.038 169.455C158.202 159.828 157.218 145.028 157.759 135.286C158.087 127.28 157.497 116.671 158.267 112.889C155.349 112.382 151.282 112.66 147.511 111.367Z" fill="#35489E"/>
<path d="M152.922 191.574C152.906 191.574 152.906 191.574 152.889 191.574C152.84 191.557 152.824 191.508 152.84 191.459C154.218 188.397 155.054 184.894 155.431 180.719C155.693 177.69 155.595 175.578 155.431 172.074C155.267 168.603 154.988 162.775 153.463 156.079C152.84 153.296 152.397 152.133 151.889 150.791C151.446 149.595 150.938 148.237 150.184 145.47C149.348 142.359 147.38 133.96 147.068 123.073C146.954 119.225 147.068 115.329 147.396 111.465C147.396 111.416 147.446 111.383 147.478 111.383C147.528 111.383 147.56 111.432 147.56 111.465C147.232 115.312 147.118 119.209 147.232 123.056C147.544 133.927 149.512 142.31 150.331 145.421C151.069 148.187 151.578 149.53 152.02 150.725C152.529 152.084 152.971 153.246 153.594 156.03C155.119 162.742 155.398 168.571 155.562 172.058C155.726 175.562 155.824 177.69 155.562 180.719C155.185 184.91 154.332 188.43 152.955 191.508C152.988 191.557 152.955 191.574 152.922 191.574Z" fill="#828282" fill-opacity="0.3"/>
<path fill-rule="evenodd" clip-rule="evenodd" d="M126.342 206.538C128.605 205.85 131.737 204.769 135.279 203.05C140.641 200.464 145.543 196.927 155.119 189.985C157.579 188.201 159.973 186.433 163.629 184.534C167.499 182.536 170.499 181.57 171.483 181.259C172.483 180.948 175.746 179.982 180.206 179.524C184.207 179.098 186.47 178.885 189.143 179.966C190.209 180.391 191.766 181.014 193.062 182.585C196.112 186.269 194.505 191.344 194.373 191.737C193.931 193.047 193.291 194.078 192.193 195.437C188.356 200.185 183.945 202.838 182.814 203.492C180.305 204.966 176.206 207.143 168.417 209.812C166.761 210.385 161.989 211.973 150.102 214.822C144.035 216.279 138.984 217.36 135.492 218.096C133.819 218.244 132.147 218.391 130.474 218.538C129.556 217.687 127.736 215.755 126.769 212.661C125.965 209.992 126.162 207.733 126.342 206.538Z" fill="#027BC6"/>
<path fill-rule="evenodd" clip-rule="evenodd" d="M126.343 206.538C128.605 205.85 131.737 204.769 135.279 203.05C140.641 200.464 145.543 196.927 155.119 189.985C157.579 188.201 159.973 186.433 163.629 184.534C167.499 182.536 170.5 181.57 171.483 181.259C172.484 180.948 175.747 179.982 180.207 179.524C184.207 179.098 186.47 178.885 189.143 179.966C190.209 180.391 191.766 181.014 193.062 182.585C171.91 180.408 153.037 201.855 126.179 209.583C126.129 208.289 126.244 207.242 126.343 206.538Z" fill="#0A9CE5"/>
<g style="mix-blend-mode:lighten">
<path d="M179.19 179.753C180.534 180.015 181.666 180.212 182.518 180.359C184.453 180.686 185.437 180.817 186.339 180.899C187.782 181.046 188.503 181.112 189.012 181.014C189.29 180.948 191.914 180.342 192.34 178.23C192.635 176.724 191.701 175.022 189.995 174.203C188.044 173.171 186.109 172.14 184.158 171.092C183.781 170.978 183.24 170.847 182.584 170.814C182.141 170.798 179.665 170.716 178.058 172.664C177.829 172.942 176.37 174.76 177.025 177.019C177.485 178.722 178.846 179.557 179.19 179.753Z" fill="white" fill-opacity="0.3"/>
</g>
<path d="M188.667 173.384C187.864 173.908 187.175 174.285 186.7 174.53C185.585 175.103 185.175 175.202 184.634 175.726C184.42 175.938 183.781 176.544 183.6 177.412C183.223 179.147 184.847 180.637 184.961 180.735C185.699 180.834 186.306 180.916 186.765 180.948C188.47 181.112 188.93 181.063 189.274 180.997C189.93 180.866 190.422 180.637 190.75 180.457C190.996 180.621 191.356 180.834 191.848 180.948C193.012 181.21 193.963 180.719 194.242 180.572C194.39 180.67 195.16 181.194 196.21 181.014C197.325 180.817 197.866 179.95 197.948 179.819C198.063 179.884 198.718 180.228 199.522 179.982C200.243 179.753 200.588 179.18 200.67 179.049C201.276 177.772 201.867 176.495 202.473 175.218C202.719 174.71 202.719 174.105 202.506 173.581C201.588 171.387 200.621 169.259 199.522 166.934C198.571 165.116 197.21 166.033 197.128 166.132C197.03 166.017 196.866 165.673 196.505 165.526C196.357 165.477 195.8 165.378 195.324 165.689C194.898 165.968 194.832 166.475 194.832 166.557C194.8 166.492 194.537 166.099 194.013 166.017C193.603 165.951 193.176 166.115 192.914 166.459C192.635 166.836 192.684 167.245 192.701 167.327C192.717 167.965 192.734 168.604 192.75 169.226C192.701 169.16 192.455 168.833 192.045 168.784C191.586 168.735 191.127 169.078 190.946 169.602C190.881 170.241 190.799 170.879 190.733 171.502C190.372 171.731 189.963 172.042 189.536 172.435C189.192 172.779 188.913 173.09 188.667 173.384Z" fill="#F7B2B2"/>
<path d="M198.981 178.198C198.965 178.198 198.965 178.198 198.948 178.198C198.899 178.181 198.883 178.132 198.916 178.083L200.08 175.513C200.162 175.333 200.178 175.12 200.129 174.923L198.703 169.864C198.44 169.242 198.161 168.62 197.883 168.014C197.62 167.409 197.342 166.786 197.063 166.148C197.046 166.099 197.063 166.066 197.112 166.033C197.161 166.017 197.194 166.033 197.227 166.082C197.506 166.721 197.784 167.343 198.047 167.949C198.325 168.555 198.604 169.177 198.866 169.815L200.309 174.891C200.375 175.12 200.359 175.365 200.26 175.595L199.096 178.165C199.03 178.181 199.014 178.198 198.981 178.198Z" fill="#F38484"/>
<path d="M195.374 178.803C195.357 178.803 195.357 178.803 195.341 178.787C195.308 178.771 195.275 178.721 195.308 178.672L196.538 176.167C196.653 175.938 196.686 175.676 196.653 175.414L195.8 170.224L194.767 166.59C194.751 166.541 194.784 166.508 194.816 166.492C194.865 166.475 194.898 166.508 194.915 166.541L195.948 170.192L196.8 175.398C196.85 175.693 196.8 175.971 196.669 176.249L195.439 178.754C195.439 178.787 195.407 178.803 195.374 178.803Z" fill="#F38484"/>
<path d="M192.209 177.821C192.193 177.821 192.193 177.821 192.176 177.821C192.127 177.805 192.111 177.755 192.127 177.706L193.144 175.283C193.226 175.103 193.258 174.89 193.242 174.694C193.16 173.843 193.078 172.991 192.98 172.123C192.881 171.174 192.783 170.175 192.684 169.209C192.684 169.16 192.717 169.127 192.766 169.127C192.816 169.127 192.848 169.16 192.848 169.209C192.947 170.175 193.045 171.158 193.144 172.123C193.226 172.975 193.324 173.843 193.406 174.694C193.422 174.923 193.39 175.152 193.308 175.365L192.291 177.788C192.275 177.805 192.242 177.821 192.209 177.821Z" fill="#F38484"/>
<path d="M189.061 177.297C189.045 177.297 189.028 177.297 189.028 177.281C188.996 177.264 188.979 177.215 188.996 177.166C189.225 176.74 189.52 176.282 189.815 175.84C190.029 175.513 190.258 175.169 190.455 174.841C190.57 174.661 190.619 174.448 190.635 174.219L190.684 171.518C190.684 171.469 190.717 171.436 190.766 171.436C190.816 171.436 190.848 171.469 190.848 171.518L190.799 174.219C190.799 174.465 190.734 174.71 190.602 174.923C190.406 175.251 190.176 175.594 189.963 175.922C189.668 176.364 189.373 176.806 189.143 177.232C189.11 177.281 189.078 177.297 189.061 177.297Z" fill="#F38484"/>
<path d="M196.407 168.08C196.325 168.08 196.227 168.063 196.145 168.031C196.013 167.981 195.915 167.883 195.882 167.736C195.784 167.556 195.538 166.868 195.456 166.672C195.439 166.623 195.456 166.59 195.505 166.573C195.554 166.557 195.587 166.573 195.603 166.623C195.751 167.032 195.931 167.539 196.013 167.687C196.046 167.785 196.112 167.85 196.194 167.883C196.325 167.949 196.489 167.916 196.554 167.9C196.702 167.85 196.882 167.801 196.915 167.785C196.964 167.752 197.178 167.605 197.063 167.327C196.882 166.77 196.718 166.295 196.423 166.148C196.128 166.033 195.817 166.181 195.685 166.246C195.653 166.262 195.603 166.262 195.571 166.213C195.554 166.181 195.554 166.131 195.603 166.099C195.784 166 196.128 165.853 196.489 165.984C196.85 166.148 197.014 166.655 197.227 167.245C197.341 167.556 197.178 167.785 197.014 167.9C196.964 167.932 196.751 167.998 196.636 168.031C196.571 168.063 196.505 168.08 196.407 168.08Z" fill="#F38484"/>
<path d="M193.849 168.702C193.669 168.702 193.406 168.604 193.324 168.292C193.259 168.063 193.095 167.114 193.062 166.917C193.062 166.868 193.095 166.835 193.128 166.819C193.177 166.819 193.21 166.852 193.226 166.884C193.242 167.081 193.423 168.014 193.488 168.243C193.57 168.505 193.816 168.538 193.915 168.522C193.915 168.522 194.079 168.505 194.374 168.44C194.489 168.407 194.653 168.309 194.603 167.949L194.407 167.015C194.39 166.934 194.357 166.819 194.259 166.721C194.095 166.573 193.816 166.541 193.57 166.655C193.521 166.672 193.488 166.655 193.456 166.622C193.439 166.59 193.456 166.541 193.488 166.508C193.8 166.361 194.144 166.393 194.357 166.59C194.489 166.704 194.538 166.868 194.554 166.966L194.751 167.9C194.833 168.358 194.603 168.522 194.407 168.587C194.095 168.653 193.931 168.669 193.931 168.669C193.882 168.702 193.865 168.702 193.849 168.702Z" fill="#F38484"/>
<path d="M191.766 171.092C191.487 171.076 191.34 170.847 191.356 170.634C191.356 170.601 191.34 169.815 191.356 169.57C191.356 169.521 191.389 169.488 191.438 169.488C191.487 169.488 191.52 169.521 191.52 169.57C191.504 169.832 191.52 170.634 191.52 170.634C191.52 170.765 191.602 170.912 191.766 170.929L192.209 170.879C192.291 170.863 192.406 170.814 192.406 170.486C192.406 170.257 192.389 169.832 192.357 169.651C192.34 169.504 192.291 169.422 192.193 169.373C192.029 169.291 191.865 169.34 191.832 169.357C191.783 169.373 191.75 169.357 191.733 169.308C191.717 169.259 191.733 169.226 191.783 169.209C191.848 169.177 192.061 169.111 192.291 169.226C192.438 169.308 192.52 169.422 192.537 169.619C192.553 169.815 192.586 170.225 192.586 170.47C192.586 170.798 192.471 170.978 192.258 171.027L191.766 171.092Z" fill="#F38484"/>
<path d="M179.19 179.753C180.534 180.015 181.666 180.211 182.518 180.359C184.453 180.686 185.437 180.817 186.339 180.899C187.782 181.046 188.503 181.112 189.011 181.014C189.29 180.948 191.914 180.342 192.34 178.23C190.159 178.23 187.929 178.378 185.748 178.23C181.961 177.968 179.419 176.38 177.189 174.154C176.123 178.116 178.845 179.556 179.19 179.753Z" fill="#F7B2B2"/>
<path d="M188.536 181.145C188.159 181.145 187.618 181.112 186.749 181.03C186.159 180.965 185.552 180.899 184.945 180.817C184.929 180.817 184.912 180.801 184.896 180.801C184.83 180.735 183.109 179.196 183.502 177.395C183.699 176.495 184.355 175.873 184.568 175.66C184.962 175.283 185.306 175.12 185.863 174.841C186.093 174.727 186.339 174.612 186.65 174.448C187.306 174.105 187.962 173.728 188.602 173.319C188.864 172.991 189.159 172.68 189.471 172.402C189.831 172.058 190.225 171.763 190.651 171.485L190.864 169.619C191.045 169.046 191.537 168.685 192.045 168.735C192.324 168.767 192.521 168.898 192.652 169.029L192.603 167.343C192.586 167.196 192.553 166.786 192.832 166.426C193.094 166.082 193.554 165.886 193.996 165.951C194.373 166 194.619 166.213 194.751 166.377C194.8 166.164 194.931 165.853 195.242 165.64C195.734 165.313 196.308 165.411 196.472 165.477C196.784 165.591 196.981 165.853 197.079 166C197.243 165.886 197.653 165.689 198.128 165.738C198.702 165.804 199.178 166.197 199.555 166.901C200.522 168.931 201.998 172.32 202.588 173.695C202.785 174.154 202.785 174.678 202.572 175.136L200.719 179.082C200.588 179.311 200.227 179.835 199.522 180.048C198.801 180.277 198.194 180.031 197.948 179.917C197.751 180.211 197.194 180.899 196.193 181.095C195.226 181.276 194.472 180.85 194.209 180.67C193.75 180.915 192.849 181.276 191.799 181.03C191.422 180.948 191.061 180.784 190.717 180.555C190.258 180.801 189.766 180.981 189.258 181.079C189.11 181.112 188.913 181.145 188.536 181.145ZM184.994 180.653C185.585 180.735 186.175 180.801 186.765 180.866C188.454 181.03 188.913 180.981 189.258 180.915C189.766 180.817 190.241 180.637 190.701 180.375C190.733 180.359 190.766 180.359 190.782 180.375C191.11 180.604 191.471 180.768 191.848 180.85C192.881 181.095 193.75 180.719 194.193 180.473C194.226 180.457 194.259 180.457 194.275 180.473C194.472 180.621 195.21 181.063 196.177 180.899C197.194 180.719 197.735 179.966 197.866 179.737C197.882 179.704 197.932 179.687 197.981 179.704C198.145 179.802 198.768 180.097 199.506 179.868C200.162 179.671 200.489 179.18 200.604 178.983L202.457 175.038C202.654 174.629 202.654 174.154 202.474 173.728C201.883 172.369 200.407 168.964 199.44 166.95C199.096 166.295 198.669 165.935 198.178 165.869C197.636 165.804 197.21 166.099 197.177 166.148C197.161 166.164 197.145 166.181 197.112 166.181C197.095 166.181 197.063 166.164 197.046 166.148C197.03 166.131 197.013 166.099 196.997 166.082C196.899 165.935 196.735 165.706 196.456 165.607C196.341 165.558 195.816 165.46 195.374 165.755C194.997 166 194.931 166.442 194.915 166.557C194.915 166.59 194.882 166.623 194.849 166.623C194.816 166.623 194.783 166.623 194.767 166.59C194.701 166.492 194.455 166.148 194.013 166.082C193.636 166.017 193.226 166.181 192.996 166.492C192.75 166.803 192.767 167.163 192.799 167.294L192.849 169.209C192.849 169.242 192.832 169.275 192.799 169.291C192.767 169.308 192.734 169.291 192.701 169.258C192.635 169.177 192.406 168.882 192.045 168.849C191.619 168.816 191.192 169.127 191.045 169.602L190.832 171.485C190.832 171.501 190.815 171.534 190.799 171.551C190.373 171.813 189.979 172.124 189.618 172.467C189.307 172.746 189.012 173.057 188.749 173.384L188.733 173.401C188.093 173.826 187.421 174.203 186.765 174.547C186.454 174.71 186.191 174.841 185.962 174.94C185.404 175.218 185.093 175.365 184.716 175.725C184.486 175.938 183.896 176.528 183.699 177.379C183.322 179.065 184.814 180.473 184.994 180.653Z" fill="#F38484"/>
<path d="M179.124 179.835C179.108 179.835 179.092 179.835 179.075 179.818C178.616 179.524 178.206 179.164 177.862 178.754C177.403 178.181 177.058 177.51 176.894 176.79C176.763 176.217 176.665 175.316 176.976 174.317C177.173 173.646 177.649 172.664 178.714 171.845C179.452 171.272 180.141 171.076 180.518 170.961C181.272 170.732 182.092 170.666 182.879 170.748C183.289 170.797 183.699 170.879 184.093 171.01C184.142 171.027 184.158 171.076 184.142 171.108C184.125 171.158 184.076 171.174 184.043 171.158C183.666 171.027 183.256 170.945 182.863 170.912C182.109 170.83 181.305 170.912 180.567 171.125C180.207 171.239 179.534 171.436 178.813 171.976C177.78 172.762 177.337 173.712 177.14 174.366C176.845 175.332 176.944 176.2 177.075 176.757C177.239 177.444 177.55 178.099 178.009 178.64C178.337 179.049 178.731 179.393 179.19 179.671C179.223 179.687 179.239 179.753 179.223 179.786C179.19 179.818 179.157 179.835 179.124 179.835Z" fill="#828282" fill-opacity="0.3"/>
<path d="M122.637 111.301C122.079 113.119 121.308 115.673 120.456 118.783C118.75 124.956 116.356 133.797 114.569 145.028C112.454 156.898 109.191 182.88 115.881 195.88C114.782 195.339 106.174 191.41 105.092 190.87C105.092 188.414 105.174 185.876 105.305 183.24C105.649 176.97 106.354 171.141 107.273 165.82C108.404 161.433 109.437 156.668 110.322 151.56C111.241 146.19 111.88 141.131 112.29 136.432C112.323 134.697 112.29 132.88 112.175 130.981C111.782 124.301 110.454 118.554 108.945 113.675C110.765 112.3 114.389 112.071 115.668 112.038C117.307 111.989 119.619 111.874 122.637 111.301Z" fill="#35489E"/>
<path d="M115.881 196.272C115.848 196.272 115.815 196.256 115.799 196.223C115.176 194.881 114.635 193.489 114.159 192.081C113.061 188.774 112.667 186.105 112.405 184.337C112.126 182.438 111.946 180.49 111.864 178.558C111.683 173.646 111.765 168.669 112.077 163.741C112.552 156.374 113.454 150.905 114.258 146.092C115.766 137.022 117.488 130.096 118.619 125.512C120.029 119.815 121.39 115.198 122.538 111.318C122.555 111.268 122.604 111.252 122.637 111.268C122.686 111.285 122.702 111.334 122.686 111.367C121.522 115.247 120.177 119.864 118.767 125.561C117.635 130.145 115.914 137.071 114.405 146.141C113.602 150.954 112.7 156.423 112.224 163.774C111.913 168.685 111.831 173.679 112.011 178.574C112.093 180.506 112.274 182.438 112.552 184.337C112.815 186.105 113.208 188.774 114.29 192.048C114.75 193.456 115.307 194.848 115.93 196.174C115.947 196.223 115.93 196.256 115.897 196.289C115.897 196.272 115.897 196.272 115.881 196.272Z" fill="#828282" fill-opacity="0.3"/>
<path fill-rule="evenodd" clip-rule="evenodd" d="M134.279 219.963C133.377 220.683 132.065 221.682 130.425 222.795C126.802 225.235 123.85 226.675 120.604 228.247C117.193 229.884 115.438 230.719 113.258 231.292C111.028 231.882 108.748 232.455 105.846 231.947C104.879 231.783 102.534 231.26 100.255 229.557C99.271 228.82 98.238 228.034 97.6313 226.577C97.0083 225.055 97.1886 223.679 97.2706 223.172C97.2706 223.172 97.5494 221.322 98.8775 219.619C100.747 217.196 113.717 216.803 131.163 218.899C132.18 219.242 133.229 219.603 134.279 219.963Z" fill="#BF2652"/>
<path fill-rule="evenodd" clip-rule="evenodd" d="M107.305 214.02C106.059 214.544 105.059 215.051 104.321 215.477C102.665 216.41 101.763 217.147 99.9596 218.604C99.2873 219.144 98.6806 219.668 98.2871 220.569C98.2379 220.667 97.9428 221.371 97.9264 222.173C97.8936 224.072 99.5825 225.513 100.763 226.528C101.517 227.167 103.206 228.591 105.928 229.279C109.289 229.835 111.536 229.36 114.045 228.247C115.127 227.756 125.883 222.795 131.081 218.981C123.145 217.311 115.225 215.657 107.305 214.02Z" fill="#F95070"/>
<path fill-rule="evenodd" clip-rule="evenodd" d="M104.682 218.375C105.78 217.949 106.928 217.458 108.092 216.918C109.503 216.279 110.798 215.608 112.011 214.953C115.323 215.657 118.652 216.361 121.964 217.065C119.718 217.949 117.439 218.866 115.127 219.815C113.208 220.618 111.323 221.403 109.453 222.206C108.797 221.534 108.027 220.814 107.125 220.094C106.289 219.422 105.452 218.849 104.682 218.375Z" fill="#BF2652"/>
<path fill-rule="evenodd" clip-rule="evenodd" d="M102.107 216.901C103.534 217.54 105.043 218.489 106.715 219.733C110.519 222.549 112.766 225.988 113.995 228.231C107.978 231.145 103.288 228.525 101.402 227.085C96.762 223.745 97.8934 221.387 98.2706 220.552C98.5165 220.028 98.8117 219.553 99.1232 219.259C99.7135 218.686 100.927 217.703 102.107 216.901Z" fill="#FC6C85"/>
<path d="M113.612 222.854C114.112 222.694 114.428 222.285 114.317 221.94C114.206 221.596 113.711 221.447 113.211 221.607C112.711 221.767 112.395 222.176 112.506 222.521C112.617 222.865 113.112 223.014 113.612 222.854Z" fill="white"/>
<path d="M118.07 220.776C118.57 220.615 118.885 220.206 118.775 219.862C118.664 219.518 118.169 219.368 117.669 219.529C117.169 219.689 116.853 220.098 116.964 220.442C117.074 220.787 117.569 220.936 118.07 220.776Z" fill="white"/>
<path d="M107.065 216.733C107.565 216.573 107.881 216.163 107.77 215.819C107.66 215.475 107.165 215.325 106.665 215.486C106.165 215.646 105.849 216.056 105.959 216.4C106.07 216.745 106.565 216.894 107.065 216.733Z" fill="white"/>
<path fill-rule="evenodd" clip-rule="evenodd" d="M113.34 222.189C112.159 220.831 110.88 219.554 109.536 218.391C108.667 217.638 107.748 216.918 106.814 216.246L106.912 216.115C107.847 216.787 108.765 217.507 109.65 218.26C111.011 219.439 112.29 220.716 113.471 222.075L113.34 222.189Z" fill="white"/>
<path fill-rule="evenodd" clip-rule="evenodd" d="M117.668 220.241C116.783 219.259 115.816 218.342 114.799 217.507C113.651 216.557 112.405 215.69 111.11 214.953L111.192 214.806C112.503 215.559 113.75 216.427 114.914 217.376C115.93 218.227 116.914 219.144 117.8 220.127L117.668 220.241Z" fill="white"/>
<path d="M141.444 210.451C142.69 210.86 143.707 211.105 144.395 211.269C146.56 211.76 147.38 211.728 148.478 212.415C148.839 212.644 149.724 213.185 150.282 214.216C151.266 216.033 150.757 218.538 149.462 220.094C147.888 221.993 145.068 222.681 142.428 221.731C140.132 220.798 137.853 219.881 135.557 218.948C135.262 218.489 134.377 217.016 134.574 215.035C134.623 214.527 134.852 212.268 136.869 210.958C138.935 209.599 141.182 210.352 141.444 210.451Z" fill="#F7B2B2"/>
<path fill-rule="evenodd" clip-rule="evenodd" d="M157.529 231.522C159.776 232.946 162.285 233.977 163.711 234.403C165.81 235.042 167.171 235.107 167.712 235.123C168.761 235.156 169.893 235.189 171.204 234.681C172.779 234.076 173.697 233.061 174.254 232.438C177.058 229.279 176.845 225.333 176.796 224.744C176.73 223.794 176.632 222.451 175.779 221.043C174.697 219.275 173.09 218.489 171.926 217.916C171.073 217.507 168.974 216.95 166.908 216.508C167.843 216.918 175.107 218.358 174.156 225.628C174.09 226.414 173.795 228.345 172.467 230.343C169.073 235.827 159.104 232.111 157.529 231.522Z" fill="#BF2652"/>
<path fill-rule="evenodd" clip-rule="evenodd" d="M144.084 220.176C143.936 220.192 143.444 220.274 143.067 220.683C142.657 221.142 142.542 221.813 142.772 222.419C143.28 222.632 144.018 222.975 144.887 223.434C146.297 224.187 147.216 224.842 148.232 225.546C149.347 226.315 150.626 227.15 153.184 228.82C155.43 230.277 156.562 231.031 157.398 231.44C159.398 232.422 160.973 233.11 162.202 233.437C164.711 234.092 166.039 234.174 167.663 233.83C167.974 233.765 169.335 233.47 170.712 232.455C174.467 229.704 174.369 224.662 174.353 224.187C174.32 223.09 174.254 221.306 173.041 219.685C172.418 218.85 171.45 217.835 167.63 216.672C164.793 215.952 164.17 216.181 160.464 215.264C156.513 214.282 153.118 212.874 151.151 212.072C150.298 211.728 149.593 211.417 149.118 211.204C149.003 211.188 148.331 211.106 147.806 211.564C147.412 211.908 147.33 212.383 147.298 212.579C147.199 213.201 147.429 213.709 147.511 213.889C147.576 214.266 147.642 214.855 147.576 215.559C147.527 216.214 147.379 217.753 146.199 218.964C145.51 219.652 144.707 219.996 144.084 220.176Z" fill="#F95070"/>
<path fill-rule="evenodd" clip-rule="evenodd" d="M147.281 213.283C146.937 213.496 146.428 213.84 145.904 214.38C144.444 215.87 144.051 217.589 143.936 218.228C143.854 218.686 143.838 219.39 143.92 220.225C144.576 220.438 145.51 220.732 146.707 221.125C149.905 222.206 160.743 226.676 163.203 228.607C163.465 227.543 165.465 222.55 166.367 221.174C160.776 220.585 149.429 214.986 147.281 213.283Z" fill="#BF2652"/>
<path fill-rule="evenodd" clip-rule="evenodd" d="M161.94 233.355C164.694 234.158 166.318 234.108 167.646 233.83C167.957 233.765 169.318 233.47 170.696 232.455C174.451 229.704 174.352 224.662 174.336 224.187C174.303 223.09 174.237 221.305 173.024 219.685C172.483 218.964 171.499 217.835 168.449 216.934C165.383 222.173 162.514 228.607 161.94 233.355Z" fill="#FC6C85"/>
<path d="M128.556 98.3018C128.573 100.889 128.606 103.475 128.622 106.062C128.638 106.422 128.622 106.799 128.556 107.225C128.36 108.567 127.737 109.582 127.195 110.253C126.818 110.728 126.802 111.383 127.146 111.874C128.146 113.299 130.458 115.722 135.148 115.935C138.362 115.935 141.986 114.543 143.314 112.038C143.592 111.514 143.494 110.843 143.051 110.433C142.166 109.599 141.904 108.452 141.838 108.027C141.69 107.077 141.674 106.259 141.707 105.702C141.723 103.279 141.756 100.856 141.772 98.4491C137.362 98.4 132.951 98.3509 128.556 98.3018Z" fill="#F38484"/>
<path d="M134.246 68.1935C135.902 67.3749 137.87 66.6873 140.132 66.3926C150.315 65.0992 158.136 73.0397 159.432 74.3985C160.235 75.1517 161.432 76.1667 163.023 77.1818C169.614 81.3567 176.435 81.2093 179.551 81.0947C188.487 80.7837 195.013 76.8707 197.866 74.8897C197.145 76.4287 196.063 78.3442 194.423 80.2761C191.603 83.6324 188.454 85.4988 186.405 86.4812C187.241 86.5794 188.323 86.6121 189.569 86.432C191.439 86.1701 192.882 85.5316 193.816 85.024C192.964 86.1865 191.931 87.3652 190.652 88.5113C184.65 93.865 177.288 94.5362 173.959 94.6017C175.468 95.0601 177.468 95.4858 179.846 95.4694C180.879 95.4694 181.83 95.3712 182.683 95.2566C181.65 96.1571 180.043 97.3522 177.878 98.3018C170.565 101.543 163.482 99.1204 161.744 98.5146C160.629 98.1381 154.857 96.0588 150.397 90.4596C147.364 86.6449 147.855 84.8276 145.166 80.8819C143.248 78.0659 139.919 74.4313 133.721 71.4025C133.934 70.3383 134.098 69.2577 134.246 68.1935Z" fill="#353437"/>
<path fill-rule="evenodd" clip-rule="evenodd" d="M132.606 69.9126C132.639 69.6343 132.754 68.1281 134.852 68.1772C135.508 68.2427 136.951 68.2263 138.706 69.1268C139.542 69.6343 139.739 70.0109 139.804 70.1418C140.149 70.9113 139.837 71.7136 139.739 71.9591C137.345 71.2715 134.967 70.6003 132.606 69.9126Z" fill="#FFF9B0"/>
<path d="M124.244 88.6424C123.981 88.0693 123.653 87.2507 123.375 86.252C123.047 85.0732 122.26 82.028 123.227 78.4917C123.539 77.3456 124.309 74.5623 126.867 72.4012C130.278 69.5197 135.525 68.8649 139.083 70.9441C139.804 71.3698 140.329 71.8282 140.69 72.172C141.247 72.3194 142.051 72.5813 142.871 73.1216C145.478 74.7916 146.265 77.6076 146.658 78.9992C147.987 83.7635 146.117 88.0038 145.429 89.3791C138.345 89.1335 131.294 88.8879 124.244 88.6424Z" fill="#353437"/>
<path d="M128.556 98.3018C128.572 100.135 128.589 101.396 128.605 103.246C133.475 108.256 138.066 106.733 141.723 103.246C141.739 101.56 141.756 100.152 141.772 98.4491C137.361 98.4 132.95 98.3509 128.556 98.3018Z" fill="#828282" fill-opacity="0.3"/>
<path d="M125.473 88.4622C125.145 88.1675 124.686 88.1348 124.326 88.3476C123.965 88.5604 123.768 89.0025 123.834 89.4445C123.85 89.9848 124.637 93.3902 124.981 94.0942C125.014 94.127 125.277 94.4053 125.687 94.3889C126.146 94.3562 126.375 93.9632 126.392 93.9305C126.096 92.0968 125.785 90.2795 125.473 88.4622Z" fill="#828282" fill-opacity="0.3"/>
<path d="M144.494 88.8878C144.822 88.5931 145.281 88.5604 145.642 88.7732C146.002 88.986 146.199 89.4281 146.133 89.8701C146.117 90.4104 145.33 93.8158 144.986 94.5198C144.953 94.5526 144.691 94.8309 144.281 94.8145C143.821 94.7818 143.592 94.3888 143.576 94.3561C143.871 92.5388 144.182 90.7215 144.494 88.8878Z" fill="#828282" fill-opacity="0.3"/>
<path d="M140.969 78.8026C140.559 78.5079 140.149 78.0168 139.87 77.2309C138.296 77.6075 137.509 77.5092 136.378 77.4274C133.426 77.2309 130.196 77.9676 129.245 78.7044C125.506 81.3075 124.555 83.5996 125.621 91.7366C125.736 93.2919 127.162 98.4 128.277 99.7916C129.671 101.38 131.18 102.395 132.459 103.181C134.328 104.179 135.656 104.294 137.624 103.181C138.886 102.395 140.411 101.363 141.805 99.7916C142.92 98.4 144.346 93.2919 144.461 91.7366C145.593 86.3829 144.707 81.4222 140.969 78.8026Z" fill="#F7B2B2"/>
<path d="M137.443 86.6449C137.443 86.6449 139.771 84.8931 142.756 86.4812C142.903 86.5303 143.034 86.3339 142.92 86.252C142.051 85.5644 140.919 84.844 139.853 84.844C139.476 84.8767 139.066 84.9913 138.64 85.1387C138.263 85.2697 137.951 85.5153 137.722 85.8263C137.591 86.0228 137.427 86.2356 137.263 86.4485C137.164 86.5467 137.295 86.7104 137.443 86.6449Z" fill="#353437"/>
<g style="mix-blend-mode:lighten">
<path d="M133.655 102.313C133.623 101.887 134.328 101.56 134.393 101.527C135 101.249 135.738 101.396 136.181 101.773C136.295 101.871 136.492 102.051 136.492 102.297C136.492 102.624 136.131 102.853 136.017 102.919C135.295 103.361 134.41 102.968 134.328 102.919C134.065 102.82 133.672 102.624 133.655 102.313Z" fill="white" fill-opacity="0.3"/>
</g>
<path d="M133.836 94.9129C133.787 94.9129 133.754 94.9129 133.705 94.8965C133.524 94.8474 133.36 94.7328 133.295 94.5527C133.147 94.1761 133.541 93.5867 133.639 93.5212C133.721 93.4721 133.819 93.4885 133.869 93.5704C133.918 93.6358 133.901 93.7341 133.836 93.7832C133.754 93.865 133.524 94.2743 133.59 94.4217C133.623 94.5036 133.688 94.5527 133.77 94.569C133.852 94.5854 133.95 94.569 134.016 94.5036L134.049 94.4708C134.262 94.2743 134.574 94.2416 134.82 94.3726L135.082 94.5199C135.18 94.569 135.295 94.5527 135.361 94.4872L135.492 94.3726C135.738 94.1597 136.115 94.1597 136.361 94.389L136.476 94.4872C136.525 94.5363 136.607 94.5527 136.672 94.5363C136.705 94.5363 136.771 94.5036 136.804 94.4381C136.886 94.258 136.771 93.9633 136.541 93.7832C136.476 93.7341 136.459 93.6195 136.508 93.554C136.558 93.4885 136.672 93.4721 136.738 93.5212C137.099 93.7996 137.263 94.258 137.099 94.569C137.017 94.7164 136.886 94.8146 136.738 94.8474C136.574 94.8801 136.394 94.831 136.262 94.7164L136.148 94.6182C136.033 94.5036 135.836 94.5036 135.721 94.6018L135.59 94.7164C135.41 94.8801 135.147 94.8965 134.934 94.7819L134.672 94.6345C134.541 94.569 134.377 94.5854 134.278 94.6836L134.246 94.7164C134.131 94.8474 134 94.9129 133.836 94.9129Z" fill="#828282" fill-opacity="0.3"/>
<path d="M132.377 86.6449C132.377 86.6449 129.95 84.8439 126.9 86.3993C126.752 86.4484 126.605 86.2519 126.736 86.1537C127.621 85.4824 128.786 84.7784 129.884 84.7784C130.278 84.8112 130.704 84.9258 131.147 85.0895C131.54 85.2205 131.868 85.4661 132.114 85.7935C132.262 85.99 132.426 86.2192 132.59 86.432C132.672 86.563 132.541 86.7103 132.377 86.6449Z" fill="#353437"/>
<path d="M135.213 97.6304C134.672 97.6304 134.115 97.5813 133.524 97.4831C132.705 97.3358 131.901 97.0738 131.13 96.7136C131.048 96.6809 131.016 96.5826 131.048 96.5008C131.081 96.4189 131.18 96.3862 131.262 96.4189C131.999 96.7791 132.77 97.0247 133.557 97.172C135.82 97.5813 137.788 97.0574 139.034 96.5335C139.116 96.5008 139.214 96.5335 139.247 96.6154C139.28 96.6972 139.247 96.7955 139.165 96.8282C138.214 97.2211 136.82 97.6304 135.213 97.6304Z" fill="#828282" fill-opacity="0.3"/>
<path d="M135.098 99.2841C135.049 99.2841 135 99.2841 134.951 99.2841C133.475 99.235 132.409 98.5638 131.901 98.1545C131.835 98.1053 131.819 97.9907 131.868 97.9253C131.917 97.8598 132.032 97.8434 132.098 97.8925C132.573 98.2691 133.557 98.9076 134.951 98.9403C136.099 98.9731 136.984 98.5801 137.542 98.2527C137.624 98.2036 137.722 98.2363 137.771 98.3018C137.82 98.3837 137.788 98.4819 137.722 98.531C137.164 98.8912 136.263 99.2841 135.098 99.2841Z" fill="#828282" fill-opacity="0.3"/>
<path d="M130.048 89.1661C129.556 89.1661 129.163 89.0679 128.917 88.9697C128.54 88.8387 128.195 88.6422 127.884 88.3966C127.818 88.3475 127.802 88.2329 127.851 88.1674C127.9 88.1019 128.015 88.0856 128.08 88.1347C128.359 88.3639 128.671 88.5276 129.015 88.6586C129.359 88.7732 130.065 88.9533 130.884 88.7077C131.294 88.5931 131.688 88.3803 132.016 88.0856C132.081 88.0201 132.196 88.0365 132.245 88.1019C132.311 88.1674 132.295 88.2657 132.229 88.3312C131.852 88.6586 131.425 88.8878 130.966 89.0188C130.638 89.1334 130.327 89.1661 130.048 89.1661Z" fill="#353437"/>
<path d="M139.739 89.1662C139.46 89.1662 139.132 89.1335 138.804 89.0353C138.345 88.9043 137.919 88.6751 137.542 88.3476C137.476 88.2821 137.46 88.1839 137.525 88.1184C137.591 88.0529 137.689 88.0366 137.755 88.1021C138.099 88.3968 138.476 88.5932 138.886 88.7242C139.69 88.9534 140.395 88.7897 140.756 88.6751C141.1 88.5605 141.412 88.3804 141.69 88.1512C141.756 88.1021 141.871 88.1021 141.92 88.1839C141.969 88.2494 141.969 88.364 141.887 88.4131C141.575 88.6587 141.231 88.8552 140.854 88.9862C140.641 89.0516 140.231 89.1662 139.739 89.1662Z" fill="#353437"/>
<path d="M125.621 91.7365C125.736 93.2919 127.162 98.4 128.277 99.7916C129.671 101.38 131.18 102.395 132.459 103.181C129.327 99.8898 127.868 94.3069 125.621 91.7365Z" fill="#F38484"/>
<path d="M137.607 103.181C138.87 102.395 140.395 101.363 141.788 99.7916C142.903 98.4 144.33 93.2919 144.445 91.7365C142.346 95.0273 139.87 100.545 137.607 103.181Z" fill="#F38484"/>
<path fill-rule="evenodd" clip-rule="evenodd" d="M76.676 181.538C75.807 181.554 74.2493 181.701 72.7572 182.684C69.9041 184.55 69.4778 187.972 69.3302 189.216C68.9039 192.654 70.232 195.323 70.9699 196.731C72.7244 200.12 75.2659 202.068 76.6924 203.1C85.3992 209.37 95.8769 212.759 96.3196 212.906C103.682 215.231 109.322 216.197 120.046 217.965C126.539 219.046 131.967 219.783 135.754 220.258C136.64 219.554 137.722 218.555 138.706 217.147C140.673 214.331 141.182 211.482 141.329 209.959C139.657 209.337 137.197 208.388 134.295 207.013C128.392 204.246 124.654 201.675 121.538 199.661C113.684 194.602 107.289 191.443 101.419 188.561C93.5977 184.714 89.0885 183.077 83.7595 182.192C80.8081 181.718 78.3485 181.587 76.676 181.538Z" fill="#0A9CE5"/>
<g style="mix-blend-mode:lighten">
<path d="M134.246 207.029C128.343 204.262 124.604 201.692 121.489 199.678C113.635 194.619 107.24 191.459 101.37 188.578C93.5485 184.73 89.0394 183.093 83.7104 182.209C86.9734 184.37 126.457 205.113 134.246 207.029Z" fill="white" fill-opacity="0.3"/>
</g>
<path fill-rule="evenodd" clip-rule="evenodd" d="M119.062 216.181C102.026 211.728 76.9877 203.312 69.3139 189.216C68.8876 192.654 70.2157 195.323 70.9536 196.731C72.7081 200.12 75.2496 202.068 76.6761 203.1C85.3829 209.37 95.8606 212.759 96.3033 212.906C101.96 214.691 106.601 215.673 113.307 216.836C117.144 217.753 118.406 218.997 121.604 219.766C123.768 220.028 124.49 219.603 125.146 219.275C125.916 219.799 126.998 220.421 128.425 220.798C131.622 221.649 134.312 220.831 135.738 220.258C135.754 220.241 123.227 217.13 119.062 216.181Z" fill="#027BC6"/>
<path d="M165.001 219.708C165.076 219.4 164.701 219.046 164.164 218.915C163.628 218.785 163.132 218.929 163.057 219.237C162.982 219.544 163.357 219.899 163.893 220.029C164.43 220.159 164.926 220.015 165.001 219.708Z" fill="white"/>
<path d="M160.854 218.345C160.928 218.065 160.583 217.732 160.084 217.601C159.585 217.47 159.12 217.59 159.047 217.87C158.973 218.149 159.317 218.483 159.817 218.614C160.316 218.745 160.78 218.625 160.854 218.345Z" fill="white"/>
<path d="M156.84 216.668C156.934 216.395 156.614 216.037 156.126 215.87C155.638 215.702 155.166 215.788 155.072 216.062C154.978 216.336 155.297 216.693 155.785 216.861C156.273 217.028 156.746 216.942 156.84 216.668Z" fill="white"/>
<path d="M153.061 214.886C153.153 214.612 152.831 214.256 152.342 214.092C151.853 213.928 151.381 214.017 151.289 214.291C151.196 214.565 151.518 214.921 152.007 215.085C152.497 215.249 152.968 215.16 153.061 214.886Z" fill="white"/>
<path d="M161.386 228.944C161.503 228.66 161.197 228.265 160.702 228.062C160.208 227.859 159.713 227.926 159.596 228.21C159.479 228.494 159.785 228.889 160.279 229.092C160.773 229.295 161.269 229.228 161.386 228.944Z" fill="white"/>
<path d="M157.507 227.172C157.621 226.896 157.292 226.499 156.772 226.286C156.253 226.073 155.74 226.124 155.626 226.4C155.513 226.676 155.842 227.073 156.361 227.286C156.881 227.499 157.394 227.448 157.507 227.172Z" fill="white"/>
<path d="M153.229 225.227C153.343 224.951 153.048 224.569 152.57 224.373C152.093 224.177 151.614 224.242 151.5 224.518C151.387 224.794 151.682 225.177 152.159 225.372C152.637 225.568 153.116 225.503 153.229 225.227Z" fill="white"/>
<path d="M149.009 223.448C149.122 223.172 148.827 222.789 148.35 222.593C147.872 222.397 147.393 222.462 147.28 222.738C147.167 223.014 147.462 223.397 147.939 223.593C148.416 223.789 148.895 223.724 149.009 223.448Z" fill="white"/>
<path fill-rule="evenodd" clip-rule="evenodd" d="M160.596 228.591L160.448 228.542C160.94 227.101 161.465 225.66 162.006 224.252C162.613 222.681 163.269 221.093 163.941 219.537L164.089 219.603C163.416 221.158 162.777 222.746 162.17 224.318C161.613 225.726 161.088 227.167 160.596 228.591Z" fill="white"/>
<path fill-rule="evenodd" clip-rule="evenodd" d="M156.48 226.741L156.333 226.692C156.808 225.415 157.317 224.105 157.825 222.845C158.465 221.256 159.137 219.652 159.825 218.08L159.973 218.146C159.284 219.717 158.612 221.306 157.973 222.894C157.464 224.171 156.972 225.464 156.48 226.741Z" fill="white"/>
<path fill-rule="evenodd" clip-rule="evenodd" d="M152.381 224.744L152.233 224.678C152.725 223.385 153.233 222.091 153.758 220.831C154.414 219.259 155.119 217.687 155.824 216.148L155.972 216.214C155.25 217.753 154.562 219.325 153.906 220.896C153.381 222.173 152.856 223.467 152.381 224.744Z" fill="white"/>
<path fill-rule="evenodd" clip-rule="evenodd" d="M148.233 223.008L148.085 222.943C148.626 221.649 149.2 220.356 149.79 219.095C150.512 217.573 151.282 216.034 152.086 214.56L152.234 214.642C151.43 216.132 150.659 217.655 149.938 219.177C149.348 220.421 148.774 221.715 148.233 223.008Z" fill="white"/>
<path fill-rule="evenodd" clip-rule="evenodd" d="M141.969 227.052C141.936 227.052 141.92 227.052 141.887 227.052C141.723 227.052 140.297 226.97 139.706 225.841C139.395 225.235 139.395 224.514 139.739 223.696C139.87 223.368 140.133 222.877 140.887 222.288C142.691 220.863 144.904 220.749 145.724 220.716C146.773 220.667 147.856 220.765 148.905 221.011C148.938 221.027 148.971 221.044 148.971 221.093C148.971 221.125 148.954 221.158 148.921 221.174C147.921 221.518 146.527 222.239 145.511 223.679C145.183 224.138 144.921 224.645 144.724 225.186C144.15 226.332 143.084 227.052 141.969 227.052ZM146.314 220.863C146.134 220.863 145.937 220.863 145.757 220.88C144.937 220.929 142.772 221.027 141.002 222.419C140.28 222.992 140.018 223.467 139.903 223.761C139.591 224.531 139.575 225.202 139.87 225.759C140.428 226.806 141.756 226.872 141.903 226.872C142.969 226.905 144.035 226.201 144.593 225.104C144.789 224.564 145.068 224.04 145.396 223.565C146.347 222.206 147.642 221.486 148.626 221.093C147.856 220.945 147.085 220.863 146.314 220.863Z" fill="white"/>
<path fill-rule="evenodd" clip-rule="evenodd" d="M143.953 221.305C143.002 221.305 142.034 221.224 141.05 220.732C140.559 220.487 140.247 220.241 140.001 219.914C139.296 218.915 139.657 217.687 139.706 217.556C140.149 216.181 141.559 215.641 141.838 215.542C142.953 215.15 144.297 215.346 145.609 216.066C146.871 216.754 147.904 217.851 148.478 219.062C148.757 219.668 148.937 220.339 148.987 221.043C148.987 221.06 148.987 221.093 148.97 221.109C148.954 221.125 148.937 221.142 148.905 221.142C147.56 221.207 146.166 221.256 144.756 221.289C144.494 221.289 144.215 221.305 143.953 221.305ZM142.985 215.526C142.592 215.526 142.215 215.592 141.87 215.706C141.608 215.804 140.263 216.312 139.853 217.622C139.804 217.753 139.476 218.899 140.132 219.832C140.362 220.143 140.657 220.372 141.116 220.601C142.346 221.207 143.51 221.174 144.756 221.142C146.134 221.109 147.494 221.06 148.806 220.994C148.741 220.339 148.577 219.717 148.314 219.144C147.232 216.836 144.871 215.526 142.985 215.526Z" fill="white"/>
<path fill-rule="evenodd" clip-rule="evenodd" d="M135.066 224.056C135.066 224.056 135.049 224.056 135.066 224.056C135 224.04 134.984 224.007 134.984 223.958C135.18 222.828 135.804 220.683 137.706 219.079C139.837 217.278 143.477 216.328 146.314 217.982C147.757 218.833 148.577 220.11 149.003 221.027C149.019 221.076 149.003 221.109 148.97 221.142C148.921 221.158 148.888 221.142 148.856 221.109C148.429 220.208 147.642 218.964 146.232 218.129C143.461 216.508 139.903 217.442 137.82 219.21C135.968 220.782 135.361 222.877 135.164 223.99C135.131 224.023 135.098 224.056 135.066 224.056Z" fill="white"/>
<path fill-rule="evenodd" clip-rule="evenodd" d="M141.411 224.007C141.362 224.007 141.329 223.974 141.329 223.925C141.428 222.157 142.362 220.634 143.772 219.93C144.969 219.357 146.15 219.521 146.609 219.619C147.806 219.881 148.577 220.585 148.937 220.978C148.97 221.011 148.97 221.06 148.937 221.093C148.905 221.125 148.855 221.125 148.823 221.093C148.478 220.716 147.724 220.045 146.576 219.783C146.133 219.685 144.986 219.521 143.854 220.077C142.493 220.749 141.592 222.222 141.493 223.925C141.493 223.974 141.46 224.007 141.411 224.007Z" fill="white"/>
<path fill-rule="evenodd" clip-rule="evenodd" d="M263.864 116.18L251.221 125.938L252.369 128.574C252.418 128.836 252.632 129.049 252.943 129.049L269.209 128.705C269.619 128.689 269.881 128.279 269.717 127.919L264.667 116.295C264.519 115.918 264.142 115.886 263.864 116.18Z" fill="#BF2652"/>
<path fill-rule="evenodd" clip-rule="evenodd" d="M262.683 113.659L251.369 125.349C251.025 125.709 251.287 126.315 251.779 126.298L268.062 126.003C268.455 126.003 268.734 125.578 268.57 125.218L263.618 113.839C263.438 113.462 262.962 113.381 262.683 113.659Z" fill="#F95070"/>
<path d="M247.778 197.025C247.778 197.025 236.3 194.16 235.677 193.784C235.464 194.832 235.3 195.716 235.103 196.764C235.071 196.845 235.071 196.927 235.103 197.009L237.858 207.111C237.94 207.405 238.301 207.536 238.547 207.324L247.057 200.316C247.139 200.251 247.188 200.153 247.204 200.054C247.401 199.039 247.778 197.025 247.778 197.025Z" fill="#F9C973"/>
<path fill-rule="evenodd" clip-rule="evenodd" d="M235.676 194.029L238.431 204.131C238.513 204.426 238.874 204.557 239.119 204.344L247.63 197.337C247.892 197.107 247.81 196.682 247.466 196.583L236.201 193.489C235.873 193.424 235.578 193.718 235.676 194.029Z" fill="#FFF9B0"/>
<path d="M17.3186 96.9594L3.06959 86.4648L0.593645 88.495C0.331294 88.626 0.150927 88.9207 0.265706 89.2481L5.56193 106.472C5.6931 106.897 6.21781 107.061 6.56214 106.783L17.4497 97.8762C17.7777 97.5651 17.7121 97.1722 17.3186 96.9594Z" fill="#F9C973"/>
<path fill-rule="evenodd" clip-rule="evenodd" d="M19.6311 94.9292L3.726 86.4157C3.2341 86.1537 2.6766 86.6121 2.84057 87.1524L8.0876 104.392C8.21878 104.818 8.74348 104.982 9.08782 104.687L19.7459 95.9606C20.0738 95.6823 20.0246 95.142 19.6311 94.9292Z" fill="#FFF9B0"/>
<path fill-rule="evenodd" clip-rule="evenodd" d="M152.086 4.68619L152.168 0.838745L129.327 1.03521L129.081 5.03L129.097 5.04637C129.114 5.21009 129.179 5.39019 129.31 5.55391L142.231 21.0419C142.723 21.5658 143.248 21.3366 143.494 20.8946L152.02 5.03C152.069 4.9154 152.086 4.80079 152.086 4.68619Z" fill="#BF2652"/>
<path fill-rule="evenodd" clip-rule="evenodd" d="M151.43 0.167492L130.065 0.380329C129.441 0.380329 129.097 1.11707 129.507 1.60824L142.346 16.8998C142.69 17.3091 143.313 17.2436 143.576 16.7852L152.102 1.28079C152.364 0.773259 152.004 0.15112 151.43 0.167492Z" fill="#F95070"/>
<path fill-rule="evenodd" clip-rule="evenodd" d="M50.0311 180.752L48.6701 180.539L47.7027 188.61L49.1128 188.889C49.1784 188.889 49.244 188.872 49.2932 188.839L55.3109 185.041C55.5076 184.894 55.524 184.665 55.3273 184.501L50.1294 180.801C50.1131 180.768 50.0639 180.768 50.0311 180.752Z" fill="#BF2652"/>
<path fill-rule="evenodd" clip-rule="evenodd" d="M48.3915 180.784L47.4897 188.348C47.4569 188.577 47.7028 188.725 47.8996 188.61L53.9009 184.779C54.0648 184.681 54.0648 184.452 53.9173 184.337L48.8178 180.62C48.6538 180.473 48.4243 180.571 48.3915 180.784Z" fill="#F95070"/>
<path fill-rule="evenodd" clip-rule="evenodd" d="M31.0432 210.549L33.1256 210.336L31.5023 198.073L29.3379 198.204C29.256 198.221 29.1576 198.27 29.0756 198.352L21.5822 206.309C21.3362 206.603 21.5002 206.882 21.7461 206.98L30.8629 210.516C30.9285 210.565 30.994 210.565 31.0432 210.549Z" fill="#BF2652"/>
<path fill-rule="evenodd" clip-rule="evenodd" d="M33.4534 209.894L31.9285 198.434C31.8793 198.09 31.4694 197.959 31.2234 198.205L23.8284 206.112C23.6316 206.325 23.7136 206.653 23.976 206.767L32.8959 210.32C33.191 210.451 33.4862 210.205 33.4534 209.894Z" fill="#F95070"/>
<path d="M202.752 38.0853C202.752 38.0853 208.737 44.6014 208.967 45.0926C209.524 44.5196 210 44.0448 210.557 43.4717C210.606 43.439 210.639 43.3899 210.672 43.3244L213.115 35.8915C213.181 35.6623 213 35.4494 212.771 35.4658L204.572 36.3335C204.49 36.3499 204.425 36.3826 204.375 36.4317C203.818 36.972 202.752 38.0853 202.752 38.0853Z" fill="#F9C973"/>
<path fill-rule="evenodd" clip-rule="evenodd" d="M209.081 44.9289L211.525 37.496C211.59 37.2667 211.41 37.0539 211.18 37.0703L202.982 37.938C202.719 37.9707 202.605 38.2818 202.769 38.4783L208.524 45.0435C208.688 45.2236 208.999 45.1745 209.081 44.9289Z" fill="#FFF9B0"/>
</svg>
