<svg width="131" height="109" viewBox="0 0 131 109" fill="none" xmlns="http://www.w3.org/2000/svg">
<path d="M130.898 7.43573H6.90137V108.769H130.898V7.43573Z" fill="#C8F5FC"/>
<path d="M130.898 12.1781H6.90137V87.1139H130.898V12.1781Z" fill="#A2E9FC"/>
<path fill-rule="evenodd" clip-rule="evenodd" d="M68.5135 41.0325C65.0238 36.2329 54.8409 37.3471 56.9576 47.2033C58.5594 52.5742 62.2207 55.5454 68.4849 60.0307V60.0592H68.5135H68.5421V60.0307C74.8063 55.5454 78.4675 52.5742 80.0693 47.2033C82.186 37.3471 72.0031 36.2329 68.5135 41.0325Z" fill="#81DCFC"/>
<path fill-rule="evenodd" clip-rule="evenodd" d="M124.748 102.484H0.72256C0.550938 102.484 0.436523 102.37 0.436523 102.198V0.864911C0.436523 0.693499 0.550938 0.579224 0.72256 0.579224H124.719C124.891 0.579224 125.005 0.693499 125.005 0.864911V102.198C125.034 102.341 124.891 102.484 124.748 102.484ZM1.0086 101.912H124.433V1.1506H1.0086V101.912Z" fill="#0A9CE5"/>
</svg>
