<svg width="471" height="345" viewBox="0 0 471 345" fill="none" xmlns="http://www.w3.org/2000/svg">
<path d="M90.3071 156.349C92.4599 156.174 95.7664 157.122 97.2481 158.126C97.4709 158.333 99.1757 159.011 100.947 161.943L100.549 162.22C98.6787 160.265 97.4217 159.826 95.924 159.378C93.4549 158.744 90.9675 159.218 90.7628 159.327L90.3071 156.349Z" fill="#355288"/>
<path d="M100.748 162.082C100.748 162.082 87.6287 164.268 88.852 174.505C90.0756 184.742 103.916 192.707 116.269 186.375C132.886 177.858 126.323 156.204 114.495 154.529C102.668 152.855 100.748 162.082 100.748 162.082Z" fill="#F47457"/>
<path d="M106.314 157.573C106.314 157.573 109.737 154.064 117.236 157.257C124.736 160.45 125.278 175.341 118.59 174.476C111.901 173.611 100.966 159.722 106.314 157.573Z" fill="#F48B7E"/>
<path d="M131.647 130.811L81.4356 121.472C80.4272 121.285 79.7619 120.316 79.9497 119.309L86.2395 85.5691C86.4273 84.5619 87.3971 83.8973 88.4057 84.0849L138.617 93.4241C139.626 93.6117 140.291 94.5803 140.103 95.5875L133.813 129.327C133.625 130.335 132.656 130.999 131.647 130.811Z" fill="#F7CC7E"/>
<path d="M107.746 92.2405L92.4617 89.3977C91.4533 89.2101 90.7879 88.2415 90.9755 87.2343L91.9329 82.1003C92.1204 81.0931 93.0902 80.4285 94.0986 80.6162L109.383 83.4589C110.391 83.6465 111.057 84.6151 110.869 85.6224L109.912 90.7563C109.724 91.7635 108.754 92.4281 107.746 92.2405Z" fill="#F7CC7E"/>
<path d="M133.933 129.521C133.673 130.445 132.75 131.017 131.806 130.841L81.2663 121.441C80.3263 121.266 79.6728 120.407 79.7562 119.456L82.401 89.2119C82.4465 88.6906 82.7103 88.2128 83.1273 87.8962C83.5446 87.5798 84.076 87.4537 84.5911 87.5493L140.736 97.9922C141.249 98.0875 141.698 98.3942 141.974 98.837C142.249 99.28 142.325 99.8182 142.183 100.32L133.933 129.521Z" fill="#F9DFB1"/>
<path d="M241.324 24.6573C231.268 26.3102 228.282 39.4936 236.642 45.3901C238.143 46.4493 239.182 48.042 239.624 49.8242L241.147 55.9564C241.566 57.6463 243.215 58.7313 244.935 58.4483L248.745 57.8221C250.465 57.5394 251.678 55.9845 251.533 54.2494C251.005 47.9185 250.351 45.6218 252.411 42.798C258.438 34.5378 251.382 23.0039 241.324 24.6573Z" fill="#F7CC7E"/>
<path d="M242.351 51.4587C241.696 46.0346 240.777 40.3082 240.464 38.6839C234.7 39.0016 236.891 32.9328 239.551 35.4005C240.309 36.1037 240.667 37.0576 240.903 38.1024C242.818 37.9303 244.689 37.3842 246.395 36.5042C246.303 35.1666 246.171 34.1531 246.545 33.297C247.11 32.0041 248.75 31.652 249.417 32.912C249.668 33.385 249.712 33.9902 249.531 34.491C249.145 35.5608 247.98 36.2674 246.967 36.8208C247.27 41.1328 247.69 45.4781 248.219 49.7577L247.675 49.825C247.154 45.6147 246.739 41.3406 246.437 37.0973C244.743 37.9382 242.9 38.465 241.014 38.6424C241.408 40.7189 242.28 46.3008 242.895 51.3932L242.351 51.4587ZM237.727 37.405C238.239 37.9563 239.097 38.1986 240.349 38.1413C240.133 37.2197 239.812 36.3907 239.177 35.802C237.746 34.4737 236.868 36.4797 237.727 37.405ZM247.048 33.5161C246.733 34.2356 246.853 35.1572 246.925 36.2167C247.748 35.7487 248.705 35.1632 249.015 34.3053C249.232 33.704 248.988 32.8539 248.375 32.6973C248.308 32.6802 247.268 33.0113 247.048 33.5161Z" fill="#F9DFB1"/>
<path d="M239.581 49.6727C239.594 49.7237 239.612 49.7728 239.625 49.8243L241.147 55.9568C241.566 57.6467 243.215 58.7315 244.935 58.4487L248.745 57.8223C250.465 57.5395 251.679 55.9846 251.534 54.2498C251.299 51.4333 251.039 49.4165 251.005 47.7954L239.581 49.6727Z" fill="#95D9C8"/>
<path d="M233.87 20.0784L230.863 14.596C230.572 14.0652 230.767 13.3993 231.298 13.1084C231.829 12.8181 232.496 13.0122 232.787 13.5428L235.794 19.0257C236.085 19.5565 235.89 20.2221 235.359 20.513C234.825 20.8052 234.16 20.6063 233.87 20.0784Z" fill="#F9DFB1"/>
<path d="M227.297 33.3406L220.743 32.768C220.139 32.7154 219.693 32.1841 219.745 31.5813C219.798 30.9787 220.33 30.5323 220.934 30.5853L227.488 31.1579C228.092 31.2105 228.538 31.7421 228.486 32.3446C228.433 32.9469 227.902 33.3929 227.297 33.3406Z" fill="#F9DFB1"/>
<path d="M220.798 53.4128C220.372 52.9823 220.376 52.2889 220.807 51.8634C222.418 50.2734 224.19 48.8297 226.074 47.5725C226.577 47.2362 227.258 47.3718 227.595 47.8747C227.931 48.3779 227.796 49.0583 227.292 49.3944C225.524 50.5742 223.861 51.9291 222.349 53.422C221.92 53.8453 221.225 53.8453 220.798 53.4128Z" fill="#F9DFB1"/>
<path d="M250.065 19.7819C249.479 19.6255 249.132 19.0253 249.288 18.4409C250.031 15.6652 250.486 12.803 250.641 9.93424C250.674 9.33011 251.189 8.86578 251.795 8.89915C252.399 8.93174 252.864 9.44784 252.831 10.052C252.669 13.0718 252.19 16.0848 251.408 19.0064C251.251 19.5945 250.646 19.9377 250.065 19.7819Z" fill="#F9DFB1"/>
<path d="M256.815 28.1987C256.641 27.6193 256.969 27.0083 257.549 26.8336L264.363 24.7823C264.944 24.6076 265.555 24.9358 265.73 25.5149C265.904 26.0944 265.576 26.7053 264.996 26.8801L258.182 28.9316C257.603 29.1053 256.991 28.7792 256.815 28.1987Z" fill="#F9DFB1"/>
<path d="M268.009 46.3096C267.911 46.3096 267.811 46.2964 267.712 46.2683C265.351 45.6056 263.055 44.6864 260.888 43.5365C260.354 43.2527 260.15 42.5891 260.435 42.0552C260.719 41.5207 261.383 41.3175 261.918 41.6013C263.946 42.678 266.096 43.5386 268.306 44.1592C268.889 44.323 269.229 44.9279 269.065 45.5102C268.929 45.9934 268.488 46.3096 268.009 46.3096Z" fill="#F9DFB1"/>
<path d="M203.631 34.9556L149.672 54.1816C147.933 54.8012 146.02 53.8952 145.4 52.1579L135.44 24.2705C134.82 22.5333 135.727 20.6226 137.466 20.003L191.424 0.77706C193.164 0.157427 195.077 1.06322 195.697 2.80072L205.657 30.6879C206.277 32.4253 205.37 34.336 203.631 34.9556Z" fill="#85B0F1"/>
<path d="M167.866 27.7875C169.851 33.3434 166.95 39.4538 161.387 41.436C155.825 43.4178 149.707 40.5204 147.723 34.9645C145.739 29.4086 148.639 23.2982 154.202 21.3163C159.764 19.3342 165.882 22.2316 167.866 27.7875Z" fill="white"/>
<path d="M159.327 26.2927C159.912 27.9311 159.056 29.7332 157.416 30.3177C155.776 30.9023 153.972 30.0478 153.387 28.4094C152.802 26.7709 153.657 24.9691 155.297 24.3846C156.938 23.8002 158.742 24.6545 159.327 26.2927Z" fill="#85B0F1"/>
<path d="M164.465 35.0757L154.974 38.4574L154.594 37.3934C153.9 35.4523 154.914 33.3172 156.857 32.6248L159.311 31.7508C161.254 31.0581 163.391 32.0706 164.085 34.0117L164.465 35.0757Z" fill="#85B0F1"/>
<path d="M169.196 21.9573C168.621 21.9573 168.105 21.5939 167.911 21.0528C167.659 20.3452 168.029 19.5645 168.738 19.3122L192.326 10.9077C192.474 10.8549 192.627 10.8281 192.784 10.8281C193.359 10.8281 193.875 11.1918 194.068 11.7329C194.32 12.4403 193.95 13.2213 193.242 13.4735L169.654 21.878C169.506 21.9308 169.352 21.9573 169.196 21.9573Z" fill="white"/>
<path d="M175.563 27.8307C174.988 27.8307 174.472 27.4673 174.279 26.926C174.026 26.2186 174.397 25.4378 175.105 25.1856L193.527 18.6216C193.675 18.5688 193.829 18.542 193.985 18.542C194.56 18.542 195.077 18.9057 195.27 19.4467C195.393 19.7894 195.374 20.1591 195.218 20.4879C195.062 20.8166 194.787 21.0649 194.444 21.1874L176.021 27.7513C175.874 27.8039 175.719 27.8307 175.563 27.8307Z" fill="white"/>
<path d="M289.07 4.28027C291.101 5.89873 294.632 11.1073 299.138 14.7638C301.774 16.9023 303.804 16.3584 307.169 16.7646C323.134 18.6921 318.808 21.9516 320.722 22.2717C320.179 23.5217 315.205 34.0818 314.276 36.216C313.418 38.185 311.936 39.0664 309.789 38.7697C306.487 38.3138 303.156 37.9748 299.906 37.2708C291.574 35.4661 286.938 31.3034 280.967 26.2483C279.383 24.9071 278.992 23.2342 279.813 21.3388C283.636 12.5171 288.655 5.09226 289.07 4.28027Z" fill="#466DB6"/>
<path d="M322.452 34.9755C322.38 38.4508 322.646 39.1479 321.153 38.6211C320.253 38.3036 319.381 37.8903 318.532 37.4522C317.933 37.1432 317.91 36.7359 318.397 36.2474C319.105 35.5366 319.833 34.8442 320.542 34.1541C320.023 32.7913 320.617 31.2052 321.894 30.4592C322.154 30.3067 321.964 30.63 324.187 25.5192C316.835 24.6129 311.648 24.0051 302.678 22.9035C300.28 22.6089 298.147 21.6779 296.292 20.1278C289.886 14.7736 283.479 9.41899 277.077 4.05909C276.209 3.33225 276.099 2.26668 276.789 1.44681C277.316 0.819556 278.015 0.789599 278.766 0.883675C280.813 1.14015 300.885 3.63076 302.922 3.86858C305.6 4.18102 307.957 5.18852 310.028 6.92023C316.322 12.1847 322.632 17.4301 328.934 22.6851C329.798 23.4059 330.032 24.0679 329.729 24.8696C329.395 25.751 328.666 26.1709 327.565 25.9336C326.77 25.762 326.418 26.0019 326.145 26.7369C324.908 30.0611 324.046 30.7968 324.344 32.0103C324.574 32.9469 323.459 34.5688 322.452 34.9755Z" fill="#85B0F1"/>
<path d="M404.814 150.965L381.136 129.861C379.598 128.49 380.239 125.668 382.361 124.468L401.258 113.78C402.468 113.096 403.831 113.159 404.708 113.941L428.386 135.045C429.924 136.417 429.284 139.238 427.161 140.439L408.264 151.126C407.054 151.811 405.691 151.747 404.814 150.965Z" fill="#9BC1F8"/>
<path d="M403.693 134.177L401.719 117.963C401.643 117.342 402.096 116.678 402.73 116.481C403.364 116.283 403.939 116.627 404.015 117.248L405.832 132.168L423.786 136.505C424.371 136.646 424.642 137.276 424.389 137.913C424.135 138.549 423.455 138.951 422.868 138.809L403.693 134.177Z" fill="white"/>
<path d="M390.937 235.199L381.061 210.449C380.564 209.205 381.171 207.793 382.418 207.297L417.957 193.148C419.203 192.651 420.616 193.258 421.113 194.503L430.989 219.253C431.486 220.498 430.878 221.91 429.632 222.406L394.094 236.555C392.847 237.051 391.434 236.444 390.937 235.199Z" fill="#F9DFB1"/>
<path d="M424.462 220.888L415.587 198.648C415.444 198.291 415.619 197.886 415.976 197.743C416.334 197.601 416.739 197.775 416.882 198.133L425.757 220.372C425.899 220.73 425.725 221.135 425.367 221.277C425.01 221.419 424.604 221.245 424.462 220.888Z" fill="#466DB6"/>
<path d="M420.233 217.958L412.947 199.699C412.804 199.341 412.978 198.937 413.336 198.794C413.694 198.652 414.099 198.826 414.242 199.183L421.528 217.443C421.671 217.8 421.496 218.205 421.139 218.347C420.781 218.49 420.376 218.316 420.233 217.958Z" fill="#466DB6"/>
<path d="M419.181 222.99L410.306 200.75C410.164 200.393 410.338 199.988 410.696 199.846C411.054 199.703 411.459 199.877 411.602 200.234L420.476 222.474C420.619 222.832 420.445 223.237 420.087 223.379C419.729 223.521 419.324 223.347 419.181 222.99Z" fill="#466DB6"/>
<path d="M414.517 218.966L407.667 201.801C407.524 201.443 407.699 201.039 408.056 200.896C408.414 200.754 408.82 200.928 408.962 201.285L415.812 218.451C415.954 218.808 415.78 219.213 415.422 219.355C415.065 219.497 414.659 219.323 414.517 218.966Z" fill="#466DB6"/>
<path d="M424.223 196.276L424.044 195.829C423.978 195.664 423.799 195.58 423.644 195.642L420.271 196.985C420.116 197.047 420.043 197.23 420.109 197.395L420.288 197.843C420.354 198.008 420.533 198.091 420.688 198.03L424.061 196.687C424.216 196.625 424.289 196.441 424.223 196.276Z" fill="#355288"/>
<path d="M424.988 198.192L424.809 197.744C424.743 197.579 424.564 197.496 424.409 197.557L421.036 198.9C420.88 198.962 420.807 199.146 420.873 199.311L421.052 199.759C421.118 199.923 421.297 200.007 421.452 199.945L424.825 198.602C424.981 198.54 425.053 198.357 424.988 198.192Z" fill="#355288"/>
<path d="M425.751 200.107L425.573 199.66C425.507 199.495 425.328 199.411 425.173 199.473L421.799 200.816C421.644 200.878 421.572 201.061 421.638 201.226L421.816 201.674C421.882 201.839 422.061 201.922 422.216 201.861L425.589 200.518C425.745 200.456 425.817 200.272 425.751 200.107Z" fill="#355288"/>
<path d="M426.516 202.023L426.337 201.575C426.271 201.41 426.093 201.327 425.937 201.389L422.564 202.731C422.409 202.793 422.336 202.977 422.402 203.142L422.581 203.59C422.647 203.755 422.826 203.838 422.981 203.776L426.354 202.434C426.51 202.372 426.582 202.188 426.516 202.023Z" fill="#355288"/>
<path d="M427.281 203.939L427.102 203.491C427.036 203.326 426.857 203.243 426.702 203.305L423.329 204.647C423.173 204.709 423.101 204.893 423.166 205.058L423.345 205.506C423.411 205.67 423.591 205.754 423.746 205.692L427.119 204.349C427.274 204.287 427.346 204.104 427.281 203.939Z" fill="#355288"/>
<path d="M428.045 205.854L427.866 205.406C427.8 205.241 427.621 205.158 427.466 205.22L424.093 206.562C423.937 206.624 423.865 206.808 423.931 206.973L424.11 207.421C424.175 207.586 424.355 207.669 424.51 207.607L427.883 206.264C428.038 206.203 428.11 206.019 428.045 205.854Z" fill="#355288"/>
<path d="M428.809 207.769L428.63 207.322C428.564 207.157 428.386 207.073 428.23 207.135L424.857 208.478C424.702 208.54 424.629 208.723 424.695 208.888L424.874 209.336C424.94 209.501 425.119 209.584 425.274 209.523L428.647 208.18C428.802 208.118 428.875 207.934 428.809 207.769Z" fill="#355288"/>
<path d="M429.573 209.685L429.394 209.237C429.329 209.072 429.15 208.989 428.995 209.051L425.621 210.393C425.466 210.455 425.394 210.639 425.459 210.804L425.638 211.252C425.704 211.417 425.883 211.5 426.039 211.438L429.411 210.095C429.566 210.033 429.639 209.85 429.573 209.685Z" fill="#355288"/>
<path d="M430.338 211.6L430.159 211.153C430.093 210.988 429.914 210.904 429.759 210.966L426.386 212.309C426.231 212.371 426.158 212.554 426.224 212.719L426.403 213.167C426.469 213.332 426.648 213.416 426.803 213.354L430.176 212.011C430.331 211.949 430.404 211.765 430.338 211.6Z" fill="#355288"/>
<path d="M431.103 213.516L430.924 213.068C430.858 212.903 430.679 212.82 430.524 212.882L427.151 214.224C426.995 214.286 426.923 214.47 426.989 214.635L427.167 215.083C427.233 215.248 427.412 215.331 427.567 215.269L430.94 213.926C431.096 213.865 431.168 213.681 431.103 213.516Z" fill="#355288"/>
<path d="M431.867 215.432L431.688 214.984C431.622 214.819 431.443 214.736 431.288 214.798L427.915 216.14C427.76 216.202 427.687 216.386 427.753 216.551L427.932 216.999C427.998 217.164 428.177 217.247 428.332 217.185L431.705 215.842C431.86 215.78 431.933 215.597 431.867 215.432Z" fill="#355288"/>
<path d="M432.631 217.347L432.452 216.899C432.386 216.735 432.207 216.651 432.052 216.713L428.679 218.056C428.524 218.117 428.451 218.301 428.517 218.466L428.696 218.914C428.761 219.079 428.941 219.162 429.096 219.1L432.469 217.758C432.624 217.696 432.697 217.512 432.631 217.347Z" fill="#355288"/>
<path d="M441.949 215.376L427.844 235.437C427.813 235.482 427.788 235.532 427.771 235.584L426.334 239.992C426.166 240.505 426.76 240.928 427.191 240.603L430.967 237.761C431.013 237.726 431.053 237.684 431.086 237.637L445.227 217.524C445.408 217.267 445.338 216.912 445.073 216.742L442.699 215.228C442.45 215.069 442.119 215.134 441.949 215.376Z" fill="#B75642"/>
<path d="M431.071 237.659L431.037 237.708L427.394 240.45L426.4 239.787L427.763 235.608C428.831 236.191 430.109 236.79 431.071 237.659Z" fill="#F7CC7E"/>
<path d="M372.557 281.988L376.215 285.472C384.867 293.714 391.922 303.479 397.028 314.278L397.588 315.464C397.588 315.464 407.166 316.309 408.504 307.659C400.1 298.181 393.182 288.064 387.473 276.809L385.742 272.764L372.557 281.988Z" fill="#466DB6"/>
<path d="M385.734 272.752C386.204 273.426 383.635 276.027 379.995 278.562C376.356 281.097 373.008 282.637 372.538 281.964C372.068 281.291 374.654 278.659 378.293 276.123C381.932 273.588 385.264 272.079 385.734 272.752Z" fill="#85B0F1"/>
<path d="M385.749 272.777L385.738 272.764C385.738 272.764 378.446 278.928 375.44 279.557L376.369 280.819C377.466 280.226 378.713 279.456 379.996 278.562C383.593 276.056 386.145 273.486 385.749 272.777Z" fill="#355288"/>
<path d="M395.49 290.674C395.503 291.737 395.096 296.323 387.456 298.238C387.959 298.921 388.453 299.611 388.938 300.308C393.774 298.88 395.948 296.399 396.926 294.512C397.08 294.213 397.267 293.812 397.391 293.503C396.746 292.567 396.112 291.625 395.49 290.674Z" fill="#B75642"/>
<path d="M388.142 296.881L376.898 296.48L379.563 298.739L377.971 301.625L388.612 298.915L388.142 296.881Z" fill="#B75642"/>
<path d="M389.167 299.493L385.171 306.444L387.981 305.376L389.063 307.583L390.94 300.273L389.167 299.493Z" fill="#B75642"/>
<path d="M390.692 301.378C388.718 301.517 387 299.983 386.856 297.952C386.712 295.92 388.196 294.159 390.171 294.02C392.145 293.88 393.863 295.414 394.007 297.446C394.151 299.478 392.667 301.239 390.692 301.378Z" fill="#F47457"/>
<path d="M179.296 65.8801L175.608 67.0105L173.132 61.2849L167.536 62.2732L164.981 58.291L162.963 59.5826L166.38 64.9091L171.683 63.972L174.259 69.9284L179.808 68.2275L179.296 65.8801Z" fill="#50BEA4"/>
<path d="M415.785 271.822L412.097 272.953L409.62 267.227L404.024 268.216L401.47 264.233L399.452 265.525L402.868 270.851L408.171 269.914L410.747 275.871L416.296 274.17L415.785 271.822Z" fill="#50BEA4"/>
<path d="M156.574 339.612C156.574 339.612 136.896 272.991 135.317 258.296C133.738 243.601 144.742 248.154 144.742 248.154C144.742 248.154 135.485 220.152 142.179 213.506C148.873 206.86 154.91 219.248 154.91 219.248C154.91 219.248 156.937 185.256 164.073 185.243C177.366 185.22 177.104 222.315 177.104 222.315C177.104 222.315 180.497 207.792 187.614 211.774C198.348 217.778 182.955 246.883 182.955 246.883C182.955 246.883 196.633 246.893 201.437 253.781C210.057 266.141 156.574 339.612 156.574 339.612Z" fill="#50BEA4"/>
<path d="M163.007 330.795C163.007 330.795 106.279 321.319 93.9393 311.279C81.5997 301.239 93.8128 296.712 93.8128 296.712C93.8128 296.712 65.3151 282.12 65.645 272.198C65.9749 262.276 80.1324 267.32 80.1324 267.32C80.1324 267.32 56.1201 239.971 61.8048 234.777C72.3933 225.102 100.153 253.532 100.153 253.532C100.153 253.532 91.9104 240.012 100.591 237.873C113.683 234.646 123.344 267.984 123.344 267.984C123.344 267.984 120.89 254.818 129.917 256.572C146.113 259.719 163.007 330.795 163.007 330.795Z" fill="#50BEA4"/>
<path d="M129.917 256.572C120.868 254.938 123.345 267.984 123.345 267.984C123.345 267.984 113.683 234.646 100.591 237.872C91.9106 240.012 100.153 253.532 100.153 253.532C100.153 253.532 72.3937 225.102 61.8052 234.777L162.816 330.811C161.018 321.638 145.088 259.312 129.917 256.572Z" fill="#3B8F7B"/>
<path d="M179.147 338.61C179.147 338.61 149.272 308.264 134.227 305.103C119.182 301.943 121.888 312.635 121.888 312.635C121.888 312.635 92.0388 286.562 85.1216 292.879C78.2044 299.197 85.6867 305.295 85.6867 305.295C85.6867 305.295 60.8235 300.895 57.2642 309.045C51.795 321.568 92.686 328.383 92.686 328.383C92.686 328.383 75.5506 329.569 79.5245 337.422C85.5173 349.263 179.147 338.61 179.147 338.61Z" fill="#355288"/>
<path d="M57.2646 309.045C60.8239 300.895 85.6868 305.295 85.6868 305.295C85.6868 305.295 78.2048 299.197 85.122 292.879C92.0393 286.562 120.961 309.089 120.961 309.089C120.961 309.089 114.141 296.07 129.186 299.23C144.23 302.391 179.147 338.611 179.147 338.611L57.2646 309.045Z" fill="#466DB6"/>
<path d="M353.205 95.7116L349.767 87.5918L341.121 85.8172C340.136 85.6152 339.811 84.3727 340.571 83.715L347.24 77.9397L346.258 69.1778C346.146 68.1801 347.228 67.4874 348.09 68.0056L355.649 72.5564L363.688 68.9158C364.604 68.5014 365.598 69.3155 365.371 70.2936L363.373 78.8812L369.324 85.3931C370.002 86.1347 369.534 87.3306 368.532 87.417L359.738 88.1736L355.377 95.8386C354.88 96.7118 353.597 96.6366 353.205 95.7116Z" fill="#F7CC7E"/>
<path d="M407.933 67.8496L406.52 73.5346L397.112 72.2735L394.019 80.3308L386.824 80.5371L386.928 84.175L396.551 83.8996L399.482 76.264L409.27 77.5756L411.397 69.0213L407.933 67.8496Z" fill="#F48B7E"/>
<path d="M324.109 340.358H158.722C152.405 340.358 147.284 335.052 147.284 328.508V321.462C147.284 314.917 152.405 309.612 158.722 309.612H324.109C316.543 318.179 316.413 331.271 323.805 339.999L324.109 340.358Z" fill="#B75642"/>
<path d="M321.555 313.135H229.823C223.506 313.135 218.385 318.44 218.385 324.985C218.385 331.529 223.506 336.834 229.823 336.834H321.563C317.276 329.565 317.285 320.385 321.555 313.135Z" fill="#F9DFB1"/>
<path d="M266.006 288.259C266.246 287.809 265.881 287.288 265.325 287.288H177.812C170.953 287.288 165.393 292.286 165.393 298.452C165.393 304.618 170.953 309.616 177.812 309.616H265.349C265.908 309.616 266.274 309.091 266.031 308.639C262.566 302.186 262.575 294.684 266.006 288.259Z" fill="#85B0F1"/>
<path d="M265.453 289.365H222.082C214.032 289.365 207.506 293.554 207.506 298.721C207.506 303.888 214.032 308.077 222.082 308.077H265.739C262.754 302.123 262.673 295.344 265.453 289.365Z" fill="#F7CC7E"/>
<path d="M254.253 293.8H248.604C247.389 293.8 246.405 294.207 246.405 294.71V294.791H254.253V293.8Z" fill="#B75642"/>
<path d="M259.071 296.082C259.071 294.821 257.596 293.8 255.776 293.8H248.527C249.907 293.8 251.027 294.575 251.027 295.53L250.992 319.991L254.998 316.846L259.08 319.991L259.071 296.082Z" fill="#F47457"/>
<path d="M249.916 286.482H198.997C194.482 286.482 190.821 282.142 190.821 276.789C190.821 271.436 194.482 267.097 198.997 267.097H249.916C246.024 272.47 245.872 280.353 249.553 285.931L249.916 286.482Z" fill="#F9DFB1"/>
<path d="M190.826 276.789C190.826 271.437 194.573 267.097 199.195 267.097H250.887C251.128 267.097 251.323 266.869 251.32 266.59C251.318 266.315 251.125 266.093 250.887 266.093H168.885C163.784 266.093 159.649 270.882 159.649 276.789C159.649 282.697 163.784 287.486 168.885 287.486H250.887C251.125 287.486 251.318 287.264 251.32 286.989C251.322 286.71 251.128 286.482 250.887 286.482H199.195C194.573 286.482 190.826 282.143 190.826 276.789Z" fill="#466DB6"/>
<path d="M241.025 271.86H235.377C234.162 271.86 233.177 272.26 233.177 272.753V272.833H241.025V271.86Z" fill="#174654"/>
<path d="M245.843 274.098C245.843 272.862 244.368 271.86 242.548 271.86H235.299C236.68 271.86 237.799 272.62 237.799 273.557L237.764 297.545L241.77 294.461L245.852 297.545L245.843 274.098Z" fill="#3B8F7B"/>
<path d="M331.046 123.685L338.563 121.709L333.468 189.584L324.449 189.885L328.998 126.151C329.082 124.976 329.906 123.985 331.046 123.685Z" fill="#174654"/>
<path d="M334.142 191.52C333.974 191.535 333.802 191.533 333.627 191.513C332.134 191.336 331.029 189.853 331.159 188.199L336.162 124.377C336.292 122.723 337.606 121.525 339.1 121.702C340.593 121.878 341.699 123.361 341.569 125.015L336.565 188.838C336.451 190.298 335.411 191.403 334.142 191.52Z" fill="#F7CC7E"/>
<path d="M264.959 194.919C264.962 194.966 264.964 195.013 264.968 195.06C265.204 197.656 267.218 199.599 269.467 199.397L332.95 193.722C335.199 193.521 336.831 191.253 336.596 188.657C336.586 188.547 336.572 188.439 336.556 188.332L264.959 194.919Z" fill="#F7CC7E"/>
<path d="M240.653 103.058C240.887 99.9804 241.057 97.7227 241.057 97.7227L228.836 99.5808C228.836 99.5808 228.527 101.358 228.187 103.871C233.141 106.742 237.597 105.836 240.653 103.058Z" fill="#F47457"/>
<path d="M364.236 26.7999L355.637 29.1447L353.786 18.7371L356.6 18.2378L357.904 25.568L363.483 24.0463L364.236 26.7999Z" fill="#50BEA4"/>
<path d="M280.406 245.306H150.117C146.071 245.306 142.791 248.582 142.791 252.624V258.778C142.791 262.819 146.071 266.096 150.117 266.096H280.406L280.337 266.025C274.764 260.23 274.794 251.064 280.406 245.306Z" fill="#F47457"/>
<path d="M278.099 248.383H208.449C204.403 248.383 201.123 251.659 201.123 255.701C201.123 259.742 204.403 263.018 208.449 263.018H278.098C275.537 258.487 275.541 252.911 278.099 248.383Z" fill="#F9DFB1"/>
<path d="M2.9909 340.164C1.72364 340.164 0.696289 341.351 0.696289 342.816C0.696289 344.281 1.72364 345.468 3.26504 343.688H469.611C470.207 343.688 470.692 342.906 470.696 341.937C470.7 340.96 470.213 340.164 469.611 340.164H2.9909Z" fill="#174654"/>
<path d="M93.5253 46.2827L95.9728 51.1186L101.502 50.9399L103.861 56.5547L109.692 54.5503L112.641 60.7826L118.237 59.598L122.056 65.131L119.959 66.5745L117.104 62.4376L111.198 63.6871L108.364 57.6968L102.436 59.7346L99.8324 53.5388L94.4327 53.713L92.1641 49.2311L88.6422 50.0864L88.0405 47.6147L93.5253 46.2827Z" fill="#F7CC7E"/>
<path d="M389.639 169.993L394.665 172.033L398.716 168.269L404.188 170.955L407.266 165.618L413.587 168.382L417.028 163.816L423.546 165.483L422.915 167.946L418.042 166.701L414.411 171.518L408.334 168.861L405.205 174.288L399.167 171.325L395.21 175L390.552 173.108L388.459 176.064L386.38 174.596L389.639 169.993Z" fill="#50BEA4"/>
<path d="M252.258 96.9473C251.446 89.5301 250.59 82.0858 244.435 76.6492C239.453 72.2497 233.119 71.5045 226.856 73.8582C209.111 80.5275 218.255 96.2688 195.628 112.14C188.597 117.071 180.848 120.447 175.555 127.087C168.146 136.382 170.942 147.563 177.695 155.028C210.006 190.745 246.078 142.508 248.667 130.929C250.594 122.315 252.781 101.722 252.258 96.9473Z" fill="#13375B"/>
<path d="M309.165 263.473C305.008 265.776 292.302 261.739 292.302 261.374C292.119 264.843 278.073 298.793 278.073 298.793L278.085 309.238C278.085 309.238 307.027 310.616 306.61 308.062C306.194 305.507 304.638 307.169 298.864 302.344C298.351 301.916 290.245 300.037 292.439 295.244C296.857 285.591 306.24 269.499 309.165 263.473Z" fill="#F7A391"/>
<path d="M277.133 309.611L308.814 309.62C309.957 309.504 310.225 308.575 309.821 308.01C308.989 306.847 302.918 304.104 298.836 302.285C291.727 303.114 279.23 300.384 278.087 298.765C275.078 302.791 276.495 309.48 277.133 309.611Z" fill="#3B8F7B"/>
<path d="M270.183 239.098C269.755 237.814 297.46 226.071 298.7 227.413C300.893 229.786 283.71 274.338 283.71 274.338L303.452 280.363C303.452 280.363 323.977 228.892 323.12 219.478C322.263 210.064 311.981 199.366 289.704 206.212C267.426 213.059 270.183 239.098 270.183 239.098Z" fill="#355288"/>
<path d="M246.224 133.401C243.584 128.541 240.865 124.685 240.865 124.685C238.128 119.824 231.055 117.365 231.055 117.365C231.055 117.365 228.689 117.413 225.972 117.546C225.805 117.996 225.633 118.318 225.461 118.447C224.439 119.212 218.589 118.225 214.81 120.787C202.143 131.633 197.073 225.16 232.8 232.647L241.536 200.906C241.536 200.906 240.355 165.443 248.193 156.265C253.651 149.873 250.139 140.61 246.224 133.401Z" fill="#50BEA4"/>
<path d="M327.546 269.329C322.87 268.479 316.808 268.237 311.955 268.153C312.527 272.469 315.304 294.598 314.796 295.957C312.74 301.466 308.178 304.044 308.178 304.044C308.178 304.044 329.69 323.432 330.989 321.192C332.288 318.953 330.03 319.253 328.625 311.866C328.501 311.21 325.391 300.899 325.197 295.338C324.83 284.731 327.386 275.219 327.546 269.329Z" fill="#F7A391"/>
<path d="M320.644 196.933C317.643 195.334 309.852 195.278 301.285 195.833C284.582 196.914 268.097 200.197 252.208 205.454L241.576 208.972L241.611 198.084C241.611 198.084 207.788 192.431 206.611 200.804C204.839 213.413 207.038 239.011 218.308 244.724C253.311 262.471 302.362 216.451 302.54 222.473C302.778 230.558 309.603 260.648 311.347 273.823C316.2 273.907 324.538 273.903 328.154 273.074C328.857 247.266 329.187 201.486 320.644 196.933Z" fill="#466DB6"/>
<path d="M307.522 304.498L331.705 323.793C332.663 324.427 333.459 323.878 333.505 323.185C333.6 321.759 330.644 315.794 328.641 311.803C322.616 307.945 314.67 297.881 314.812 295.905C312.263 298.055 307.112 303.992 307.522 304.498Z" fill="#3B8F7B"/>
<path d="M228.835 99.5808C228.835 99.5808 226.715 114.707 225.234 118.383C223.753 122.059 233.377 129.92 241.385 132.306C249.393 134.692 238.937 124.187 239.269 120.257C239.601 116.328 241.057 97.7227 241.057 97.7227L228.835 99.5808Z" fill="#F7A391"/>
<path d="M293.72 188.855C291.405 188.019 287.96 187.916 288.018 187.61C288.25 186.374 298.475 190.337 297.093 188.534C296.325 187.531 288.672 183.975 286.812 184.563C285.007 185.132 273.156 188.454 273.156 188.454L240.769 180.872C240.769 180.872 232.594 162.316 231.796 146.375C225.038 147.288 220.437 148.955 214.564 152.212C217.396 167.457 224.281 192.169 231.89 196.806C235.092 198.757 273.316 194.471 273.316 194.471C273.316 194.471 281.74 193.877 283.117 193.348C284.161 192.947 286.849 191.435 288.311 191.021C291.634 190.081 297.555 192.441 297.574 191.792C297.587 191.318 296.085 189.709 293.72 188.855Z" fill="#F7A391"/>
<path d="M231.994 129.342C231.683 124.436 229.823 119.7 224.597 118.175C221.359 117.23 217.725 118.134 215.137 120.245C212.058 122.757 211.199 126.787 211.213 130.6C211.245 139.26 211.836 148.238 213.42 156.763C219.293 153.507 226.149 151.551 232.907 150.638C232.904 150.587 232.406 135.825 231.994 129.342Z" fill="#95D9C8"/>
<path d="M232.142 77.2073C232.142 77.2073 227.324 78.2916 224.35 82.8255C221.375 87.3598 219.335 100.707 229.132 106.938C238.928 113.168 246.547 104.355 246.673 95.759C246.8 87.163 244.956 75.6914 232.142 77.2073Z" fill="#F7A391"/>
<path d="M248.916 93.0691C248.08 95.1434 246.422 96.4305 245.212 95.9441C244.002 95.458 243.699 93.382 244.535 91.3079C245.371 89.2338 247.029 87.9464 248.239 88.4328C249.448 88.9192 249.752 90.9947 248.916 93.0691Z" fill="#F7A391"/>
<path d="M224.194 94.7738C224.904 97.0082 224.254 99.2088 222.742 99.6883C221.23 100.168 219.428 98.7452 218.718 96.5108C218.008 94.2761 218.658 92.0759 220.17 91.5963C221.682 91.117 223.484 92.5394 224.194 94.7738Z" fill="#F7A391"/>
<path d="M233.587 76.9258C233.587 76.9258 227.446 90.6854 222.05 91.9144C216.655 93.1432 216.732 100.067 216.732 100.067C216.732 100.067 216.853 84.0784 221.91 80.411C226.966 76.744 233.587 76.9258 233.587 76.9258Z" fill="#13375B"/>
</svg>
