<svg width="471" height="474" viewBox="0 0 471 474" fill="none" xmlns="http://www.w3.org/2000/svg">
<path d="M282.898 7.43573H158.901V108.769H282.898V7.43573Z" fill="#C8F5FC"/>
<path d="M282.898 12.1781H158.901V87.1139H282.898V12.1781Z" fill="#A2E9FC"/>
<path fill-rule="evenodd" clip-rule="evenodd" d="M220.513 41.0325C217.024 36.2329 206.841 37.3471 208.958 47.2033C210.559 52.5742 214.221 55.5454 220.485 60.0307V60.0592H220.513H220.542V60.0307C226.806 55.5454 230.468 52.5742 232.069 47.2033C234.186 37.3471 224.003 36.2329 220.513 41.0325Z" fill="#81DCFC"/>
<path fill-rule="evenodd" clip-rule="evenodd" d="M276.748 102.484H152.723C152.551 102.484 152.437 102.37 152.437 102.198V0.864911C152.437 0.693499 152.551 0.579224 152.723 0.579224H276.719C276.891 0.579224 277.005 0.693499 277.005 0.864911V102.198C277.034 102.341 276.891 102.484 276.748 102.484ZM153.009 101.912H276.433V1.1506H153.009V101.912Z" fill="#0A9CE5"/>
<path d="M182.384 73.5151H8.15918V215.902H182.384V73.5151Z" fill="#C8F5FC"/>
<path d="M182.384 80.1716H8.15918V185.476H182.384V80.1716Z" fill="#A2E9FC"/>
<path fill-rule="evenodd" clip-rule="evenodd" d="M26.4089 192.847C24.2922 189.961 18.171 190.618 19.4296 196.589C20.4021 199.846 22.6046 201.617 26.3803 204.331C30.1559 201.617 32.387 199.846 33.3309 196.589C34.6467 190.647 28.4969 189.961 26.4089 192.847Z" fill="#81DCFC"/>
<path fill-rule="evenodd" clip-rule="evenodd" d="M52.0368 204.074C51.6649 203.131 51.2645 202.16 50.8926 201.217C51.6077 200.189 52.0082 198.96 52.0082 197.618C52.0082 194.104 49.1478 191.247 45.6296 191.247C42.1113 191.247 39.251 194.104 39.251 197.618C39.251 201.132 42.1113 203.989 45.6296 203.989C46.8595 203.989 48.0323 203.646 49.0048 203.017C50.0345 203.389 51.0357 203.731 52.0368 204.074Z" fill="#81DCFC"/>
<path fill-rule="evenodd" clip-rule="evenodd" d="M72.3461 191.218L57.415 191.19L63.4504 196.161L64.852 204.103L72.3461 191.218Z" fill="#81DCFC"/>
<path fill-rule="evenodd" clip-rule="evenodd" d="M175.061 209.074H0.836817C0.665196 209.074 0.550781 208.959 0.550781 208.788V66.4015C0.550781 66.2301 0.665196 66.1158 0.836817 66.1158H175.061C175.233 66.1158 175.347 66.2301 175.347 66.4015V208.788C175.347 208.931 175.204 209.074 175.061 209.074ZM1.12285 208.502H174.775V66.6872H1.12285V208.502Z" fill="#0A9CE5"/>
<g clip-path="url(#clip0)">
<path d="M93.7706 156.332C107.475 156.332 118.585 145.235 118.585 131.547C118.585 117.859 107.475 106.763 93.7706 106.763C80.0659 106.763 68.9561 117.859 68.9561 131.547C68.9561 145.235 80.0659 156.332 93.7706 156.332Z" stroke="#0A9CE5"/>
<path d="M72.7739 127.734H65.1387V135.36H72.7739V127.734Z" fill="#0A9CE5"/>
<path d="M122.403 127.734H114.768V135.36H122.403V127.734Z" fill="#0A9CE5"/>
<path d="M85.7757 138.507C89.8058 138.507 92.3051 135.89 92.3051 131.541C92.3051 127.198 89.8058 124.589 85.7692 124.589H80.8867V138.507H85.7757ZM84.0836 135.639V127.456H85.6077C87.8811 127.456 89.1017 128.544 89.1017 131.541C89.1017 134.551 87.8811 135.639 85.653 135.639H84.0836Z" fill="#0A9CE5"/>
<path d="M106.655 131.548C106.655 126.947 103.891 124.398 100.339 124.398C96.774 124.398 94.0293 126.947 94.0293 131.548C94.0293 136.128 96.774 138.697 100.339 138.697C103.891 138.697 106.655 136.148 106.655 131.548ZM103.387 131.548C103.387 134.273 102.251 135.747 100.339 135.747C98.4338 135.747 97.2906 134.273 97.2906 131.548C97.2906 128.822 98.4338 127.348 100.339 127.348C102.251 127.348 103.387 128.822 103.387 131.548Z" fill="#0A9CE5"/>
</g>
<path d="M379.235 55.5168C381.004 55.5168 382.438 54.0843 382.438 52.3171C382.438 50.55 381.004 49.1174 379.235 49.1174C377.466 49.1174 376.031 50.55 376.031 52.3171C376.031 54.0843 377.466 55.5168 379.235 55.5168Z" fill="#A2E9FC"/>
<path d="M91.8539 339.376C93.1809 339.376 94.2566 338.301 94.2566 336.976C94.2566 335.65 93.1809 334.576 91.8539 334.576C90.5269 334.576 89.4512 335.65 89.4512 336.976C89.4512 338.301 90.5269 339.376 91.8539 339.376Z" fill="#A2E9FC"/>
<path d="M68.4847 358.888C72.3709 358.888 75.5212 355.742 75.5212 351.86C75.5212 347.979 72.3709 344.832 68.4847 344.832C64.5986 344.832 61.4482 347.979 61.4482 351.86C61.4482 355.742 64.5986 358.888 68.4847 358.888Z" fill="#A2E9FC"/>
<path d="M19.5437 57.4024C22.798 57.4024 25.4361 54.7675 25.4361 51.5172C25.4361 48.267 22.798 45.6321 19.5437 45.6321C16.2895 45.6321 13.6514 48.267 13.6514 51.5172C13.6514 54.7675 16.2895 57.4024 19.5437 57.4024Z" fill="#A2E9FC"/>
<path d="M9.647 31.2334C11.0372 31.2334 12.1641 30.1078 12.1641 28.7194C12.1641 27.3309 11.0372 26.2053 9.647 26.2053C8.25684 26.2053 7.12988 27.3309 7.12988 28.7194C7.12988 30.1078 8.25684 31.2334 9.647 31.2334Z" fill="#A2E9FC"/>
<path d="M375.173 419.511C380.228 419.511 384.326 415.418 384.326 410.369C384.326 405.32 380.228 401.227 375.173 401.227C370.118 401.227 366.02 405.32 366.02 410.369C366.02 415.418 370.118 419.511 375.173 419.511Z" fill="#A2E9FC"/>
<path d="M398.313 431.595C400.209 431.595 401.746 430.061 401.746 428.167C401.746 426.274 400.209 424.739 398.313 424.739C396.418 424.739 394.881 426.274 394.881 428.167C394.881 430.061 396.418 431.595 398.313 431.595Z" fill="#A2E9FC"/>
<path d="M422.855 418.511C425.067 418.511 426.86 416.72 426.86 414.511C426.86 412.302 425.067 410.512 422.855 410.512C420.643 410.512 418.851 412.302 418.851 414.511C418.851 416.72 420.643 418.511 422.855 418.511Z" fill="#A2E9FC"/>
<path d="M363.274 63.3732C367.176 63.3732 370.339 60.2139 370.339 56.3167C370.339 52.4195 367.176 49.2603 363.274 49.2603C359.372 49.2603 356.209 52.4195 356.209 56.3167C356.209 60.2139 359.372 63.3732 363.274 63.3732Z" fill="#A2E9FC"/>
<path d="M109.073 268.011C111.284 268.011 113.077 266.22 113.077 264.011C113.077 261.802 111.284 260.012 109.073 260.012C106.861 260.012 105.068 261.802 105.068 264.011C105.068 266.22 106.861 268.011 109.073 268.011Z" fill="#A2E9FC"/>
<path d="M205.925 472.506C236.729 472.506 261.702 469.666 261.702 466.164C261.702 462.661 236.729 459.821 205.925 459.821C175.12 459.821 150.147 462.661 150.147 466.164C150.147 469.666 175.12 472.506 205.925 472.506Z" fill="#ADB6C4"/>
<path d="M192.853 470.677C210.42 470.677 224.66 468.631 224.66 466.106C224.66 463.582 210.42 461.536 192.853 461.536C175.286 461.536 161.046 463.582 161.046 466.106C161.046 468.631 175.286 470.677 192.853 470.677Z" fill="#353437"/>
<path d="M219.997 187.961C219.654 187.647 219.997 186.704 220.54 186.19C222.4 183.248 227.605 176.648 228.807 176.82C230.494 178.505 225.117 185.933 222.085 187.676C221.341 187.99 220.798 188.247 219.997 187.961Z" fill="#262F69"/>
<path d="M227.12 406.255C226.72 406.169 225.833 406.084 225.147 405.912C215.507 403.598 205.61 399.056 206.011 397.485C206.154 396.942 207.527 396.856 209.243 396.77C216.165 396.399 225.69 398.999 226.891 404.427C226.977 404.884 227.177 405.598 227.12 406.255Z" fill="#828282" fill-opacity="0.3"/>
<path d="M369.766 285.638H231.668V372H369.766V285.638Z" fill="#C8F5FC"/>
<path fill-rule="evenodd" clip-rule="evenodd" d="M350.373 272.553H249.946L231.668 285.638H369.795L350.373 272.553Z" fill="#81DCFC"/>
<g style="mix-blend-mode:lighten">
<path d="M306.695 284.581C324.024 284.581 338.073 282.061 338.073 278.953C338.073 275.845 324.024 273.325 306.695 273.325C289.365 273.325 275.316 275.845 275.316 278.953C275.316 282.061 289.365 284.581 306.695 284.581Z" fill="white" fill-opacity="0.3"/>
</g>
<path fill-rule="evenodd" clip-rule="evenodd" d="M369.795 372H267.623C283.04 325.919 313.274 324.549 324.315 285.638H369.795V372Z" fill="#A2E9FC"/>
<path d="M350.944 274.268C340.104 262.869 314.99 265.44 302.433 267.725C301.718 257.412 315.304 239.014 309.841 224.987C307.896 219.958 305.751 215.416 303.577 211.302C307.124 214.502 337.987 246.013 345.538 252.927C347.798 254.984 358.095 265.44 350.944 274.268Z" fill="#262F69"/>
<path d="M254.207 161.135C251.289 167.706 248.429 175.734 246.512 185.076C241.964 207.017 244.596 225.758 247.37 237.528C251.175 238.3 254.979 239.042 258.783 239.814C260.7 230.129 262.244 217.502 261.644 202.76C260.929 185.619 257.525 171.42 254.207 161.135Z" fill="#262F69"/>
<path d="M208.785 393.485C208.184 394.856 207.526 396.256 206.84 397.656C204.923 401.541 202.864 405.055 200.833 408.169C203.121 408.483 207.097 411.083 212.446 415.054C214.992 416.94 221.399 419.254 223.001 415.397C223.43 412.997 224.231 409.969 225.775 406.712C226.576 405.027 227.463 403.541 228.321 402.284C229.608 397.485 227.835 392.542 224.145 390.057C219.511 386.971 212.532 388.228 208.785 393.485Z" fill="#F7B2B2"/>
<path d="M217.023 417.168C219.512 417.797 222.058 417.654 223.002 415.397C223.431 412.997 224.232 409.969 225.776 406.712C226.577 405.027 227.464 403.541 228.322 402.284C228.808 400.513 228.865 398.713 228.551 397.027C220.799 405.769 217.71 412.083 217.023 417.168Z" fill="#F38484"/>
<path fill-rule="evenodd" clip-rule="evenodd" d="M165.136 450.251C164.65 450.937 164.021 451.965 163.534 453.308C163.277 453.993 162.533 456.05 162.791 458.307C163.277 462.678 167.224 465.364 168.54 466.135C170.8 467.478 172.831 467.735 175.376 468.049C176.063 468.135 179.152 468.478 183.299 467.821C186.846 467.249 189.363 466.221 191.337 465.421C194.14 464.25 198.888 462.25 203.551 458.107C203.78 457.907 206.411 454.765 211.703 448.48C214.077 445.68 216.194 443.137 219.512 440.166C220.885 438.938 222.057 437.966 222.915 437.309C223.345 436.824 223.774 436.195 224.174 435.481C225.633 432.653 225.204 429.796 224.946 428.567C221.657 429.71 218.339 430.853 215.049 432.024C198.088 437.938 181.469 444.023 165.136 450.251Z" fill="#BF2652"/>
<path fill-rule="evenodd" clip-rule="evenodd" d="M193.426 431.567C197.402 426.739 200.491 422.739 207.956 413.626C208.156 413.369 208.643 412.826 209.444 412.569C210.988 412.055 212.304 412.997 212.476 413.112C213.849 414.054 215.222 414.969 216.595 415.911C217.052 416.197 217.796 416.511 218.74 416.597C221.143 416.797 222.83 415.14 223.116 414.854C225.49 419.225 225.805 425.968 224.832 428.653C223.974 429.196 222.773 429.967 221.371 430.938C220.284 431.71 216.28 434.567 210.445 440.509C207.67 443.337 204.266 447.08 200.662 451.765C199.575 452.765 198.031 454.108 195.971 455.393C194.598 456.279 190.251 458.879 183.901 459.964C182.642 460.164 178.723 460.764 173.803 460.079C169.999 459.536 168.598 458.65 167.74 457.936C167.225 457.507 164.994 455.65 164.879 452.822C164.822 451.337 165.365 450.222 165.852 449.251C166.939 446.994 168.512 445.68 168.941 445.337C172.23 442.537 174.919 439.052 178.123 436.138C180.754 433.738 184.415 430.081 188.477 424.91C189.993 427.225 193.311 431.653 193.426 431.567Z" fill="#F95070"/>
<path fill-rule="evenodd" clip-rule="evenodd" d="M178.122 436.138C179.095 436.024 185.044 435.852 189.335 438.938C196.686 443.68 199.918 448.451 200.977 451.479C200.061 452.422 198.688 453.708 196.886 454.965C192.682 457.879 188.763 458.907 186.646 459.45C181.469 460.736 177.35 460.479 176.206 460.393C173.346 460.164 171 459.593 169.312 459.05C168.655 458.736 167.482 458.079 166.481 456.793C166.08 456.279 165.193 455.136 164.965 453.365C164.707 451.594 165.251 450.222 165.565 449.508C166.08 448.251 166.767 447.451 168.14 445.937C169.084 444.88 169.312 444.794 171.372 442.795C172.773 441.423 172.859 441.28 174.804 439.366C175.634 438.566 176.749 437.452 178.122 436.138Z" fill="#FC6C85"/>
<path fill-rule="evenodd" clip-rule="evenodd" d="M209.586 412.397C209.844 412.34 210.244 412.283 210.731 412.34C211.474 412.426 212.046 412.683 212.447 412.969C212.904 413.312 213.362 413.654 213.848 413.969C213.991 414.083 214.134 414.169 214.277 414.283C211.875 418.654 200.948 433.053 193.425 442.023C192.167 443.137 190.279 442.995 189.306 441.823C188.477 440.823 188.448 439.252 189.364 438.138C196.085 429.596 202.836 420.997 209.586 412.397Z" fill="#FC6C85"/>
<path fill-rule="evenodd" clip-rule="evenodd" d="M178.036 436.224C179.724 434.395 181.44 432.481 183.128 430.424C189.306 422.911 193.94 415.426 197.487 408.569C197.744 408.283 198.144 407.912 198.688 407.598C200.633 406.398 202.721 406.712 203.408 406.826C205.867 407.226 208.928 409.426 209.7 412.426C206.211 417.711 202.464 422.796 198.631 427.596C195.513 431.51 192.424 435.309 189.335 438.966C188.133 438.195 186.188 437.138 183.557 436.567C181.268 436.052 179.352 436.081 178.036 436.224Z" fill="#BF2652"/>
<path fill-rule="evenodd" clip-rule="evenodd" d="M216.021 368.401C216.508 368.744 217.28 369.173 218.31 369.401C220.398 369.887 222.114 369.173 222.743 368.887C223.659 368.03 224.889 366.83 226.29 365.345C228.064 363.459 230.295 360.859 233.269 356.603C238.533 349.089 242.108 342.118 242.537 341.261C245.569 335.319 249.202 326.977 252.062 316.435C252.176 315.778 252.205 314.921 251.948 314.035C250.947 310.778 246.799 310.007 246.627 309.978C245.855 312.664 244.711 316.264 243.195 320.492C238.904 332.433 234.442 340.89 233.441 342.775C227.892 353.174 222.658 360.145 221.513 361.659C219.34 364.488 217.423 366.773 216.021 368.401Z" fill="#BF2652"/>
<path fill-rule="evenodd" clip-rule="evenodd" d="M227.72 306.493C227.348 310.55 227.291 314.178 226.919 318.235C226.662 318.692 226.233 319.378 225.661 320.149C223.001 323.52 219.54 324.777 218.31 325.206C217.394 325.52 216.05 325.92 214.391 326.091C214.82 327.92 215.421 330.634 216.05 333.948C217.28 340.404 217.881 343.632 217.709 346.375C217.394 351.06 215.878 355.146 214.791 358.031C214.191 359.659 213.59 361.002 213.132 361.945C212.904 362.459 212.56 363.431 212.761 364.602C213.161 367.259 215.85 368.43 216.05 368.516C217.309 367.002 219.025 364.888 220.998 362.316C220.998 362.316 226.004 355.717 230.123 348.889C234.499 341.661 240.907 328.977 246.513 310.836C245.397 310.121 244.139 309.35 242.709 308.75C236.845 306.236 231.095 306.036 227.72 306.493Z" fill="#F95070"/>
<path fill-rule="evenodd" clip-rule="evenodd" d="M219.196 348.003C220.083 348.146 221.142 348.375 222.228 348.775C224.889 349.746 226.776 351.232 227.949 352.317C226.433 354.603 224.831 356.917 223.144 359.288C220.798 362.516 218.481 365.573 216.165 368.401C215.621 368.23 214.677 367.802 213.876 366.887C213.533 366.487 212.56 365.373 212.618 363.716C212.675 362.516 213.247 361.659 213.504 361.316C213.819 360.545 214.277 359.459 214.763 358.145C215.507 356.174 215.964 354.974 216.422 353.46C216.765 352.289 217.166 350.66 217.423 348.66C217.995 348.432 218.596 348.203 219.196 348.003Z" fill="#FC6C85"/>
<path fill-rule="evenodd" clip-rule="evenodd" d="M215.851 325.777C216.795 325.348 217.452 325.12 219.054 324.52C220.57 323.634 221.714 323.663 222.172 323.92C222.63 326.548 223.03 329.348 223.373 332.291C223.802 336.033 224.06 339.576 224.203 342.918C224.203 343.661 224.117 344.69 223.745 345.832C223.173 347.661 222.143 348.861 221.514 349.518C221.114 349.86 220.57 350.289 219.855 350.66C218.625 351.26 217.481 351.403 216.823 351.432C216.966 350.803 217.252 349.346 217.395 348.718C219.34 343.947 216.623 332.462 215.851 325.777Z" fill="#FC6C85"/>
<path d="M210.272 309.893C211.331 311.607 212.475 313.807 213.419 316.435C214.763 320.206 215.249 323.577 215.421 326.12C216.708 326.034 216.994 325.52 219.14 324.491C220.169 324.034 220.827 323.777 222.229 323.949C225.032 322.177 226.519 319.835 227.12 318.749C227.406 314.864 227.692 310.95 227.978 307.064C227.663 306.35 227.091 305.122 226.462 303.865C220.055 293.351 205.524 299.665 210.272 309.893Z" fill="#F7B2B2"/>
<path fill-rule="evenodd" clip-rule="evenodd" d="M217.395 348.632C218.024 348.489 218.939 348.203 219.798 347.489C222.143 345.547 221.857 342.261 221.828 341.918C221.886 339.661 220.455 327.891 219.569 325.263C219.197 324.32 218.425 323.806 217.624 323.549C215.764 322.949 214.105 323.891 213.819 324.063C214.163 325.663 217.624 343.232 217.624 345.089C217.652 346.404 217.566 347.603 217.395 348.632Z" fill="#BF2652"/>
<path fill-rule="evenodd" clip-rule="evenodd" d="M260.1 281.41C256.667 280.381 251.233 278.61 244.854 275.696C234.042 270.754 230.838 267.297 213.504 256.812C203.121 250.527 197.915 247.384 196.256 246.499C186.789 241.528 181.44 239.785 178.722 233.9C178.179 232.757 176.205 228.472 177.864 223.872C179.237 220.101 182.326 218.187 183.328 217.587C187.704 214.959 192.509 215.387 197.143 216.159C210.043 218.301 219.683 222.93 219.883 223.015C227.692 226.758 239.076 231.757 254.408 237.042C257.239 238.214 261.73 240.471 265.906 244.756C268.338 247.242 273.858 252.927 274.545 261.64C274.745 264.126 275.374 272.439 269.367 277.667C265.935 280.581 262.045 281.238 260.1 281.41Z" fill="#027BC6"/>
<path fill-rule="evenodd" clip-rule="evenodd" d="M322.427 253.184C322.742 259.583 322.484 264.926 322.141 268.868C321.083 281.238 318.794 284.124 317.564 285.409C316.106 286.923 313.874 288.495 309.012 289.695C291.707 293.98 273.343 285.924 259.642 279.724C257.268 278.667 255.38 277.724 254.207 277.153C252.977 276.353 251.204 275.01 249.631 272.868C246.913 269.182 246.484 265.44 246.198 263.183C244.911 252.298 250.746 238.385 251.633 236.385C256.724 236.642 262.073 237.1 267.622 237.814C289.247 240.614 307.667 246.699 322.427 253.184Z" fill="#027BC6"/>
<path d="M269.51 268.954L266.736 268.097C266.736 268.097 262.045 260.583 257.583 255.098C253.778 250.441 246.427 241.385 247.057 240.814C247.6 240.328 254.293 245.984 259.957 253.127C264.762 259.183 267.708 264.926 269.51 268.954Z" fill="#828282" fill-opacity="0.3"/>
<path d="M266.478 264.583C264.476 261.412 261.759 256.669 259.07 250.613C257.525 247.127 254.379 239.557 255.065 239.214C255.723 238.899 259.699 244.642 262.474 250.898C264.905 256.326 265.963 261.212 266.478 264.583Z" fill="#828282" fill-opacity="0.3"/>
<path d="M214.591 257.469C218.739 259.698 238.961 275.239 256.524 280.238C258.212 278.639 264.276 272.839 269.481 268.954C266.364 267.954 263.046 266.554 259.899 265.44C241.879 259.24 225.031 252.241 209.328 244.785C211.817 250.584 213.39 254.355 214.591 257.469Z" fill="#828282" fill-opacity="0.3"/>
<path fill-rule="evenodd" clip-rule="evenodd" d="M247.342 376.286C242.393 384.457 242.851 390.199 240.963 392.713C240.019 393.999 238.36 395.57 235.242 396.713C235.328 396.97 236.415 400.627 233.898 403.655C231.238 406.855 227.119 406.255 226.947 406.226C228.492 403.112 230.322 399.827 232.468 396.427C237.473 388.628 242.479 381.086 247.342 376.286Z" fill="#027BC6"/>
<path fill-rule="evenodd" clip-rule="evenodd" d="M274.773 265.154C274.773 265.154 263.846 272.553 257.096 279.61C254.665 282.124 252.805 284.324 251.633 285.752C250.832 286.838 249.745 288.58 249.03 290.923C247.342 296.551 248 304.979 253.635 310.036C258.212 314.149 264.676 314.778 270.025 311.664C271.569 310.607 274.058 308.95 277.233 307.122C281.123 304.893 305.865 293.209 310.242 290.637C319.366 286.066 319.738 282.438 321.454 275.61C323.742 261.355 310.728 258.126 307.238 257.412C294.252 254.755 281.895 260.583 274.773 265.154Z" fill="#0A9CE5"/>
<path fill-rule="evenodd" clip-rule="evenodd" d="M249.488 289.723C247.657 295.294 244.94 303.408 241.393 313.092C238.818 320.12 234.442 331.662 220.998 363.031C217.194 371.944 212.103 383.657 205.981 397.484C208.413 397.427 212.932 397.599 217.995 399.827C222.486 401.798 225.432 404.541 227.005 406.255C229.522 402.141 233.613 395.627 239.019 387.857C248.629 374.001 251.032 372.515 256.124 363.916C263.246 351.889 266.621 341.176 268.137 335.605C271.112 324.606 271.941 314.921 272.027 307.579C271.999 305.179 271.598 301.408 269.624 297.351C267.536 293.123 261.959 285.067 255.523 285.952C254.407 286.095 252.005 286.695 249.488 289.723Z" fill="#0A9CE5"/>
<path fill-rule="evenodd" clip-rule="evenodd" d="M270.054 311.664C271.598 310.607 274.087 308.95 277.262 307.122C281.152 304.893 305.894 293.209 310.27 290.637C319.395 286.066 319.767 282.438 321.483 275.61C322.513 269.954 321.111 267.04 319.853 264.583C315.276 281.153 286.587 293.094 271.713 304.322C271.713 304.322 270.797 308.093 270.054 311.664Z" fill="#027BC6"/>
<path fill-rule="evenodd" clip-rule="evenodd" d="M223.602 403.112C225.089 404.255 226.233 405.369 227.005 406.226C229.523 402.113 233.613 395.599 239.019 387.828C248.63 373.972 251.032 372.487 256.124 363.888C263.246 351.86 266.621 341.147 268.137 335.576C271.112 324.577 271.942 314.892 272.027 307.55C272.027 306.55 272.256 305.493 272.027 304.122C264.848 309.493 258.498 362.345 223.602 403.112Z" fill="#027BC6"/>
<g style="mix-blend-mode:lighten">
<path d="M283.069 260.726C277.348 263.126 272.828 266.24 267.222 270.611C260.958 275.467 256.153 280.438 252.577 284.667C256.181 282.524 259.957 280.067 263.79 277.267C271.398 271.725 277.949 266.011 283.069 260.726Z" fill="white" fill-opacity="0.3"/>
</g>
<g style="mix-blend-mode:lighten">
<path d="M247.742 295.037C245.855 300.579 242.908 308.664 239.247 318.292C238.389 320.52 235.758 327.434 228.978 343.947C225.861 351.517 221.37 362.059 216.164 374.287C222.114 365.259 228.807 353.66 234.499 340.147C241.65 323.149 245.626 307.522 247.742 295.037Z" fill="white" fill-opacity="0.3"/>
</g>
<path d="M268.452 299.351C268.395 299.351 268.337 299.322 268.337 299.265C268.309 299.208 268.337 299.122 268.395 299.065C285.643 290.38 297.227 282.924 302.318 278.839C306.008 275.896 309.126 272.896 309.155 272.868C311.672 270.439 314.075 267.868 316.277 265.183C316.334 265.126 316.42 265.126 316.477 265.154C316.534 265.211 316.534 265.297 316.506 265.354C314.275 268.04 311.872 270.639 309.355 273.068C309.326 273.096 306.18 276.125 302.49 279.067C297.37 283.152 285.757 290.609 268.509 299.322C268.509 299.322 268.48 299.351 268.452 299.351Z" fill="#828282" fill-opacity="0.3"/>
<path d="M222.686 398.256C222.657 398.256 222.628 398.256 222.6 398.227C222.543 398.17 222.514 398.084 222.571 398.027C230.552 386.428 237.703 374.144 243.795 361.545C251.547 345.489 257.839 328.348 262.044 311.978C262.874 308.779 263.646 305.522 264.332 302.293C264.361 302.208 264.418 302.179 264.504 302.179C264.59 302.208 264.618 302.265 264.618 302.351C263.932 305.579 263.16 308.836 262.33 312.035C258.125 328.434 251.804 345.604 244.053 361.659C237.96 374.287 230.809 386.571 222.8 398.199C222.771 398.256 222.743 398.256 222.686 398.256Z" fill="#828282" fill-opacity="0.3"/>
<path d="M313.817 268.268C313.789 268.268 313.76 268.268 313.731 268.24C310.785 266.097 307.067 262.383 305.98 257.041C305.894 256.555 305.808 256.069 305.751 255.584C305.751 255.498 305.808 255.441 305.865 255.441C305.951 255.441 306.008 255.498 306.008 255.555C306.066 256.041 306.123 256.526 306.237 256.984C307.296 262.24 310.985 265.897 313.874 268.011C313.932 268.068 313.96 268.154 313.903 268.211C313.903 268.24 313.874 268.268 313.817 268.268Z" fill="#828282" fill-opacity="0.3"/>
<path fill-rule="evenodd" clip-rule="evenodd" d="M219.139 276.667C219.339 278.524 219.797 280.467 220.769 282.381C221.656 284.124 222.342 284.695 222.886 286.181C223.401 287.666 223.601 289.609 222.886 292.18C223.715 292.809 225.088 294.037 226.032 295.98C227.777 299.608 226.804 303.065 226.518 303.951C224.745 301.808 222.571 298.637 220.969 294.437C218.052 286.866 218.595 280.124 219.139 276.667Z" fill="#0A9CE5"/>
<path fill-rule="evenodd" clip-rule="evenodd" d="M186.587 216.416C183.87 216.73 181.496 218.959 180.581 219.844C176.719 223.501 176.033 228.272 175.718 230.386C175.518 231.7 175.203 234.728 176.576 240.642C178.264 247.984 181.01 253.241 181.439 254.041C185.758 262.297 195.855 282.781 209.699 310.464C211.701 309.921 213.789 309.236 215.963 308.464C219.911 307.064 223.429 305.493 226.518 303.893C225.345 301.494 223.686 297.78 222.227 293.066C219.138 283.01 219.768 277.582 217.651 267.982C216.163 261.183 214.247 256.526 211.644 250.298C208.727 243.213 197.113 215.159 186.587 216.416Z" fill="#0A9CE5"/>
<g style="mix-blend-mode:lighten">
<path d="M179.58 220.701C178.722 221.787 177.549 223.472 176.663 225.758C175.318 229.243 175.347 232.214 175.404 234.129C175.433 234.814 175.49 237.443 176.806 242.099C177.95 246.213 179.294 249.241 180.353 251.613C183.699 258.955 186.159 263.383 189.734 270.497C190.907 272.811 192.538 276.039 194.425 280.01C192.938 276.267 190.192 269.24 186.702 260.24C181.554 247.013 179.981 242.842 179.208 236.671C178.407 230.015 178.951 224.415 179.58 220.701Z" fill="white" fill-opacity="0.3"/>
</g>
<path d="M260.186 262.012C260.157 262.012 260.157 262.012 260.129 262.012C245.655 257.155 231.668 250.813 218.625 243.185C214.449 240.728 210.273 238.1 206.239 235.386C206.182 235.328 206.154 235.243 206.211 235.186C206.268 235.128 206.354 235.1 206.411 235.157C210.416 237.871 214.592 240.499 218.768 242.956C231.811 250.584 245.741 256.898 260.215 261.754C260.3 261.783 260.329 261.869 260.3 261.926C260.3 261.954 260.243 262.012 260.186 262.012Z" fill="#828282" fill-opacity="0.3"/>
<path fill-rule="evenodd" clip-rule="evenodd" d="M188.905 156.822C186.96 158.45 183.156 161.278 183.156 161.278C183.156 161.278 182.755 161.135 182.44 160.935C183.871 159.736 185.301 158.536 186.731 157.336C187.532 157.107 188.104 157.022 188.905 156.822Z" fill="#BF2652"/>
<path fill-rule="evenodd" clip-rule="evenodd" d="M186.731 158.05L188.79 156.936C189.019 156.822 189.105 156.536 188.99 156.336C187.245 152.879 174.803 128.339 173.373 125.425C173.23 125.139 172.944 124.996 172.629 125.025L170.455 125.31L186.731 158.05Z" fill="#BF2652"/>
<path fill-rule="evenodd" clip-rule="evenodd" d="M164.02 132.682L178.865 163.45C178.98 163.707 179.323 163.793 179.552 163.622L186.674 158.108C186.846 157.965 186.903 157.736 186.817 157.536L170.913 125.539C170.77 125.254 170.37 125.197 170.17 125.425L164.106 132.167C163.963 132.31 163.934 132.51 164.02 132.682Z" fill="#F95070"/>
<path d="M193.767 174.191C193.853 173.877 193.796 173.734 193.71 173.677C193.367 173.306 191.965 174.077 191.622 174.306C192.108 174.934 192.595 175.591 193.081 176.22C193.31 175.534 193.539 174.877 193.767 174.191Z" fill="#262F69"/>
<path d="M183.241 183.276C181.696 181.534 178.75 177.22 177.177 175.477C174.431 171.563 173.888 166.849 172.028 160.478C171.056 158.05 170.083 155.679 169.082 153.365C168.825 149.908 168.567 146.451 168.31 143.023C167.881 141.794 167.194 139.852 166.679 138.452C166.107 136.766 166.508 136.195 167.023 135.338C167.709 134.195 168.653 132.652 169.225 131.538C170.284 129.538 171.542 126.882 171.542 126.882C171.542 126.882 172.515 125.653 172.915 125.767C174.202 126.11 174.402 127.024 174.603 128.31C174.374 129.396 174.002 130.853 173.687 131.453C172.686 133.31 171.914 135.195 170.913 137.081C171.943 135.624 173.344 133.967 175.203 132.338C176.262 131.395 177.291 130.624 178.235 129.967C178.321 129.938 179.666 129.481 180.409 130.167C181.21 130.853 181.21 132.652 179.837 133.967C178.75 135.138 177.692 136.309 176.605 137.481C175.547 138.88 174.517 140.28 173.459 141.652C173.344 142.509 173.201 143.366 173.087 144.223C174.259 143.366 175.547 142.452 176.977 141.566C178.464 140.652 179.923 139.852 181.267 139.195C182.383 138.852 183.498 138.509 184.585 138.138C185.358 137.938 186.159 138.109 186.588 138.623C187.217 139.366 187.045 140.766 185.93 141.566C184.242 142.394 182.583 143.223 180.895 144.023C179.837 145.251 176.748 148.022 176.748 148.022C176.748 148.022 180.095 146.08 181.553 144.994C182.411 144.68 183.27 144.366 184.128 144.051C184.728 143.823 185.329 143.594 185.93 143.394C186.273 143.366 186.874 143.337 187.16 143.68C187.617 144.194 187.36 145.451 186.216 146.537C184.986 147.422 183.756 148.308 182.497 149.194C181.811 150.308 181.096 151.422 180.409 152.508C180.981 153.679 181.582 155.25 181.925 157.164C182.125 158.25 182.211 159.25 182.211 160.107C183.155 161.107 184.299 162.478 185.358 164.278C186.216 165.792 186.788 167.192 187.16 168.363C188.475 173.277 191.393 173.791 193.738 175.905C193.195 176.991 191.021 181.048 186.673 182.533C185.386 182.876 184.242 183.276 183.241 183.276Z" fill="#F7B2B2"/>
<path d="M168.396 143.623C168.31 143.623 168.253 143.566 168.253 143.48V141.366C168.253 140.68 168.482 140.023 168.882 139.48C169.225 139.023 169.569 138.538 169.941 138.081C170.398 137.481 170.856 136.881 171.342 136.309C171.399 136.252 171.485 136.252 171.542 136.281C171.6 136.338 171.6 136.424 171.571 136.481C171.113 137.052 170.627 137.652 170.169 138.252C169.798 138.709 169.454 139.195 169.111 139.652C168.739 140.166 168.539 140.766 168.539 141.366V143.48C168.539 143.566 168.453 143.623 168.396 143.623Z" fill="#F38484"/>
<path d="M171.256 151.993C171.228 151.993 171.228 151.993 171.256 151.993C171.17 151.993 171.113 151.908 171.113 151.822C171.628 148.194 172.4 145.937 173.087 143.937C173.116 143.851 173.201 143.823 173.259 143.851C173.344 143.88 173.373 143.966 173.344 144.023C172.658 145.994 171.886 148.251 171.371 151.851C171.371 151.936 171.314 151.993 171.256 151.993Z" fill="#F38484"/>
<path d="M221.399 199.589C220.254 198.703 218.567 197.446 216.536 195.875C212.017 192.39 207.984 189.276 205.409 187.047C202.263 184.305 198.029 180.077 193.71 173.649C193.625 175.706 185.959 183.505 182.927 182.991C186.331 188.59 199.231 206.96 211.673 218.387C213.075 219.673 217.223 223.387 222.8 223.815C224.945 223.987 225.947 223.558 226.519 223.244C230.38 221.044 229.808 214.016 229.665 212.702C228.893 205.446 223.172 200.903 221.399 199.589Z" fill="#35489E"/>
<path d="M255.837 144.88C254.865 145.251 251.862 146.851 250.231 148.308C247.228 150.965 246.227 154.279 245.941 155.136C244.625 159.079 238.389 170.735 221.399 198.732C220.598 200.018 219.597 201.96 218.824 204.446C218.195 206.474 216.765 211.445 218.538 216.987C219.139 218.873 220.283 222.387 223.115 223.244C224.431 223.644 225.746 223.358 226.261 223.244C228.55 222.73 229.98 221.301 230.552 220.673C232.239 219.159 234.585 216.787 236.816 213.559C240.449 208.331 241.907 203.56 243.08 199.589C246.484 188.133 248.172 182.419 249.63 175.363C251.232 167.849 254.379 156.936 255.837 144.88Z" fill="#35489E"/>
<path d="M226.262 223.244C228.55 222.73 229.98 221.301 230.552 220.673C232.24 219.159 234.585 216.787 236.816 213.559C240.449 208.331 241.908 203.56 243.081 199.589C246.484 188.133 248.172 182.419 249.631 175.363C250.603 170.706 252.177 164.735 253.607 157.993C243.767 168.763 240.449 200.932 226.262 223.244Z" fill="#213B8E"/>
<path d="M184.272 173.734C184.214 173.734 184.186 173.706 184.157 173.677C184.1 173.62 184.129 173.534 184.186 173.477C184.701 173.106 187.189 171.106 186.989 168.363C186.96 167.878 186.817 167.363 186.617 166.878C186.588 166.792 186.617 166.735 186.703 166.678C186.789 166.649 186.846 166.678 186.903 166.764C187.132 167.278 187.246 167.792 187.304 168.335C187.504 171.22 184.929 173.306 184.386 173.677C184.329 173.734 184.3 173.734 184.272 173.734Z" fill="#F38484"/>
<path d="M172.201 129.424C171.8 129.424 171.371 129.167 171.228 128.796C171.171 128.653 171.143 128.453 171.143 128.281C171.143 128.196 171.228 128.139 171.314 128.167C171.4 128.167 171.457 128.253 171.429 128.339C171.4 128.481 171.429 128.596 171.486 128.71C171.629 129.053 172.086 129.224 172.373 129.139C172.573 129.081 172.716 128.91 172.773 128.853C173.202 128.281 173.545 127.453 173.774 126.853C173.803 126.767 173.889 126.739 173.946 126.767C174.032 126.796 174.06 126.882 174.032 126.939C173.803 127.567 173.459 128.424 173.002 128.996C172.945 129.081 172.744 129.31 172.458 129.396C172.344 129.424 172.287 129.424 172.201 129.424Z" fill="#F38484"/>
<path d="M178.379 132.995C178.293 132.995 178.208 132.995 178.15 132.967C177.836 132.881 177.578 132.681 177.407 132.338C177.321 132.167 177.264 131.995 177.264 131.795C177.264 131.71 177.321 131.653 177.407 131.653C177.493 131.653 177.55 131.71 177.55 131.795C177.55 131.938 177.578 132.081 177.664 132.195C177.807 132.452 177.979 132.624 178.236 132.681C178.665 132.795 179.008 132.481 179.037 132.452L180.467 131.338C180.524 131.281 180.61 131.31 180.668 131.367C180.725 131.424 180.696 131.51 180.639 131.567L179.209 132.681C179.18 132.71 178.837 132.995 178.379 132.995Z" fill="#F38484"/>
<path d="M184.386 140.937C184.329 140.937 184.272 140.937 184.214 140.937C183.986 140.909 183.757 140.88 183.528 140.709C183.127 140.366 183.156 139.823 183.185 139.737C183.213 139.537 183.271 139.337 183.414 139.166C183.471 139.109 183.557 139.08 183.614 139.137C183.671 139.195 183.7 139.28 183.642 139.337C183.557 139.452 183.499 139.623 183.471 139.766C183.471 139.795 183.414 140.223 183.728 140.48C183.871 140.594 184.014 140.623 184.243 140.652C184.958 140.737 186.217 140.052 186.331 139.937C186.388 139.88 186.474 139.88 186.531 139.937C186.589 139.995 186.589 140.08 186.531 140.137C186.388 140.28 185.216 140.937 184.386 140.937Z" fill="#F38484"/>
<path d="M185.387 145.708C185.244 145.708 185.13 145.68 185.044 145.623C184.815 145.508 184.729 145.28 184.672 145.137C184.643 145.051 184.672 144.994 184.758 144.966C184.843 144.937 184.901 144.966 184.929 145.051C184.958 145.137 185.044 145.308 185.187 145.365C185.33 145.451 185.53 145.423 185.673 145.365C186.188 145.223 186.588 144.823 186.817 144.537C186.874 144.48 186.96 144.451 187.017 144.508C187.075 144.566 187.103 144.651 187.046 144.708C186.788 145.051 186.331 145.48 185.759 145.651C185.616 145.708 185.501 145.708 185.387 145.708Z" fill="#F38484"/>
<path d="M187.188 168.135C187.217 168.535 187.217 169.02 187.102 169.563C186.845 170.877 186.13 171.792 185.729 172.22C186.273 172.991 186.845 173.791 187.389 174.648C188.332 176.077 189.191 177.505 189.934 178.848C190.392 178.362 190.878 177.905 191.336 177.362C191.965 176.677 192.509 175.963 193.052 175.191C189.791 172.049 188.504 171.934 187.188 168.135Z" fill="#F38484"/>
<path d="M182.927 182.991C182.899 182.991 182.841 182.962 182.813 182.933C182.04 182.048 180.982 180.648 179.952 179.277C178.894 177.877 177.836 176.42 177.063 175.563C175.004 172.649 174.203 169.392 173.145 165.249C172.773 163.764 172.372 162.192 171.886 160.507C170.942 158.136 169.941 155.736 168.94 153.393C168.94 153.365 168.94 153.365 168.94 153.336L168.168 142.994L166.709 138.852C165.794 136.852 166.509 135.852 167.024 135.138C167.767 133.938 168.482 132.681 169.14 131.395C169.398 130.91 169.655 130.31 169.941 129.681C170.885 127.624 171.858 125.51 172.973 125.51C174.031 125.596 174.804 127.024 174.747 128.167C174.689 128.938 174.375 130.196 173.888 131.453C173.374 132.395 172.916 133.338 172.487 134.224C172.287 134.652 172.058 135.109 171.829 135.566C172.83 134.309 173.946 133.138 175.147 132.081C176.177 131.138 177.006 130.538 177.979 129.881C178.436 129.596 179.581 129.024 180.553 129.881C180.925 130.196 181.125 130.738 181.154 131.338C181.182 132.252 180.753 133.167 180.01 133.909L176.777 137.423C176.434 137.881 175.977 138.452 175.519 138.995C174.718 139.995 173.717 141.223 173.66 141.509L173.316 143.737C174.489 142.88 175.719 142.052 176.949 141.28C178.351 140.423 179.781 139.623 181.24 138.909L184.586 137.852C185.444 137.623 186.274 137.823 186.731 138.366C187.046 138.738 187.161 139.252 187.103 139.795C187.018 140.48 186.617 141.109 186.045 141.509L181.011 143.966C180.324 144.737 178.894 146.108 177.893 147.022C179.009 146.365 180.61 145.366 181.497 144.68L181.526 144.651C182.384 144.337 183.242 144.023 184.1 143.709L185.902 143.051H185.931C186.36 142.994 186.96 142.994 187.304 143.394C187.79 143.966 187.561 145.28 186.331 146.451L182.641 149.108L180.61 152.336C181.325 153.822 181.812 155.365 182.098 156.964C182.269 157.936 182.355 158.907 182.384 159.878C183.585 161.135 184.643 162.535 185.502 164.049C186.245 165.335 186.874 166.735 187.332 168.163C187.818 170.22 189.077 171.363 190.822 172.906C191.48 173.506 192.252 174.163 193.024 174.963C193.081 175.02 193.081 175.106 193.024 175.163C192.967 175.22 192.881 175.22 192.824 175.163C192.052 174.363 191.279 173.706 190.622 173.106C188.905 171.563 187.532 170.363 187.046 168.22C186.588 166.821 185.988 165.449 185.244 164.164C184.386 162.65 183.328 161.25 182.126 160.021C182.098 159.993 182.098 159.964 182.098 159.936C182.098 158.964 181.983 157.964 181.812 157.022C181.526 155.422 181.011 153.879 180.296 152.393C180.267 152.336 180.267 152.308 180.296 152.251L182.384 148.937C182.384 148.908 182.412 148.908 182.412 148.908L186.131 146.251C187.275 145.166 187.418 144.023 187.046 143.623C186.789 143.337 186.245 143.337 185.959 143.394L184.157 144.051C183.299 144.366 182.47 144.68 181.611 144.994C180.153 146.108 176.835 148.022 176.806 148.022C176.749 148.051 176.663 148.051 176.606 147.994C176.577 147.937 176.577 147.851 176.634 147.794C176.663 147.765 179.724 145.023 180.782 143.823C180.782 143.794 180.811 143.794 180.839 143.794L185.873 141.337C186.388 140.966 186.731 140.423 186.789 139.823C186.846 139.366 186.731 138.909 186.474 138.623C186.102 138.166 185.358 137.995 184.615 138.195L181.297 139.252C179.867 139.966 178.436 140.766 177.035 141.623C175.719 142.452 174.403 143.337 173.145 144.28C173.088 144.308 173.03 144.308 172.973 144.28C172.916 144.251 172.887 144.194 172.916 144.137L173.288 141.566C173.345 141.223 174.06 140.337 175.204 138.909C175.662 138.366 176.12 137.795 176.463 137.309L179.695 133.795C180.381 133.138 180.782 132.281 180.782 131.453C180.782 130.938 180.582 130.481 180.296 130.196C179.466 129.453 178.465 129.967 178.065 130.224C177.092 130.881 176.291 131.481 175.261 132.395C173.688 133.795 172.258 135.395 170.999 137.109C170.942 137.166 170.885 137.195 170.799 137.138C170.742 137.109 170.713 137.023 170.742 136.938C171.257 135.995 171.686 135.081 172.115 134.167C172.544 133.252 173.002 132.31 173.517 131.395C174.003 130.167 174.318 128.967 174.346 128.196C174.403 127.196 173.717 125.91 172.83 125.853C171.915 125.853 170.885 128.081 170.084 129.853C169.798 130.481 169.512 131.081 169.255 131.567C168.597 132.824 167.853 134.109 167.109 135.338C166.595 136.052 165.994 136.909 166.823 138.795L168.311 142.966V142.994L169.083 153.336C170.084 155.679 171.085 158.079 172.029 160.45C172.515 162.164 172.916 163.707 173.288 165.221C174.318 169.335 175.147 172.563 177.149 175.42C177.922 176.277 179.009 177.734 180.067 179.134C181.097 180.505 182.126 181.905 182.899 182.791C182.956 182.848 182.956 182.933 182.899 182.991C182.984 182.991 182.956 182.991 182.927 182.991Z" fill="#F38484"/>
<path d="M174.832 155.936C174.832 155.936 174.804 155.936 174.832 155.936C174.747 155.936 174.689 155.85 174.689 155.765C175.204 152.136 175.977 149.879 176.663 147.88C176.692 147.794 176.778 147.765 176.835 147.794C176.921 147.822 176.949 147.908 176.921 147.965C176.234 149.937 175.462 152.194 174.947 155.793C174.947 155.879 174.89 155.936 174.832 155.936Z" fill="#F38484"/>
<path fill-rule="evenodd" clip-rule="evenodd" d="M262.988 142.309C273.457 138.709 280.665 140.623 290.162 139.195C289.733 148.908 290.591 156.507 291.306 161.135C296.025 192.047 314.503 224.672 316.134 227.529C317.106 229.243 319.795 233.9 321.282 240.642C322.484 246.185 322.655 260.869 322.427 263.726C315.876 253.184 293.766 253.441 283.612 253.184C276.689 253.012 271.712 252.87 266.192 250.327C258.069 246.556 254.236 240.185 252.205 236.443C261.901 224.672 256.982 206.331 256.209 199.018C255.323 197.446 254.264 195.247 253.349 192.475C252.834 190.847 251.432 186.105 251.633 179.648C251.804 174.591 252.863 170.877 253.921 167.392C255.866 160.964 259.756 151.708 262.988 142.309Z" fill="#FFF9B0"/>
<path d="M262.988 142.309C265.076 141.595 264.218 141.766 266.077 141.395C264.933 147.48 263.274 150.908 261.272 156.593C246.427 195.732 267.565 202.36 260.871 247.099C256.266 243.556 253.72 239.242 252.233 236.443C261.93 224.672 257.01 206.331 256.238 199.018C255.351 197.446 254.293 195.247 253.377 192.475C252.862 190.847 251.461 186.105 251.661 179.648C251.833 174.591 252.891 170.877 253.949 167.392C255.866 160.964 259.756 151.708 262.988 142.309Z" fill="#F9C973"/>
<path d="M278.148 164.964C278.721 156.136 279.865 145.88 290.162 139.195C289.733 148.908 290.591 156.507 291.306 161.135C296.026 192.047 314.504 224.672 316.134 227.529C317.107 229.243 319.795 233.9 321.283 240.642C322.484 246.185 322.656 260.869 322.427 263.726C317.764 256.212 305.207 254.184 294.71 253.555C296.14 209.988 279.007 194.018 278.148 164.964Z" fill="#F9C973"/>
<path d="M255.809 183.876C256.381 192.99 260.271 196.046 267.222 199.732C272.142 203.503 266.421 207.56 265.677 207.388C254.493 206.645 254.236 187.619 255.809 183.876Z" fill="#F9C973"/>
<path d="M322.399 263.84C320.854 261.983 319.081 260.383 317.107 259.04C314.647 257.412 310.986 256.012 306.495 255.012C302.176 254.041 298.972 253.869 294.081 253.612C290.563 253.412 288.56 253.441 286.787 253.441C284.842 253.47 283.126 253.47 280.008 253.212C274.287 252.755 271.427 252.527 268.166 251.298C262.159 249.013 258.241 245.127 256.439 243.013C254.694 240.956 253.235 238.642 252.091 236.128L252.348 236.014C253.464 238.471 254.894 240.785 256.639 242.813C258.412 244.899 262.302 248.756 268.252 251.013C271.455 252.213 274.316 252.441 280.008 252.898C283.126 253.155 284.813 253.127 286.758 253.127C288.532 253.127 290.563 253.098 294.081 253.298C298.972 253.555 302.204 253.727 306.524 254.698C311.043 255.698 314.733 257.098 317.221 258.783C319.224 260.126 321.026 261.754 322.57 263.611L322.399 263.84Z" fill="#F9C973"/>
<path d="M265.62 141.452C264.819 143.623 263.532 146.994 261.901 151.136C254.522 170.02 252.319 173.277 250.203 181.076C247.886 189.504 247.657 195.932 247.342 204.446C246.885 216.759 249.63 235.328 249.63 235.328C249.63 235.328 244.682 233.7 242.222 232.672C240.849 227.186 239.39 218.93 239.934 209.017C240.563 197.703 243.481 190.961 247.628 175.677C249.573 168.563 252.148 158.164 254.493 145.537C256.553 144.251 263.932 141.595 265.62 141.452Z" fill="#35489E"/>
<path d="M221.849 330.588C222.242 330.54 222.502 330.031 222.431 329.452C222.36 328.872 221.985 328.441 221.592 328.489C221.2 328.537 220.939 329.046 221.01 329.625C221.081 330.205 221.457 330.635 221.849 330.588Z" fill="white"/>
<path d="M222.394 335.158C222.787 335.11 223.047 334.601 222.976 334.022C222.905 333.442 222.53 333.012 222.137 333.059C221.745 333.107 221.484 333.616 221.555 334.195C221.626 334.775 222.002 335.206 222.394 335.158Z" fill="white"/>
<path d="M222.822 339.676C223.217 339.653 223.511 339.163 223.478 338.58C223.445 337.997 223.099 337.543 222.704 337.565C222.309 337.587 222.016 338.077 222.048 338.66C222.081 339.243 222.428 339.698 222.822 339.676Z" fill="white"/>
<path d="M223.696 343.482C223.738 342.9 223.453 342.404 223.059 342.376C222.664 342.347 222.31 342.796 222.268 343.378C222.226 343.96 222.511 344.456 222.905 344.484C223.3 344.513 223.654 344.064 223.696 343.482Z" fill="white"/>
<path fill-rule="evenodd" clip-rule="evenodd" d="M217.567 344.604C217.51 344.604 217.452 344.575 217.424 344.518C217.395 344.432 217.424 344.375 217.51 344.318C218.568 343.861 221.829 343.318 222.83 343.29C222.887 343.29 222.973 343.347 222.973 343.433C222.973 343.518 222.916 343.575 222.83 343.575C221.829 343.604 218.654 344.118 217.624 344.575C217.595 344.575 217.595 344.604 217.567 344.604Z" fill="white"/>
<path fill-rule="evenodd" clip-rule="evenodd" d="M216.822 340.004C216.765 340.004 216.708 339.976 216.679 339.89C216.651 339.804 216.708 339.747 216.794 339.719C217.595 339.519 218.396 339.319 219.196 339.147C220.341 338.919 221.513 338.747 222.686 338.633C222.772 338.633 222.829 338.69 222.829 338.747C222.829 338.833 222.772 338.89 222.715 338.89C221.542 339.004 220.398 339.176 219.254 339.404C218.453 339.576 217.652 339.747 216.88 339.976C216.851 340.004 216.822 340.004 216.822 340.004Z" fill="white"/>
<path fill-rule="evenodd" clip-rule="evenodd" d="M216.05 335.605C215.993 335.605 215.936 335.576 215.907 335.519C215.879 335.433 215.907 335.376 215.993 335.348C216.88 335.033 217.766 334.748 218.682 334.519C219.855 334.205 221.056 333.976 222.257 333.833C222.343 333.833 222.4 333.891 222.429 333.948C222.429 334.033 222.372 334.091 222.314 334.119C221.142 334.291 219.94 334.519 218.768 334.805C217.881 335.033 216.994 335.319 216.107 335.633C216.079 335.605 216.05 335.605 216.05 335.605Z" fill="white"/>
<path fill-rule="evenodd" clip-rule="evenodd" d="M215.221 331.291C215.164 331.291 215.107 331.262 215.078 331.205C215.05 331.119 215.078 331.062 215.164 331.034C216.251 330.662 217.366 330.319 218.482 330.005C219.54 329.72 220.599 329.491 221.657 329.32C221.743 329.32 221.8 329.348 221.829 329.434C221.829 329.52 221.8 329.577 221.714 329.605C220.656 329.805 219.597 330.034 218.568 330.291C217.452 330.577 216.365 330.919 215.278 331.291C215.25 331.291 215.25 331.291 215.221 331.291Z" fill="white"/>
<path fill-rule="evenodd" clip-rule="evenodd" d="M220.284 329.777C220.227 329.777 220.198 329.748 220.17 329.691C219.083 327.748 217.71 326.377 216.137 325.606C215.536 325.32 215.021 325.149 214.506 325.006C213.677 324.777 212.904 324.52 211.961 323.777C211.36 323.292 210.101 322.292 209.815 320.606C209.501 318.892 210.33 316.949 211.817 315.864C214.049 314.235 216.995 315.207 218.396 316.035C220.685 317.406 221.972 320.206 221.972 323.892C221.972 325.863 221.428 327.863 220.37 329.662C220.37 329.748 220.341 329.777 220.284 329.777ZM214.678 315.292C213.763 315.292 212.819 315.521 211.989 316.121C210.588 317.149 209.815 318.978 210.101 320.578C210.387 322.149 211.56 323.12 212.132 323.577C213.019 324.292 213.763 324.52 214.563 324.749C215.078 324.891 215.622 325.063 216.251 325.349C217.824 326.12 219.169 327.434 220.284 329.32C221.228 327.634 221.714 325.749 221.714 323.92C221.686 320.349 220.484 317.635 218.253 316.292C217.452 315.835 216.079 315.292 214.678 315.292Z" fill="white"/>
<path fill-rule="evenodd" clip-rule="evenodd" d="M220.399 329.777C220.37 329.777 220.313 329.777 220.284 329.748C217.881 327.377 214.964 326.634 211.646 327.548C211.531 327.577 211.417 327.605 211.274 327.663C209.043 328.291 203.15 330.005 201.863 325.777C201.377 322.92 202.807 321.263 204.295 320.063C207.927 317.749 214.42 318.863 217.71 322.349C220.084 324.863 220.513 328.005 220.542 329.662C220.542 329.72 220.513 329.777 220.456 329.805C220.456 329.777 220.427 329.777 220.399 329.777ZM214.335 326.891C216.537 326.891 218.511 327.691 220.227 329.32C220.141 327.634 219.626 324.834 217.481 322.549C214.277 319.149 207.956 318.035 204.438 320.292C202.464 321.949 201.749 323.577 202.121 325.72C203.322 329.662 209.043 328.034 211.188 327.405C211.331 327.377 211.446 327.32 211.56 327.291C212.532 327.006 213.448 326.891 214.335 326.891Z" fill="white"/>
<path fill-rule="evenodd" clip-rule="evenodd" d="M220.341 329.691C220.312 329.691 220.312 329.691 220.341 329.691C220.255 329.691 220.198 329.634 220.198 329.548C220.255 327.063 219.683 324.634 218.539 322.577C215.822 317.635 209.929 314.635 204.18 315.292C200.604 315.692 197.887 317.435 196.257 318.835C196.199 318.892 196.114 318.892 196.056 318.806C195.999 318.749 195.999 318.663 196.085 318.606C197.744 317.178 200.49 315.407 204.151 315.007C210.015 314.35 216.022 317.406 218.796 322.435C219.94 324.52 220.541 326.977 220.484 329.548C220.455 329.634 220.398 329.691 220.341 329.691Z" fill="white"/>
<path fill-rule="evenodd" clip-rule="evenodd" d="M220.341 329.634H220.312C220.226 329.605 220.198 329.52 220.226 329.462C220.999 326.748 221.199 323.977 220.798 321.263C220.484 319.063 219.94 315.349 216.88 312.378C213.361 308.921 208.728 308.664 206.897 308.721C206.84 308.721 206.754 308.664 206.754 308.579C206.754 308.493 206.811 308.436 206.897 308.436C208.756 308.379 213.476 308.636 217.08 312.178C220.198 315.235 220.741 318.978 221.056 321.235C221.456 324.006 221.285 326.806 220.484 329.548C220.455 329.605 220.398 329.634 220.341 329.634Z" fill="white"/>
<path d="M209.919 418.009C210.471 417.239 210.575 416.369 210.151 416.066C209.727 415.763 208.936 416.141 208.384 416.911C207.832 417.68 207.728 418.55 208.152 418.853C208.576 419.156 209.367 418.778 209.919 418.009Z" fill="white"/>
<path d="M205.645 424.13C206.229 423.325 206.34 422.41 205.892 422.086C205.444 421.762 204.608 422.151 204.024 422.956C203.439 423.761 203.329 424.676 203.776 425C204.224 425.324 205.06 424.935 205.645 424.13Z" fill="white"/>
<path d="M200.805 430.429C201.403 429.615 201.517 428.683 201.059 428.347C200.6 428.011 199.744 428.398 199.145 429.212C198.547 430.026 198.433 430.958 198.891 431.294C199.35 431.63 200.207 431.243 200.805 430.429Z" fill="white"/>
<path d="M195.801 436.827C196.465 436.025 196.639 435.073 196.189 434.701C195.738 434.329 194.834 434.678 194.17 435.48C193.505 436.282 193.332 437.235 193.782 437.607C194.233 437.979 195.137 437.63 195.801 436.827Z" fill="white"/>
<path fill-rule="evenodd" clip-rule="evenodd" d="M194.884 436.481C194.855 436.481 194.826 436.481 194.798 436.452C191.365 433.881 185.902 432.253 181.526 432.538C181.44 432.538 181.383 432.481 181.383 432.395C181.383 432.31 181.44 432.253 181.526 432.253C185.988 431.967 191.508 433.624 194.998 436.224C195.055 436.281 195.084 436.367 195.027 436.424C194.97 436.452 194.941 436.481 194.884 436.481Z" fill="white"/>
<path fill-rule="evenodd" clip-rule="evenodd" d="M199.832 430.024C199.803 430.024 199.775 430.024 199.746 429.996C197.115 428.367 194.254 427.225 191.28 426.653C189.735 426.339 188.133 426.196 186.56 426.168C186.474 426.168 186.417 426.11 186.417 426.025C186.417 425.939 186.474 425.882 186.56 425.882C188.162 425.882 189.764 426.053 191.337 426.368C194.34 426.967 197.229 428.11 199.889 429.767C199.946 429.796 199.975 429.91 199.946 429.967C199.918 429.996 199.889 430.024 199.832 430.024Z" fill="white"/>
<path fill-rule="evenodd" clip-rule="evenodd" d="M204.438 423.796C204.409 423.796 204.38 423.796 204.352 423.768C201.835 422.196 199.146 421.025 196.314 420.311C194.655 419.882 193.082 419.797 191.68 419.74C191.48 419.74 191.251 419.711 191.051 419.711C190.965 419.711 190.908 419.625 190.908 419.568C190.908 419.482 190.994 419.425 191.051 419.425C191.251 419.425 191.452 419.454 191.68 419.454C193.082 419.54 194.684 419.625 196.371 420.054C199.232 420.768 201.978 421.939 204.495 423.539C204.552 423.568 204.581 423.682 204.552 423.739C204.524 423.768 204.495 423.796 204.438 423.796Z" fill="white"/>
<path fill-rule="evenodd" clip-rule="evenodd" d="M209.014 417.568C208.985 417.568 208.957 417.568 208.928 417.54C206.354 415.911 203.579 414.769 200.661 414.083C198.774 413.654 196.8 413.397 194.855 413.397C194.769 413.397 194.712 413.34 194.712 413.254C194.712 413.169 194.769 413.112 194.855 413.112C196.829 413.14 198.802 413.369 200.719 413.826C203.665 414.511 206.468 415.683 209.071 417.34C209.128 417.368 209.157 417.483 209.128 417.54C209.1 417.54 209.042 417.568 209.014 417.568Z" fill="white"/>
<path fill-rule="evenodd" clip-rule="evenodd" d="M208.184 416.997C208.155 416.997 208.155 416.997 208.127 416.997C208.07 416.968 208.012 416.911 208.041 416.854C208.785 411.283 207.126 407.112 203.15 404.455C202.835 404.255 202.377 404.027 201.834 403.798C200.804 403.341 199.517 402.741 198.545 401.77C196.113 398.799 195.513 395.57 196.857 392.914C198.087 390.514 200.747 388.971 203.464 389.114C206.84 389.457 209.528 391.142 211.216 393.942C214.048 398.684 213.476 405.369 211.731 409.569C210.901 412.14 209.729 414.626 208.298 416.94C208.27 416.968 208.241 416.997 208.184 416.997ZM203.15 389.371C200.661 389.371 198.259 390.799 197.114 393.028C196.342 394.513 195.57 397.627 198.745 401.541C199.66 402.455 200.919 403.027 201.92 403.484C202.463 403.741 202.921 403.941 203.264 404.17C207.183 406.798 208.899 410.826 208.356 416.197C209.614 414.054 210.673 411.797 211.416 409.426C213.132 405.284 213.704 398.684 210.93 394.028C209.3 391.285 206.697 389.685 203.407 389.342C203.379 389.371 203.264 389.371 203.15 389.371Z" fill="white"/>
<path fill-rule="evenodd" clip-rule="evenodd" d="M208.27 417.025C208.242 417.025 208.213 417.025 208.185 416.997C208.127 416.968 208.127 416.911 208.127 416.854C209.3 412.797 209.586 409.026 209.014 405.655C208.928 405.112 208.442 402.313 208.127 398.684C207.899 396.085 207.927 395.142 208.27 394.056C208.671 392.771 209.701 390.485 212.16 389.4C214.906 388.2 217.91 389.142 219.54 390.571C222.744 393.342 221.857 398.513 221.485 400.713C219.969 409.626 211.789 415.083 208.356 417.025C208.299 416.997 208.299 417.025 208.27 417.025ZM214.792 389.114C213.963 389.114 213.076 389.285 212.246 389.628C209.901 390.657 208.9 392.885 208.528 394.113C208.213 395.142 208.185 396.085 208.413 398.627C208.728 402.255 209.214 405.055 209.3 405.569C209.872 408.912 209.615 412.597 208.499 416.568C212.046 414.511 219.74 409.169 221.199 400.627C221.571 398.484 222.429 393.428 219.34 390.742C218.253 389.828 216.594 389.114 214.792 389.114Z" fill="white"/>
<path fill-rule="evenodd" clip-rule="evenodd" d="M208.242 417.054C208.213 417.054 208.213 417.054 208.184 417.054C208.099 417.026 208.07 416.94 208.099 416.883C210.473 410.398 208.299 403.113 202.836 399.199C197.858 395.628 191.194 395.485 185.874 398.827C185.816 398.856 185.731 398.856 185.673 398.77C185.645 398.713 185.645 398.627 185.731 398.57C191.165 395.171 197.944 395.342 203.007 398.942C208.585 402.941 210.816 410.341 208.385 416.968C208.356 417.026 208.299 417.054 208.242 417.054Z" fill="white"/>
<path fill-rule="evenodd" clip-rule="evenodd" d="M208.127 417.054C208.098 417.054 208.041 417.026 208.013 416.997C207.955 416.94 207.955 416.854 208.013 416.797C210.701 414.226 212.789 411.255 214.191 407.969C218.71 397.513 215.078 387.371 213.304 383.514C213.276 383.429 213.304 383.372 213.361 383.314C213.447 383.286 213.505 383.314 213.562 383.372C215.364 387.285 219.025 397.485 214.448 408.055C213.018 411.369 210.902 414.369 208.213 416.968C208.184 417.026 208.156 417.054 208.127 417.054Z" fill="white"/>
<path d="M285.902 125.825C285.616 127.139 285.416 128.739 285.387 130.51C285.359 134.424 286.331 137.566 287.161 139.623C286.274 140.795 284.901 142.366 282.984 143.937C279.266 146.937 275.748 148.022 274.489 148.365C272.001 149.051 267.682 150.251 265.736 148.108C265.164 147.48 264.907 146.737 264.907 145.994C265.222 144.794 265.45 143.623 265.622 142.137C266.108 137.709 265.479 133.909 264.735 131.253C267.281 126.596 270.227 123.682 272.23 121.996C274.947 119.711 276.091 114.197 278.58 114.511C281.411 114.911 284.729 121.711 285.902 125.825Z" fill="#F38484"/>
<path d="M265.62 136.138C265.42 134.281 265.077 132.624 264.705 131.253C267.251 126.596 276.061 114.197 278.521 114.54C279.951 114.74 283.04 117.483 284.384 119.739C282.754 131.653 268.366 135.624 265.62 136.138Z" fill="#828282" fill-opacity="0.3"/>
<path d="M288.703 82.8572C290.105 81.6859 292.221 80.1146 294.996 78.7147C297.799 77.3148 304.206 74.6294 315.533 75.5436C326.546 76.4292 328.09 79.5718 345.024 83.5428C352.546 85.3141 356.322 86.1997 360.269 86.2854C366.534 86.4568 378.461 85.1998 393.192 73.1152C392.448 76.2292 390.932 80.5717 387.815 85.0284C381.379 94.1418 372.369 97.4844 368.879 98.5985C371.425 98.8842 375.029 98.9985 379.205 98.17C382.437 97.5415 385.126 96.513 387.1 95.5703C384.697 98.17 381.579 101.17 377.66 104.055C374.228 106.598 370.967 108.512 368.107 109.969C370.395 110.026 372.683 110.083 374.972 110.14C372.941 111.912 369.852 114.226 365.704 116.083C354.062 121.282 343.021 118.797 337.558 117.597C319.366 113.54 308.182 101.17 304.12 96.1702C303.377 94.9132 301.575 92.342 298.2 90.6279C296.226 89.628 294.395 89.2851 293.165 89.1423C291.678 87.0568 290.191 84.9427 288.703 82.8572Z" fill="#353437"/>
<path fill-rule="evenodd" clip-rule="evenodd" d="M285.214 83.9713C285.5 83.5714 286.015 83.0286 286.816 82.6857C288.99 81.7715 291.249 83.3714 291.821 83.7999C292.336 84.1713 295.025 86.0568 294.767 88.9423C294.624 90.485 293.709 91.5706 293.28 92.0277C292.622 90.9421 291.736 89.6851 290.591 88.4281C288.704 86.314 286.73 84.8855 285.214 83.9713Z" fill="#FFF9B0"/>
<path d="M251.919 103.227C251.461 102.198 250.346 99.9983 250.317 97.97C250.26 93.1704 253.435 89.7993 254.779 88.3709C259.613 83.2571 266.021 82.3714 268.938 81.9715C272.742 81.4572 280.694 80.3431 287.759 85.6568C294.538 90.7421 295.826 98.2271 295.969 99.2841C297.399 108.369 292.25 114.94 291.392 115.997C290.048 117.254 286.758 122.51 285.871 125.853C280.894 122.596 282.124 115.625 279.378 115.054C271.77 110.883 271.112 106.598 263.389 103.427C260.958 102.427 257.582 102.112 251.919 103.227Z" fill="#353437"/>
<path d="M255.466 94.7132C254.808 94.3132 253.979 94.5989 253.692 95.3131C253.464 95.9131 253.235 96.513 253.035 97.1701C251.976 100.398 251.233 103.312 251.09 105.941C250.975 109.74 253.006 111.826 253.006 111.826L250.832 117.568C250.546 118.311 250.918 119.139 251.633 119.482L253.893 120.454C254.636 120.796 253.521 122.168 253.692 123.225C253.807 123.91 254.436 124.368 255.123 124.796C254.779 125.71 255.008 126.682 256.067 127.31C256.438 127.539 256.639 127.91 256.61 128.339C256.381 131.624 257.954 133.538 260.615 133.738C265.077 133.852 272.542 129.91 273.2 129.51C274.659 128.624 277.004 126.967 278.663 124.082C280.179 121.425 280.265 117.797 280.208 116.283C280.58 116.34 281.295 116.368 282.21 115.368C284.127 113.597 285.128 104.169 280.637 104.427C279.379 104.427 278.549 105.198 277.662 107.083C277.176 108.255 276.518 108.455 276.204 108.569C274.373 101.97 267.222 98.6557 264.562 98.1986C262.245 97.7986 259.127 96.913 255.466 94.7132Z" fill="#F7B2B2"/>
<path d="M259.075 111.621C259.705 111.567 260.162 110.899 260.096 110.129C260.031 109.359 259.467 108.778 258.837 108.831C258.208 108.885 257.75 109.553 257.816 110.323C257.882 111.093 258.445 111.674 259.075 111.621Z" fill="#353437"/>
<path d="M252.148 111.654C252.291 112.083 252.548 112.426 252.749 112.54C252.835 112.569 253.063 111.426 253.035 111.34C252.835 110.74 252.463 110.34 252.234 110.426C251.976 110.512 251.948 111.054 252.148 111.654Z" fill="#353437"/>
<path d="M257.153 110.597C257.124 110.597 257.096 110.597 257.067 110.597C256.924 110.54 256.838 110.397 256.867 110.226C257.01 109.769 257.239 109.397 257.525 109.14C258.183 108.54 258.983 108.626 259.784 108.712C260.585 108.798 261.358 109.026 262.073 109.426C262.216 109.512 262.273 109.683 262.187 109.826C262.101 109.969 261.93 110.026 261.787 109.94C261.129 109.597 260.442 109.369 259.699 109.283C258.869 109.198 258.326 109.169 257.897 109.569C257.668 109.769 257.496 110.055 257.382 110.397C257.382 110.512 257.267 110.597 257.153 110.597Z" fill="#353437"/>
<path d="M252.348 114.026C252.319 114.026 252.319 114.026 252.291 114.026C252.205 113.997 252.176 113.911 252.205 113.854L253.035 111.397C253.063 111.312 253.149 111.283 253.206 111.312C253.292 111.34 253.321 111.426 253.292 111.483L252.462 113.94C252.491 113.997 252.434 114.026 252.348 114.026Z" fill="#F38484"/>
<path d="M256.61 107.512L257.039 107.083C257.41 106.712 257.954 106.512 258.497 106.598C259.098 106.683 259.784 106.798 260.528 106.998C261.272 107.226 262.044 107.455 262.673 107.712C262.845 107.798 263.017 107.541 262.874 107.398C262.359 106.941 261.644 106.398 260.843 105.941C259.842 105.369 258.869 105.112 258.125 104.998C257.496 104.912 256.838 105.198 256.524 105.741C256.466 105.855 256.409 105.969 256.352 106.112C256.18 106.512 256.123 106.883 256.095 107.198C256.009 107.569 256.381 107.741 256.61 107.512Z" fill="#353437"/>
<path d="M254.608 120.454C254.522 120.454 254.436 120.454 254.35 120.454C254.207 120.425 254.093 120.311 254.093 120.139C254.121 119.996 254.236 119.854 254.407 119.882C255.122 119.968 255.752 119.654 255.952 119.139C256.066 118.854 256.009 118.568 255.923 118.368C255.866 118.225 255.952 118.054 256.095 117.997C256.238 117.94 256.41 118.025 256.467 118.168C256.581 118.454 256.667 118.882 256.495 119.311C256.238 120.025 255.466 120.454 254.608 120.454Z" fill="#828282" fill-opacity="0.3"/>
<path d="M255.352 124.967C255.237 124.967 255.151 124.967 255.037 124.967C254.865 124.967 254.751 124.825 254.751 124.682C254.751 124.51 254.894 124.396 255.037 124.396C256.124 124.425 257.182 124.253 258.155 123.853C258.584 123.682 259.013 123.453 259.413 123.168C259.556 123.082 259.728 123.11 259.814 123.253C259.9 123.396 259.871 123.568 259.728 123.653C259.299 123.939 258.841 124.196 258.384 124.367C257.468 124.767 256.439 124.967 255.352 124.967Z" fill="#828282" fill-opacity="0.3"/>
<path d="M251.918 111.283C251.89 111.283 251.861 111.283 251.833 111.283C251.69 111.255 251.604 111.083 251.632 110.94C251.747 110.54 251.947 110.283 252.262 110.169C252.777 109.969 253.349 110.283 253.635 110.483C253.778 110.569 253.806 110.74 253.721 110.883C253.635 111.026 253.463 111.055 253.32 110.969C253.063 110.797 252.691 110.626 252.462 110.712C252.348 110.769 252.262 110.883 252.205 111.083C252.147 111.197 252.033 111.283 251.918 111.283Z" fill="#353437"/>
<path d="M252.262 107.312C252.434 107.598 252.291 107.998 252.033 107.998C251.976 107.998 251.89 107.998 251.833 107.998C251.49 108.026 251.461 108.169 251.29 108.255C251.09 108.055 250.803 107.712 250.832 107.112C250.861 106.712 250.946 106.512 251.118 106.226C251.318 106.283 251.49 106.455 251.747 106.683C251.948 106.855 252.119 107.083 252.262 107.312Z" fill="#353437"/>
<path d="M280.752 114.197C280.695 114.197 280.609 114.14 280.609 114.083C280.609 113.997 280.666 113.94 280.723 113.911C281.095 113.854 281.553 113.369 281.753 112.94C281.782 112.911 282.983 110.026 282.325 107.912C282.182 107.455 281.553 106.226 280.437 106.512C280.266 106.541 279.98 106.655 279.665 106.912C279.608 106.969 279.522 106.969 279.465 106.912C279.408 106.855 279.408 106.769 279.465 106.712C279.808 106.398 280.18 106.284 280.352 106.255C281.667 105.912 282.411 107.312 282.583 107.826C283.269 110.083 282.011 113.026 281.982 113.054C281.782 113.569 281.267 114.111 280.752 114.197C280.781 114.197 280.752 114.197 280.752 114.197Z" fill="#F38484"/>
<path d="M279.665 111.197C279.579 111.197 279.522 111.14 279.522 111.055C279.522 110.969 279.579 110.912 279.665 110.912C279.979 110.883 280.38 110.683 280.494 110.369C280.609 110.055 280.408 109.626 279.894 109.198C279.064 108.483 279.093 107.769 279.15 107.398C279.178 107.312 279.236 107.283 279.321 107.283C279.407 107.312 279.436 107.369 279.436 107.455C279.379 107.769 279.379 108.369 280.065 108.998C280.809 109.683 280.837 110.169 280.723 110.483C280.58 110.912 280.094 111.169 279.665 111.197Z" fill="#F38484"/>
<path d="M265.02 132.995C268.824 131.852 272.714 129.796 273.2 129.51C274.659 128.624 277.004 126.967 278.663 124.082C280.179 121.425 280.265 117.797 280.208 116.283C279.779 116.311 279.064 116.054 278.749 115.797C275.317 119.082 273.114 126.282 265.02 132.995Z" fill="#F38484"/>
<path d="M286.529 138.081C285.557 139.452 284.47 141.423 283.326 144.023C281.896 147.251 280.608 151.594 280.465 158.85C280.294 167.649 281.953 174.706 283.04 178.791C285.385 187.533 289.933 204.731 303.491 221.958C307.238 226.701 312.101 232.357 320.139 238.357C323.886 241.156 325.03 241.442 335.556 248.613C345.968 255.698 348.17 258.041 350.401 262.012C353.119 267.925 351.688 271.611 350.973 274.553C352.89 273.696 358.382 265.097 350.087 255.327C347.369 252.355 344.48 249.784 340.991 245.756C337.415 241.642 332.324 234.671 327.576 220.958C321.454 203.303 320.024 186.276 319.881 174.506C319.652 169.106 316.706 148.965 315.39 145.937C313.874 143.366 309.298 138.823 300.088 138.338C295.883 138.309 292.536 138.223 286.529 138.081Z" fill="#35489E"/>
<path d="M291.678 203.046C293.137 206.046 294.824 209.16 296.769 212.331C304.12 207.131 308.325 203.532 310.785 200.303C313.073 217.416 320.682 235.071 335.556 248.642C345.967 255.727 348.17 258.069 350.401 262.04C353.118 267.954 351.688 271.639 350.973 274.582C352.889 273.725 358.381 265.126 350.086 255.355C347.369 252.384 344.48 249.813 340.99 245.785C337.415 241.671 332.323 234.7 327.575 220.987C321.454 203.332 320.024 186.305 319.881 174.534C319.824 172.906 319.48 169.906 319.051 166.449C313.817 180.162 305.837 188.133 291.678 203.046Z" fill="#213B8E"/>
<path d="M249.631 235.214C249.574 235.214 249.517 235.157 249.488 235.1C248.258 228.615 247.915 222.758 247.657 218.073C247.629 217.559 247.6 217.045 247.572 216.559C246.971 206.246 247.4 198.189 247.772 195.075C248.401 189.561 249.402 184.105 250.632 179.677C251.462 176.705 252.234 174.563 253.121 172.077C256.41 164.649 257.64 161.564 259.842 155.965C260.386 154.593 260.987 153.108 261.673 151.365C262.96 148.137 264.219 144.766 265.392 141.395C265.42 141.309 265.506 141.28 265.563 141.309C265.649 141.337 265.678 141.423 265.649 141.48C264.476 144.851 263.218 148.222 261.931 151.451C261.244 153.193 260.643 154.708 260.1 156.05C257.869 161.65 256.667 164.735 253.378 172.163C252.491 174.62 251.748 176.763 250.918 179.734C249.688 184.162 248.687 189.619 248.058 195.104C247.715 198.218 247.286 206.246 247.858 216.559C247.886 217.045 247.915 217.559 247.943 218.073C248.201 222.758 248.515 228.586 249.745 235.071C249.774 235.129 249.717 235.186 249.631 235.214Z" fill="#828282" fill-opacity="0.3"/>
<path d="M351.059 274.553H351.031C350.945 274.525 350.916 274.467 350.916 274.382C351.803 271.068 352.375 266.183 350.03 261.697C348.885 259.526 347.369 258.012 345.625 256.298C343.737 254.441 342.392 253.498 337.53 250.241C329.835 245.07 327.147 243.299 327.118 243.27C322.227 240.014 319.51 238.242 319.109 237.957C313.932 234.157 310.528 230.415 308.068 227.672C303.635 222.815 299.458 217.102 295.997 211.188C291.793 203.988 289.676 198.389 286.987 191.275C285.099 186.304 283.355 181.619 281.896 175.048C280.18 167.163 280.037 161.707 280.122 159.193C280.18 156.793 280.294 153.193 281.524 148.651C282.554 144.851 284.127 141.223 286.244 137.852C286.272 137.795 286.387 137.766 286.444 137.795C286.501 137.823 286.53 137.938 286.501 137.995C284.413 141.337 282.84 144.937 281.839 148.737C280.609 153.25 280.523 156.85 280.437 159.221C280.351 161.735 280.494 167.163 282.211 175.02C283.641 181.591 285.414 186.276 287.273 191.218C289.962 198.303 292.079 203.931 296.255 211.074C299.716 216.987 303.863 222.672 308.297 227.529C310.757 230.243 314.161 233.986 319.309 237.757C319.71 238.042 322.399 239.842 327.29 243.07C327.318 243.099 329.979 244.87 337.701 250.041C342.564 253.327 343.908 254.241 345.825 256.126C347.598 257.869 349.143 259.383 350.287 261.612C352.661 266.183 352.089 271.154 351.174 274.496C351.174 274.496 351.117 274.553 351.059 274.553Z" fill="#828282" fill-opacity="0.3"/>
<path d="M201.919 148.222C201.862 148.337 201.748 148.594 201.834 149.165C202.034 150.736 203.035 151.851 203.664 152.451C205.466 152.193 207.24 151.936 209.042 151.679C207.983 150.336 206.896 148.965 205.838 147.622C203.893 147.194 202.348 147.422 201.919 148.222Z" fill="#F38484"/>
<path d="M229.207 178.42C226.833 175.534 224.459 172.649 222.114 169.763C221.828 169.42 221.627 169.02 221.484 168.592C220.826 166.221 220.169 163.735 219.596 161.107C218.939 158.107 218.395 155.25 217.966 152.508C217.852 151.765 217.394 151.108 216.736 150.708C213.647 148.937 210.586 147.137 207.497 145.366C207.183 145.194 206.868 145.08 206.496 145.051L200.375 144.451C200.203 144.423 200.032 144.423 199.831 144.451C198.687 144.594 196.656 144.851 195.77 144.966C195.512 144.994 195.312 145.223 195.341 145.48C195.341 145.851 195.398 146.337 195.598 146.651C196.142 147.537 197.6 147.223 199.803 147.48C201.776 147.708 203.149 148.337 204.494 148.451C205.295 149.194 206.124 149.937 206.925 150.708C206.01 150.708 205.066 150.708 204.151 150.708C203.893 150.708 202.492 150.908 202.148 152.365C201.691 154.05 202.348 155.336 202.463 155.936C201.977 156.879 201.948 157.936 202.062 158.821C202.263 160.307 203.264 161.393 203.521 161.593C203.464 162.078 203.378 162.678 203.35 163.421C203.292 164.992 203.264 165.849 203.779 166.621C203.893 166.792 204.265 167.306 204.894 167.563C205.18 167.678 205.409 167.706 205.924 167.735C206.439 167.763 207.125 167.792 207.926 167.821C208.184 168.363 208.527 168.992 208.956 169.649C209.299 170.163 209.671 170.62 209.986 171.02L210.93 177.077C211.073 177.363 211.33 177.82 211.788 178.191C212.617 178.877 213.533 178.962 213.876 178.962C214.534 179.562 215.192 180.191 215.878 180.876C218.195 183.219 220.111 185.562 221.685 187.79C222.743 187.304 224.202 186.447 225.575 185.019C228.092 182.591 228.921 179.762 229.207 178.42Z" fill="#F7B2B2"/>
<path d="M210.644 151.765C210.615 151.765 210.615 151.765 210.587 151.765C210.186 151.594 209.757 151.451 209.299 151.308C208.47 151.079 207.612 150.936 206.725 150.879C206.639 150.879 206.582 150.822 206.582 150.736C206.582 150.651 206.639 150.594 206.725 150.594C207.612 150.651 208.498 150.794 209.357 151.022C209.786 151.136 210.243 151.308 210.672 151.479C210.758 151.508 210.787 151.594 210.758 151.679C210.758 151.736 210.701 151.765 210.644 151.765Z" fill="#F38484"/>
<path d="M209.9 156.564H209.872C208.327 156.079 206.725 155.822 205.123 155.822C204.294 155.822 203.436 155.879 202.606 155.993C202.52 155.993 202.463 155.965 202.435 155.879C202.435 155.793 202.463 155.736 202.549 155.707C203.407 155.593 204.265 155.536 205.123 155.536C206.754 155.565 208.384 155.822 209.957 156.307C210.043 156.336 210.072 156.422 210.043 156.479C210.015 156.507 209.957 156.564 209.9 156.564Z" fill="#F38484"/>
<path d="M210.214 161.907C208.898 161.678 207.554 161.564 206.238 161.564C205.352 161.564 204.436 161.621 203.55 161.735C203.464 161.735 203.407 161.678 203.378 161.621C203.378 161.535 203.435 161.478 203.492 161.45C204.379 161.335 205.294 161.278 206.21 161.278C207.554 161.278 208.898 161.393 210.214 161.621C210.3 161.621 210.357 161.707 210.329 161.793C210.357 161.878 210.3 161.907 210.214 161.907Z" fill="#F38484"/>
<path d="M266.191 203.303C268.051 201.417 270.568 198.732 273.314 195.332C276.317 191.647 282.181 184.333 287.015 173.963C292.192 162.878 294.137 156.85 294.137 156.85C294.595 155.422 295.825 151.565 299 147.737C301.774 144.394 304.005 143.509 305.007 143.166C305.579 142.966 308.096 142.223 310.727 142.88C315.733 144.166 318.05 149.937 318.994 152.279C324.057 164.878 316.191 180.905 314.131 185.047C306.694 200.189 295.596 209.474 285.585 217.816C279.492 222.93 274.029 226.701 270.167 229.215C269.424 229.643 268.022 230.272 266.163 230.357C266.163 230.357 263.188 230.5 260.728 228.929C257.324 226.729 256.209 219.587 259.298 211.816C261.643 209.017 263.932 206.16 266.191 203.303Z" fill="#5067BC"/>
<path d="M228.806 176.791C233.64 180.762 238.675 184.762 243.938 188.761C251.117 194.247 258.154 199.36 265.047 204.16C265.934 204.903 267.078 206.046 268.193 207.588C269.309 209.131 271.769 213.073 271.912 218.416C271.941 219.216 272.055 228.586 267.335 230.386C257.524 231.9 250.345 220.787 244.224 214.416C239.018 209.017 240.019 210.445 235.385 205.588C231.18 201.189 225.832 195.275 219.968 187.904C220.568 188.133 222.885 186.39 224.544 184.762C228.349 180.991 228.978 177.677 228.806 176.791Z" fill="#5067BC"/>
<path d="M221.198 187.247C221.141 187.247 221.112 187.219 221.084 187.19C219.482 185.019 217.737 182.933 215.821 181.048C215.191 180.419 214.534 179.791 213.876 179.191C213.447 179.162 211.33 178.934 210.787 176.734L209.928 171.306C209.9 171.22 209.871 171.106 209.814 171.049C209.499 170.649 209.185 170.22 208.899 169.792C208.527 169.22 208.184 168.649 207.898 168.049C207.268 168.021 206.61 167.992 205.981 167.963C205.495 167.935 205.209 167.906 204.894 167.792C204.437 167.592 204.036 167.249 203.693 166.792C203.121 165.964 203.178 165.021 203.235 163.507C203.264 162.935 203.321 162.335 203.407 161.764C203.035 161.421 202.12 160.336 201.948 158.936C201.805 157.822 201.948 156.85 202.348 155.993C202.32 155.907 202.291 155.765 202.234 155.65C202.005 154.965 201.662 153.822 202.034 152.422C202.348 150.994 203.721 150.679 204.15 150.679H206.553L204.437 148.708C203.807 148.651 203.149 148.48 202.463 148.28C201.691 148.08 200.804 147.851 199.774 147.737C199.116 147.651 198.516 147.622 198.001 147.622C196.771 147.565 195.855 147.537 195.455 146.851C195.226 146.508 195.169 145.966 195.169 145.594C195.169 145.251 195.398 144.966 195.741 144.937L199.803 144.423C199.974 144.394 200.175 144.394 200.375 144.423L206.496 145.023C206.868 145.051 207.211 145.166 207.554 145.366L216.793 150.708C217.508 151.108 217.966 151.794 218.08 152.593C218.538 155.45 219.082 158.336 219.711 161.193C220.283 163.678 220.912 166.192 221.599 168.678C221.713 169.078 221.913 169.478 222.199 169.792C223.258 171.077 224.259 172.277 225.231 173.477C226.232 174.677 227.205 175.877 228.263 177.163C228.321 177.22 228.292 177.305 228.235 177.363C228.178 177.42 228.092 177.391 228.035 177.334C226.976 176.048 225.975 174.848 225.003 173.649C224.001 172.449 223.029 171.249 221.971 169.963C221.685 169.592 221.456 169.192 221.341 168.735C220.655 166.278 219.997 163.735 219.453 161.25C218.824 158.421 218.281 155.507 217.823 152.651C217.709 151.936 217.28 151.336 216.65 150.965L207.411 145.508C207.125 145.337 206.811 145.251 206.467 145.194L200.346 144.594C200.175 144.566 200.003 144.566 199.86 144.594L195.798 145.108C195.598 145.137 195.484 145.28 195.484 145.48C195.484 145.823 195.541 146.308 195.741 146.594C196.084 147.137 196.857 147.194 198.058 147.223C198.573 147.251 199.173 147.28 199.86 147.365C200.89 147.48 201.805 147.708 202.577 147.937C203.264 148.108 203.922 148.308 204.551 148.365C204.58 148.365 204.608 148.394 204.637 148.394L207.068 150.651C207.125 150.679 207.125 150.765 207.097 150.794C207.068 150.822 207.011 150.879 206.954 150.879H204.179C204.179 150.879 202.663 150.965 202.32 152.422C201.948 153.765 202.291 154.822 202.52 155.507C202.577 155.679 202.606 155.822 202.634 155.936C202.634 155.965 202.634 155.993 202.634 156.022C202.234 156.822 202.091 157.764 202.234 158.85C202.406 160.25 203.35 161.278 203.664 161.535C203.693 161.564 203.721 161.621 203.721 161.678C203.636 162.278 203.578 162.878 203.55 163.478C203.493 165.107 203.464 165.878 203.95 166.592C204.236 167.021 204.608 167.335 205.009 167.478C205.266 167.592 205.495 167.621 206.01 167.649C206.668 167.678 207.325 167.706 207.983 167.735C208.041 167.735 208.098 167.763 208.098 167.821C208.412 168.449 208.756 169.049 209.128 169.62C209.414 170.049 209.7 170.449 210.043 170.849C210.129 170.963 210.214 171.106 210.214 171.249L211.073 176.677C211.587 178.762 213.704 178.905 213.962 178.905C213.99 178.905 214.019 178.905 214.047 178.934C214.734 179.562 215.392 180.191 216.05 180.848C217.937 182.762 219.739 184.848 221.313 187.019C221.37 187.076 221.341 187.162 221.284 187.219C221.284 187.247 221.227 187.247 221.198 187.247Z" fill="#F38484"/>
<path d="M195.741 146.594C195.655 146.594 195.598 146.537 195.598 146.451C195.598 146.365 195.655 146.308 195.712 146.308L197.457 146.137C197.514 146.108 197.686 146.051 197.829 145.908C198 145.708 198.029 145.394 197.886 145.137C197.857 145.051 197.886 144.994 197.972 144.937C198.058 144.908 198.115 144.937 198.172 145.023C198.344 145.394 198.286 145.794 198.058 146.08C197.886 146.308 197.657 146.394 197.514 146.423L195.741 146.594Z" fill="#F38484"/>
<path fill-rule="evenodd" clip-rule="evenodd" d="M459.752 221.708L437.698 238.735L439.701 243.335C439.786 243.792 440.158 244.163 440.702 244.163L469.077 243.563C469.792 243.535 470.249 242.821 469.963 242.192L461.153 221.908C460.867 221.28 460.238 221.194 459.752 221.708Z" fill="#BF2652"/>
<path fill-rule="evenodd" clip-rule="evenodd" d="M457.663 217.337L437.926 237.735C437.326 238.364 437.783 239.421 438.642 239.392L467.045 238.878C467.731 238.878 468.218 238.135 467.932 237.507L459.293 217.652C459.007 216.994 458.149 216.823 457.663 217.337Z" fill="#F95070"/>
<path fill-rule="evenodd" clip-rule="evenodd" d="M338.014 136.145L337.071 134.231L325.915 140.144L326.802 142.173C326.859 142.258 326.916 142.316 327.031 142.373L337.185 146.658C337.557 146.801 337.871 146.601 337.9 146.201L338.043 136.316C338.072 136.259 338.043 136.202 338.014 136.145Z" fill="#BF2652"/>
<path fill-rule="evenodd" clip-rule="evenodd" d="M336.555 134.088L326.115 139.63C325.8 139.802 325.829 140.23 326.143 140.373L336.355 144.601C336.612 144.716 336.927 144.516 336.927 144.23L337.156 134.431C337.156 134.145 336.812 133.945 336.555 134.088Z" fill="#F95070"/>
<path fill-rule="evenodd" clip-rule="evenodd" d="M328.404 372.552C328.404 372.552 313.987 368.952 313.215 368.467C312.958 369.781 312.757 370.895 312.5 372.209C312.471 372.295 312.471 372.409 312.5 372.523L315.961 385.208C316.075 385.579 316.533 385.722 316.819 385.494L327.517 376.694C327.631 376.609 327.688 376.494 327.688 376.38C327.917 375.095 328.404 372.552 328.404 372.552Z" fill="#BF2652"/>
<path fill-rule="evenodd" clip-rule="evenodd" d="M313.186 368.78L316.647 381.465C316.762 381.836 317.219 381.979 317.505 381.75L328.203 372.951C328.546 372.665 328.432 372.123 328.003 372.008L313.844 368.123C313.443 368.009 313.072 368.38 313.186 368.78Z" fill="#F95070"/>
<path d="M41.6806 274.531L26.9212 263.675L24.3469 265.76C24.0608 265.903 23.8892 266.189 24.0036 266.532L29.4955 284.358C29.6385 284.787 30.182 284.958 30.5252 284.673L41.7951 275.445C42.1669 275.159 42.0811 274.731 41.6806 274.531Z" fill="#F9C973"/>
<path fill-rule="evenodd" clip-rule="evenodd" d="M44.0832 272.418L27.6075 263.619C27.0926 263.333 26.5206 263.819 26.6922 264.361L32.1269 282.217C32.2699 282.645 32.7848 282.817 33.1566 282.531L44.169 273.503C44.5409 273.189 44.4836 272.646 44.0832 272.418Z" fill="#FFF9B0"/>
<path d="M298.226 32.8976L298.369 27.1838L264.559 27.4981L264.188 33.4118V33.4404C264.188 33.6689 264.302 33.9546 264.502 34.1832L283.609 57.1239C284.324 57.8952 285.125 57.5524 285.497 56.8953L298.111 33.4118C298.197 33.2404 298.226 33.069 298.226 32.8976Z" fill="#F9C973"/>
<path fill-rule="evenodd" clip-rule="evenodd" d="M297.255 26.184L265.619 26.4982C264.675 26.4982 264.189 27.5838 264.79 28.3266L283.782 50.953C284.269 51.553 285.212 51.4673 285.613 50.7816L298.227 27.8409C298.656 27.0696 298.113 26.184 297.255 26.184Z" fill="#FFF9B0"/>
<path fill-rule="evenodd" clip-rule="evenodd" d="M155.721 308.014L153.891 309.557L163.416 320.07L165.389 318.528C165.475 318.442 165.504 318.356 165.532 318.213L167.42 305.957C167.477 305.529 167.163 305.243 166.734 305.3L155.893 307.872C155.836 307.9 155.75 307.957 155.721 308.014Z" fill="#BF2652"/>
<path fill-rule="evenodd" clip-rule="evenodd" d="M153.863 310.186L162.788 320.013C163.045 320.299 163.531 320.156 163.589 319.756L165.391 307.472C165.448 307.157 165.133 306.872 164.819 306.957L154.064 309.414C153.778 309.5 153.635 309.928 153.863 310.186Z" fill="#F95070"/>
<path d="M139.161 382.264L136.358 379.922L123.058 396.92L125.861 399.463C125.975 399.548 126.147 399.606 126.376 399.606L145.454 399.177C146.141 399.12 146.255 398.577 146.084 398.149L139.333 382.522C139.333 382.407 139.247 382.322 139.161 382.264Z" fill="#F9C973"/>
<path fill-rule="evenodd" clip-rule="evenodd" d="M135.415 380.065L123.001 396.006C122.629 396.463 122.972 397.149 123.573 397.149L142.451 396.663C142.938 396.663 143.281 396.149 143.081 395.692L136.616 380.265C136.416 379.722 135.758 379.636 135.415 380.065Z" fill="#FFF9B0"/>
<defs>
<clipPath id="clip0">
<rect width="57.2644" height="57.1946" fill="white" transform="translate(65.1387 102.95)"/>
</clipPath>
</defs>
</svg>
